# группы;день;# приёма пищи;БЕЛОК гр;ЖИР грм;УГЛЕВ грм;ККАЛ;наименование;кол-во грамм;кол-во штук;замена;кол-во грамм;кол-во штук;;;;;;;;;;;;;;;;;;
группа 1250ккал;день 1/30;приём пищи 1;5,00;2,00;21,00;120,00;Овсяная крупа;30;;Гречневая крупа;30;;;;;;;;;;;;;;;;;;;
;;;1,00;0,00;12,00;50,00;Апельсин;150;;;;;;;;;;;;;;;;;;;;;;
;;;8,00;6,00;0,00;94,00;Яйцо варёное;;1;;;;с 1 по 7 день воды не менее 2 лит вдень!!;;;;;;;;;;;;;;;;;
;;;3,00;9,00;2,00;94,00;Миндаль;15;;;;;;;;;;;;;;;;;;;;;;
;;сумма 1;17,00;17,00;35,00;358,00;;;;;;;;;;;;;;;;;;;;;;;;
Со 2 ого приема вес в готовом виде!!!;;;;;;;;;;;;;;;;;;;;;;;;;;;;;;
;;приём пищи 2;25,00;8,00;0,00;175,00;Говядина запеченная;100;;;;;;;;;;;;;;;;;;;;;;
;;;2,00;0,00;25,00;120,00;Рис пропаренный;100;;;;;;;;;;;;;;;;;;;;;;
;;;0,00;0,00;4,00;15,00;Овощи (зелень, огурец, брокколи);;Не ограничено;;;;;;;;;;;;;;;;;;;;;
;;;3,00;7,00;3,00;90,00;Кешью;15;;;;;;;;;;;;;;;;;;;;;;
;;сумма 2;30,00;15,00;32,00;400,00;;;;;;;;;;;;;;;;;;;;;;;;
;;;;;;;;;;;;;;;;;;;;;;;;;;;;;;
;;приём пищи 3;3,00;2,00;17,00;90,00;Гречневая крупа;100;;Печёный картофель;80;;;;;;;;;;;;;;;;;;;
;;;21,00;4,00;4,00;137,00;Куриное филе гриль;120;;Индейка филе гриль;120;;;;;;;;;;;;;;;;;;;
;;;1,00;10,00;3,00;106,00;Авокадо;;1/2 шт.;;;;;;;;;;;;;;;;;;;;;
;;;0,00;0,00;4,00;15,00;Салат без масла (огурец, пекинская капуста, зелень);;Не ограничено;Зелень (укроп, шпинат, петрушка);;Не ограничено;;;;;;;;;;;;;;;;;;
;;сумма 3;25,00;16,00;28,00;348,00;;;;;;;;;;;;;;;;;;;;;;;;
;;;;;;;;;;;;;;;;;;;;;;;;;;;;;;
;;приём пищи 4;26,00;4,00;0,00;150,00;Хек запеченный;170;;Окунь морской запеченый;160;;;;;;;;;;;;;;;;;;;
;;;0,00;0,00;4,00;15,00;Салат без масла (огурец, пекинская капуста, зелень);;Не ограничено;;;;;;;;;;;;;;;;;;;;;
;;сумма 4;26,00;4,00;4,00;165,00;;;;;;;;;;;;;;;;;;;;;;;;
; ДЕНЬ 2/30;;;;;;;;;;;;;;;;;;;;;;;;;;;;;
;;приём пищи 1;5,00;2,00;24,00;140,00;Овсяная крупа;40;;;;;;;;;;;;;;;;;;;;;;
;;;0,00;0,00;15,00;70,00;Яблоко;150;;;;;;;;;;;;;;;;;;;;;;
;;;15,00;13,00;1,00;190,00;Омлет яйца целые;;2;;;;;;;;;;;;;;;;;;;;;
;;сумма 1;20,00;15,00;40,00;400,00;;;;;;;;;;;;;;;;;;;;;;;;
Со 2 ого приема вес в готовом виде!!;;;;;;;;;;;;;;;;;;;;;;;;;;;;;;
;;приём пищи 2;;;;;;;;;;;;;;;;;;;;;;;;;;;;
;;;2,00;7,00;16,00;135,00;Печёный картофель;100;;Батат печеный;100;;;;;;;;;;;;;;;;;;;
;;;31,00;10,00;0,00;210,00;Говядина гриль;120;;;;;;;;;;;;;;;;;;;;;;
;;;0,00;0,00;4,00;15,00;Овощи зеленые;;Не ограничено;;;;;;;;;;;;;;;;;;;;;
;;;3,00;7,00;3,00;90,00;Кешью;15;;;;;;;;;;;;;;;;;;;;;;
;;сумма 2;36,00;24,00;23,00;450,00;;;;;;;;;;;;;;;;;;;;;;;;
;;;;;;;;;;;;;;;;;;;;;;;;;;;;;;
;;приём пищи 3;30,00;1,00;0,00;156,00;Индейка филе;120;;;;;;;;;;;;;;;;;;;;;;
;;;3,00;0,00;17,00;90,00;Гречневая крупа;100;;;;;;;;;;;;;;;;;;;;;;
;;;0,00;0,00;4,00;15,00;Зелень (укроп, шпинат, петрушка);;Не ограничено;;;;;;;;;;;;;;;;;;;;;
;;сумма 3;33,00;1,00;21,00;261,00;;;;;;;;;;;;;;;;;;;;;;;;
;;приём пищи 4;;;;;;;;;;;;;;;;;;;;;;;;;;;;
;;;28,00;5,00;0,00;140,00;Окунь морской запеченный;150;;Минтай филе запеченный;150;;;;;;;;;;;;;;;;;;;
;;;0,00;0,00;4,00;15,00;Салат без масла (огурец, пекинская капуста, зелень);;Не ограничено;;;;;;;;;;;;;;;;;;;;;
;;сумма 4;28,00;5,00;4,00;155,00;;;;;;;;;;;;;;;;;;;;;;;;
;день 3/30;;;;;;;;;;;;;;;;;;;;;;;;;;;;;
;;приём пищи 1;5,00;2,00;21,00;120,00;Овсяная крупа;30;;;;;;;;;;;;;;;;;;;;;;
;;;15,00;13,00;1,00;190,00;Омлет яйца целые;;2;;;;;;;;;;;;;;;;;;;;;
;;;0,00;0,00;15,00;70,00;Яблоко;150;;;;;;;;;;;;;;;;;;;;;;
;;сумма 1;20,00;15,00;37,00;380,00;;;;;;;;;;;;;;;;;;;;;;;;
Со 2 ого приема вес в готовом виде!!;;;;;;;;;;;;;;;;;;;;;;;;;;;;;;
;;приём пищи 2;25,00;8,00;0,00;175,00;Говядина запечённая;100;;Куриное филе гриль;150;;;;;;;;;;;;;;;;;;;
;;;3,00;0,00;17,00;90,00;Гречневая крупа;100;;;;;;;;;;;;;;;;;;;;;;
;;;3,00;9,00;2,00;94,00;Миндаль;15;;;;;;;;;;;;;;;;;;;;;;
;;сумма 2;31,00;17,00;19,00;359,00;;;;;;;;;;;;;;;;;;;;;;;;
;;приём пищи 3;;;;;;;;;;;;;;;;;;;;;;;;;;;;
;;;25,00;1,00;0,00;130,00;Индейка гриль филе;100;;;;;;;;;;;;;;;;;;;;;;
;;;2,00;0,00;25,00;116,00;Рис белый отварной;100;;;;;;;;;;;;;;;;;;;;;;
;;;1,00;12,00;3,00;127,00;Авокадо;;1/2 шт.;Оливковое масло;;1/2 ст. л.;;;;;;;;;;;;;;;;;;
;;сумма 3;28,00;13,00;28,00;373,00;;;;;;;;;;;;;;;;;;;;;;;;
;;приём пищи 4;;;;;;;;;;;;;;;;;;;;;;;;;;;;
;;;20,00;4,00;0,00;125,00;Хек запеченный;150;;Тунец филе;140;;;;;;;;;;;;;;;;;;;
;;;0,00;0,00;4,00;15,00;Салат без масла (огурец, пекинская капуста, зелень);;не ограничено;Спаржа (аспарагус) на гриле;100;;;;;;;;;;;;;;;;;;;
;;сумма 4;20,00;4,00;4,00;140,00;;;;;;;;;;;;;;;;;;;;;;;;
;день 4/30;;;;;;;;;;;;;;;;;;;;;;;;;;;;;
;;приём пищи 1;5,00;2,00;24,00;140,00;Овсяная крупа;40;;;;;;;;;;;;;;;;;;;;;;
Со 2 ого приема вес в готовом виде!!!;;;7,00;6,00;0,00;94,00;Яйцо варёное;;1;;;;;;;;;;;;;;;;;;;;;
;;;2,00;10,00;1,00;98,00;Грецкий орех;15;;Миндаль;15;;;;;;;;;;;;;;;;;;;
;;сумма 1;14,00;18,00;25,00;332,00;;;;;;;;;;;;;;;;;;;;;;;;
;;;;;;;;;;;;;;;;;;;;;;;;;;;;;;
;;приём пищи 2;33,00;11,00;0,00;230,00;Говядина печёная;130;;;;;;;;;;;;;;;;;;;;;;
;;;2,00;0,00;25,00;116,00;Рис отварной;100;;;;;;;;;;;;;;;;;;;;;;
;;;0,00;0,00;4,00;15,00;Овощи (зелень, огурец, брокколи);;Не ограничено;;;;;;;;;;;;;;;;;;;;;
;;;1,00;10,00;3,00;106,00;Авокадо;;1/2 шт.;;;;;;;;;;;;;;;;;;;;;
;;сумма 2;36,00;21,00;32,00;467,00;;;;;;;;;;;;;;;;;;;;;;;;
;;;;;;;;;;;;;;;;;;;;;;;;;;;;;;
;;приём пищи 3;30,00;10,00;0,00;210,00;Говядина запечённая;120;;;;;;;;;;;;;;;;;;;;;;
;;;2,00;1,00;17,00;87,00;Картофель печеный;100;;Батат запеченный;100;;;;;;;;;;;;;;;;;;;
;;;0,00;0,00;4,00;15,00;Овощи зеленые любые;;Не ограничено;;;;;;;;;;;;;;;;;;;;;
;;СУММА 3;32,00;11,00;21,00;312,00;;;;;;;;;;;;;;;;;;;;;;;;
;;;;;;;;;;;;;;;;;;;;;;;;;;;;;;
;;приём пищи 4;32,00;1,00;0,00;141,00;Тунец филе;140;;;;;;;;;;;;;;;;;;;;;;
;;;0,00;0,00;4,00;15,00;Салат без масла (огурец, пекинская капуста, зелень);;Не ограничено;;;;;;;;;;;;;;;;;;;;;
;;сумма 4;32,00;1,00;4,00;156,00;;;;;;;;;;;;;;;;;;;;;;;;
;день 5/30;;;;;;;;;;;;;;;;;;;;;;;;;;;;;
;;приём пищи 1;5,00;2,00;24,00;140,00;Овсяная крупа;40;;Гречневая крупа;40;;;;;;;;;;;;;;;;;;;
;;;7,00;6,00;0,00;94,00;Яйцо варёное;;1;;;;;;;;;;;;;;;;;;;;;
Со 2 ого приема вес в готовом виде!!!;;;0,00;0,00;16,00;63,00;Груша;150;;Яблоко;150;;;;;;;;;;;;;;;;;;;
;;;3,00;13,00;1,00;130,00;Грецкий орех;20;;;;;;;;;;;;;;;;;;;;;;
;;сумма 1;15,00;21,00;41,00;427,00;;;;;;;;;;;;;;;;;;;;;;;;
;;;;;;;;;;;;;;;;;;;;;;;;;;;;;;
;;приём пищи 2;25,00;5,00;5,00;160,00;Куриное филе гриль;140;;;;;;;;;;;;;;;;;;;;;;
;;;2,00;0,00;25,00;116,00;Рис пропаренный;100;;Картофель печеный;70;;;;;;;;;;;;;;;;;;;
;;;0,00;0,00;4,00;15,00;Салат (огурец, пекинская капуста, зелень, болгарский перец);;Не ограничено;;;;;;;;;;;;;;;;;;;;;
;;;0,00;10,00;0,00;90,00;Оливковое масло;;1 ст.л.;Льняное масло;;1 ст.л.;;;;;;;;;;;;;;;;;;
;;сумма 2;27,00;15,00;34,00;381,00;;;;;;;;;;;;;;;;;;;;;;;;
;;;;;;;;;;;;;;;;;;;;;;;;;;;;;;
;;приём пищи 3;25,00;5,00;5,00;160,00;Куриное филе гриль;140;;;;;;;;;;;;;;;;;;;;;;
;;;5,00;1,00;26,00;135,00;Пшеничная крупа;100;;Гречневая крупа;100;;;;;;;;;;;;;;;;;;;
;;;0,00;0,00;4,00;15,00;Овощи (огурец, зелень, брокколи);;Не ограничено;;;;;;;;;;;;;;;;;;;;;
;;сумма 3;30,00;6,00;35,00;310,00;;;;;;;;;;;;;;;;;;;;;;;;
;;;;;;;;;;;;;;;;;;;;;;;;;;;;;;
;;приём пищи 4;;;;;;;;;;;;;;;;;;;;;;;;;;;;
;;;24,00;3,00;1,00;135,00;Форель речная гриль;150;;Окунь морской запеченный;150;;;;;;;;;;;;;;;;;;;
;;;0,00;0,00;4,00;15,00;Салат (огурец, пекинская капуста, зелень);;Не ограничено;Спаржа - аспарагус запеченный;100;;;;;;;;;;;;;;;;;;;
;;сумма 4;24,00;3,00;5,00;150,00;;;;;;;;;;;;;;;;;;;;;;;;
;день 6/30;;;;;;;;;;;;;;;;;;;;;;;;;;;;;
;;приём пищи 1;5,00;2,00;24,00;140,00;Овсяная крупа;40;;Гречневая крупа;40;;;;;;;;;;;;;;;;;;;
;;;7,00;2,00;9,00;90,00;Йогурт 1% без добавок;150;;;;;;;;;;;;;;;;;;;;;;
;;;3,00;9,00;2,00;96,00;Миндаль;15;;;;;;;;;;;;;;;;;;;;;;
;;;1,00;0,00;20,00;85,00;Финик сушеный;30;;Курага;30;;;;;;;;;;;;;;;;;;;
;;сумма 1;16,00;13,00;55,00;411,00;;;;;;;;;;;;;;;;;;;;;;;;
;;;;;;;;;;;;;;;;;;;;;;;;;;;;;;
Со 2 ого приема вес в готовом виде!!!;Со 2 ого приеме вес вес в готовом виде!!!;;;;;;;;;;;;;;;;;;;;;;;;;;;;;
;;приём пищи 2;25,00;8,00;0,00;175,00;Говядина печёная;100;;;;;;;;;;;;;;;;;;;;;;
;;;3,00;0,00;23,00;100,00;Крупа ячневая;100;;Картофель печеный;100;;;;;;;;;;;;;;;;;;;
;;;0,00;0,00;4,00;15,00;Салат (огурец, пекинская капуста, зелень, болгарский перец);;Не ограничено;;;;;;;;;;;;;;;;;;;;;
;;;1,00;10,00;3,00;108,00;Авокадо;;1/2 шт.;;;;;;;;;;;;;;;;;;;;;
;;сумма 2;29,00;18,00;30,00;398,00;;;;;;;;;;;;;;;;;;;;;;;;
;;;;;;;;;;;;;;;;;;;;;;;;;;;;;;
;;приём пищи 3;29,00;11,00;0,00;220,00;Говядина печёная;100;;Индейка филе гриль;130;;;;;;;;;;;;;;;;;;;
;;;2,00;2,00;18,00;75,00;Крупа пшеничная;100;;Крупа гречневая;100;;;;;;;;;;;;;;;;;;;
;;;0,00;0,00;4,00;15,00;Овощи (огурец, брокколи, зелень);;Не ограничено;;;;;;;;;;;;;;;;;;;;;
;;сумма 3;31,00;13,00;22,00;310,00;;;;;;;;;;;;;;;;;;;;;;;;
;;;;;;;;;;;;;;;;;;;;;;;;;;;;;;
;;приём пищи 4;21,00;5,00;0,00;135,00;Хек филе запеченное;150;;Минтай филе запеченное;150;;;;;;;;;;;;;;;;;;;
;;;2,00;0,00;3,00;20,00;Аспарагус (спаржа) гриль;100;;Салат (огурец, пекинская капуста, зелень);;Не ограничено;;;;;;;;;;;;;;;;;;
;;сумма 4;23,00;5,00;3,00;155,00;;;;;;;;;;;;;;;;;;;;;;;;
;;;;;;;;;;;;;;;;;;;;;;;;;;;;;;
;день 7/30;;;;;;;;;;;;;;;;;;;;;;;;;;;;;
;;приём пищи 1;11,00;16,00;2,00;202,00;Омлет яйца целые;;2;;;;;;;;;;;;;;;;;;;;;
;;;2,00;0,00;22,00;101,00;Кукурузная крупа;30;;Овсяная крупа;40;;;;;;;;;;;;;;;;;;;
Со 2 ого приема вес в готовом виде!!!;;;1,00;0,00;21,00;85,00;Сухофрукт любой;30;;Курага;30;;;;;;;;;;;;;;;;;;;
;;сумма 1;14,00;16,00;45,00;388,00;;;;;;;;;;;;;;;;;;;;;;;;
;;приём пищи 2;;;;;;;;;;;с 7 по 14 день воды не менее 2,2 лит в день!!!!;;;;;;;;;;;;;;;;;
;;;2,00;1,00;18,00;87,00;Батат печеный;100;;Картофель печеный;100;;;;;;;;;;;;;;;;;;;
;;;32,00;12,00;0,00;235,00;Филе кролика гриль;140;;Филе говядины гриль;120;;;;;;;;;;;;;;;;;;;
;;;0,00;0,00;4,00;15,00;Салат из овощей (любые зеленые);;Не ограничено;;;;;;;;;;;;;;;;;;;;;
;;сумма 2;34,00;13,00;22,00;337,00;;;;;;;;;;;;;;;;;;;;;;;;
;;;;;;;;;;;;;;;;;;;;;;;;;;;;;;
;;приём пищи 3;18,00;13,00;0,00;191,00;Скумбрия гриль;100;;Лосось филе гриль;100;;;;;;;;;;;;;;;;;;;
;;;2,00;1,00;23,00;110,00;Рис коричневый отварной;100;;;;;;;;;;;;;;;;;;;;;;
;;;0,00;0,00;4,00;15,00;Салат (огурец, пекинская капуста, зелень, болгарский перец) без масла;;Не ограничено;;;;;;;;;;;;;;;;;;;;;
;;сумма3;20,00;14,00;27,00;316,00;;;;;;;;;;;;;;;;;;;;;;;;
;;;;;;;;;;;;;;;;;;;;;;;;;;;;;;
;;приём пищи 4;35,00;6,00;0,00;200,00;Окунь морской гриль;170;;Тунец филе;150;;;;;;;;;;;;;;;;;;;
;;;0,00;0,00;4,00;15,00;Зелень (укроп, шпинат, петрушка);;Не ограничено;;;;;;;;;;;;;;;;;;;;;
;;сумма 4;35,00;6,00;4,00;215,00;;;;;;;;;;;;;;;;;;;;;;;;
;;;;;;;;;;;;;;;;;;;;;;;;;;;;;;
;день 8/30;;;;;;;;;;;;;;;;;;;;;;;;;;;;;
;;приём пищи 1;5,00;2,00;24,00;140,00;Овсяная крупа;40;;;;;;;;;;;;;;;;;;;;;;
;;;1,00;0,00;20,00;82,00;Финик сушеный;30;;Курага;30;;;;;;;;;;;;;;;;;;;
;;;3,00;9,00;2,00;97,00;Миндаль;15;;;;;;;;;;;;;;;;;;;;;;
Со 2 ого приема вес в готовом виде!!!;;;8,00;0,00;0,00;31,00;Омлет яйца только белки;;3;;;;;;;;;;;;;;;;;;;;;
;;сумма 1;17,00;11,00;46,00;350,00;;;;;;;;;;;;;;;;;;;;;;;;
;;;;;;;;;;;;;;;;;;;;;;;;;;;;;;
;;приём пищи 2;2,00;1,00;17,00;87,00;Картофель печеный;100;;Батат запеченный;100;;;;;;;;;;;;;;;;;;;
;;;30,00;1,00;0,00;160,00;Филе индейки гриль;120;;;;;;;;;;;;;;;;;;;;;;
;;;0,00;0,00;4,00;15,00;Салат (капуста брокколи, зелень, перец зеленый;;Не ограничено;;;;;;;;;;;;;;;;;;;;;
;;;1,00;15,00;5,00;160,00;Авокадо;;1/2 шт.;;;;;;;;;;;;;;;;;;;;;
;;сумма 2;33,00;17,00;26,00;422,00;;;;;;;;;;;;;;;;;;;;;;;;
;;;;;;;;;;;;;;;;;;;;;;;;;;;;;;
;;приём пищи 3;2,00;1,00;23,00;110,00;Рис коричневый отварной;100;;;;;;;;;;;;;;;;;;;;;;
;;;30,00;1,00;0,00;156,00;Филе индейки гриль;120;;;;;;;;;;;;;;;;;;;;;;
;;;0,00;0,00;4,00;15,00;Салат (огурец, пекинская капуста, зелень, болгарский перец) без масла;;Не ограничено;;;;;;;;;;;;;;;;;;;;;
;;сумма 3;32,00;2,00;27,00;281,00;;;;;;;;;;;;;;;;;;;;;;;;
;;;;;;;;;;;;;;;;;;;;;;;;;;;;;;
;;приём пищи 4;40,00;3,00;2,00;200,00;Творог зернистый 1%;250;;;;;;;;;;;;;;;;;;;;;;
;;сумма 4;40,00;3,00;2,00;200,00;;;;;;;;;;;;;;;;;;;;;;;;
;день 9/30;;;;;;;;;;;;;;;;;;;;;;;;;;;;;
;;приём пищи 1;3,00;1,00;33,00;145,00;Кукурузные хлопья без сахара;40;;Овсяная крупа;40;;;;;;;;;;;;;;;;;;;
;;;3,00;9,00;2,00;97,00;Миндаль;15;;;;;;;;;;;;;;;;;;;;;;
Со 2 ого приема вес в готовом виде!!!;;;7,00;6,00;0,00;95,00;Яйцо отварное;;1;;;;;;;;;;;;;;;;;;;;;
;;сумма 1;13,00;16,00;35,00;337,00;;;;;;;;;;;;;;;;;;;;;;;;
;;;;;;;;;;;;;;;;;;;;;;;;;;;;;;
;;приём пищи 2;1,00;1,00;18,00;88,00;Картофель печеный;100;;;;;;;;;;;;;;;;;;;;;;
;;;28,00;2,00;0,00;135,00;Филе куриное гриль;120;;;;;;;;;;;;;;;;;;;;;;
;;;2,00;0,00;3,00;20,00;Спаржа (аспарагус) гриль;100;;Салат (огурец, пекинская капуста, зелень, болгарский перец) без масла;;Не ограничено;;;;;;;;;;;;;;;;;;
;;;3,00;9,00;2,00;97,00;Миндаль;15;;;;;;;;;;;;;;;;;;;;;;
;;сумма 2;34,00;12,00;23,00;340,00;;;;;;;;;;;;;;;;;;;;;;;;
;;;;;;;;;;;;;;;;;;;;;;;;;;;;;;
;;приём пищи 3;1,00;0,00;20,00;93,00;Рис жасмин;80;;;;;;;;;;;;;;;;;;;;;;
;;;28,00;2,00;0,00;135,00;Филе куриное гриль;120;;;;;;;;;;;;;;;;;;;;;;
;;;1,00;15,00;5,00;150,00;Авокадо;;1/2 шт.;;;;;;;;;;;;;;;;;;;;;
;;;0,00;0,00;4,00;15,00;Салат (огурец, пекинская капуста, зелень, болгарский перец) без масла;;Не ограничено;Спаржа (аспарагус) гриль;;Не ограничено;;;;;;;;;;;;;;;;;;
;;сумма 3;30,00;17,00;29,00;393,00;;;;;;;;;;;;;;;;;;;;;;;;
;;;;;;;;;;;;;;;;;;;;;;;;;;;;;;
;;приём пищи 4;40,00;3,00;2,00;200,00;Творог зернистый 1%;250;;;;;;;;;;;;;;;;;;;;;;
;;сумма 4;40,00;3,00;2,00;200,00;;;;;;;;;;;;;;;;;;;;;;;;
;день 10/30;;;;;;;;;;;;;;;;;;;;;;;;;;;;;
;;приём пищи 1;5,00;2,00;24,00;140,00;Овсяная крупа;40;;;;;;;;;;;;;;;;;;;;;;
;;;1,00;0,00;12,00;54,00;Апельсин;150;;;;;;;;;;;;;;;;;;;;;;
;;;3,00;7,00;3,00;90,00;Кешью;15;;;;;;;;;;;;;;;;;;;;;;
Со 2 ого приема вес в готовом виде!!!;;;11,00;0,00;0,00;35,00;Омлет яйца только белок;;4;;;;;;;;;;;;;;;;;;;;;
;;сумма 1;20,00;9,00;39,00;319,00;;;;;;;;;;;;;;;;;;;;;;;;
;;;;;;;;;;;;;;;;;;;;;;;;;;;;;;
;;приём пищи 2;2,00;0,00;12,00;60,00;Ячневая крупа;80;;Пшеничная крупа;80;;;;;;;;;;;;;;;;;;;
;;;25,00;16,00;0,00;240,00;Говядина гриль;120;;;;;;;;;;;;;;;;;;;;;;
;;;1,00;10,00;3,00;106,00;Авокадо;;1/2 шт.;;;;;;;;;;;;;;;;;;;;;
;;;0,00;0,00;4,00;15,00;Салат (огурец, пекинская капуста, зелень, болгарский перец) без масла;;Не ограничено;;;;;;;;;;;;;;;;;;;;;
;;сумма 2;28,00;26,00;19,00;421,00;;;;;;;;;;;;;;;;;;;;;;;;
;;приём пищи 3;;;;;;;;;;;;;;;;;;;;;;;;;;;;
;;;3,00;0,00;17,00;90,00;Гречневая крупа;100;;;;;;;;;;;;;;;;;;;;;;
;;;25,00;16,00;0,00;240,00;Говядина филе гриль;120;;;;;;;;;;;;;;;;;;;;;;
;;;0,00;0,00;4,00;15,00;Зелень (укроп, шпинат, петрушка);;Не ограничено;;;;;;;;;;;;;;;;;;;;;
;;сумма 3;28,00;16,00;21,00;345,00;;;;;;;;;;;;;;;;;;;;;;;;
;;;;;;;;;;;;;;;;;;;;;;;;;;;;;;
;;приём пищи 4;22,00;9,00;0,00;170,00;Филе трески запеченное;100;;Минтай филе запеченное;150;;;;;;;;;;;;;;;;;;;
;;;0,00;0,00;4,00;15,00;Салат без масла (огурец, пекинская капуста, зелень);;Не ограничено;;;;;;;;;;;;;;;;;;;;;
;;сумма 4;22,00;9,00;4,00;185,00;;;;;;;;;;;;;;;;;;;;;;;;
;день 11/30;;;;;;;;;;;;;;;;;;;;;;;;;;;;;
;;приём пищи 1;5,00;2,00;24,00;140,00;Овсяная крупа;40;;;;;;;;;;;;;;;;;;;;;;
;;;7,00;6,00;0,00;95,00;Яйцо отварное;;1;;;;;;;;;;;;;;;;;;;;;
;;;4,00;11,00;3,00;130,00;Миндаль;20;;;;;;;;;;;;;;;;;;;;;;
Со 2 ого приема вес в готовом виде!!!;;;0,00;0,00;16,00;63,00;Груша;150;;;;;;;;;;;;;;;;;;;;;;
;;сумма 1;16,00;19,00;43,00;428,00;;;;;;;;;;;;;;;;;;;;;;;;
;;;;;;;;;;;;;;;;;;;;;;;;;;;;;;
;;приём пищи 2;2,00;1,00;17,00;87,00;Батат печеный;100;;Картофель печеный;100;;;;;;;;;;;;;;;;;;;
;;;30,00;7,00;0,00;240,00;Форель морская гриль;150;;Скумбрия гриль;120;;;;;;;;;;;;;;;;;;;
;;;0,00;0,00;4,00;15,00;Салат (капуста брокколи, зелень, перец зеленый);;Не ограничено;;;;;;;;;;;;;;;;;;;;;
;;сумма 2;32,00;8,00;21,00;342,00;;;;;;;;;;;;;;;;;;;;;;;;
;;;;;;;;;;;;;;;;;;;;;;;;;;;;;;
;;приём пищи 3;2,00;0,00;25,00;110,00;Рис коричневый;100;;;;;;;;;;;;;;;;;;;;;;
;;;30,00;5,00;0,00;170,00;Окунь морской гриль;150;;Лосось филе на гриле;80;;;;;;;;;;;;;;;;;;;
;;;0,00;0,00;4,00;15,00;Салат без масла (огурец, пекинская капуста, зелень);;Не ограничено;;;;;;;;;;;;;;;;;;;;;
;;сумма 3;32,00;5,00;29,00;295,00;;;;;;;;;;;;;;;;;;;;;;;;
;;;;;;;;;;;;;;;;;;;;;;;;;;;;;;
;;приём пищи 4;38,00;2,00;0,00;175,00;Тунец филе;170;;;;;;;;;;;;;;;;;;;;;;
;;;2,00;0,00;3,00;20,00;Спаржа (аспарагус) печеный;100;;Зелень (укроп, шпинат, петрушка);;Не ограничено;;;;;;;;;;;;;;;;;;
;;сумма 4;40,00;2,00;3,00;195,00;;;;;;;;;;;;;;;;;;;;;;;;
;;;;;;;;;;;;;;;;;;;;;;;;;;;;;;
;день 12/30;;;;;;;;;;;;;;;;;;;;;;;;;;;;;
;;приём пищи 1;3,00;1,00;30,00;140,00;Кукурузная крупа;40;;Кукурузные хлопья без сахара;40;;;;;;;;;;;;;;;;;;;
;;;8,00;0,00;0,00;32,00;Омлет (только белок);;3;;;;;;;;;;;;;;;;;;;;;
;;;4,00;7,00;3,00;90,00;Паста ореховая микс;;1 ч.л.;Арахисовая паста;;1 ч.л.;;;;;;;;;;;;;;;;;;
Со 2 ого приема вес в готовом виде!!!;;;1,00;0,00;17,00;102,00;Манго;150;;Яблоко;150;;;;;;;;;;;;;;;;;;;
;;сумма 1;16,00;8,00;50,00;364,00;;;;;;;;;;;;;;;;;;;;;;;;
;;;;;;;;;;;;;;;;;;;;;;;;;;;;;;
;;приём пищи 2;3,00;1,00;17,00;90,00;Гречневая крупа;100;;Батат печеный;100;;;;;;;;;;;;;;;;;;;
;;;35,00;1,00;0,00;180,00;Филе индейки гриль;140;;;;;;;;;;;;;;;;;;;;;;
;;;3,00;5,00;2,00;60,00;Кешью;10;;;;;;;;;;;;;;;;;;;;;;
;;;0,00;0,00;4,00;15,00;Салат без масла (огурец, пекинская капуста, зелень);;Не ограничено;;;;;;;;;;;;;;;;;;;;;
;;сумма 2;41,00;7,00;23,00;345,00;;;;;;;;;;;;;;;;;;;;;;;;
;;;;;;;;;;;;;;;;;;;;;;;;;;;;;;
;;приём пищи 3;2,00;0,00;25,00;118,00;Рис пропаренный;100;;Гречневая крупа;100;;;;;;;;;;;;;;;;;;;
;;;25,00;16,00;0,00;240,00;Говядина филе гриль;120;;;;;;;;;;;;;;;;;;;;;;
;;;0,00;0,00;4,00;15,00;Салат (огурец, пекинская капуста, зелень, болгарский перец);;Не ограничено;;;;;;;;;;;;;;;;;;;;;
;;сумма 3;27,00;16,00;29,00;373,00;;;;;;;;;;;;;;;;;;;;;;;;
;;;;;;;;;;;;;;;;;;;;;;;;;;;;;;
;;приём пищи 4;40,00;3,00;2,00;200,00;Творог нежирный 1%;250;;;;;;;;;;;;;;;;;;;;;;
;;сумма 4;40,00;3,00;2,00;200,00;;;;;;;;;;;;;;;;;;;;;;;;
;день 13/30;;;;;;;;;;;;;;;;;;;;;;;;;;;;;
;;приём пищи 1;3,00;1,00;31,00;144,00;Кукурузные хлопья без сахара;40;;Овсяные хлопья;35;;;;;;;;;;;;;;;;;;;
;;;7,00;6,00;0,00;95,00;Яйцо отварное;;1;;;;;;;;;;;;;;;;;;;;;
Со 2 ого приема вес в готовом виде!!!;;;0,00;0,00;6,00;20,00;Инжир сушеный;40;;Финик;30;;;;;;;;;;;;;;;;;;;
;;;4,00;10,00;4,00;120,00;Кешью;20;;;;;;;;;;;;;;;;;;;;;;
;;сумма 1;14,00;17,00;41,00;379,00;;;;;;;;;;;;;;;;;;;;;;;;
;;;;;;;;;;;;;;;;;;;;;;;;;;;;;;
;;приём пищи 2;2,00;2,00;17,00;140,00;Картофель печеный;110;;Батат печеный;100;;;;;;;;;;;;;;;;;;;
;;;33,00;11,00;0,00;240,00;Говядина гриль;120;;;;;;;;;;;;;;;;;;;;;;
;;;0,00;0,00;4,00;15,00;Овощи (зелень, огурец, брокколи);;Не ограничено;;;;;;;;;;;;;;;;;;;;;
;;сумма 2;35,00;13,00;21,00;395,00;;;;;;;;;;;;;;;;;;;;;;;;
;;;;;;;;;;;;;;;;;;;;;;;;;;;;;;
;;приём пищи 3;2,00;2,00;11,00;80,00;Гречневая крупа;100;;;;;;;;;;;;;;;;;;;;;;
;;;30,00;11,00;0,00;220,00;Кролик филе гриль;120;;Филе индейки гриль;120;;;;;;;;;;;;;;;;;;;
;;;0,00;0,00;4,00;15,00;Салат (капуста брокколи, зелень, перец зеленый);;Не ограничено;;;;;;;;;;;;;;;;;;;;;
;;сумма 3;32,00;13,00;15,00;315,00;;;;;;;;;;;;;;;;;;;;;;;;
;;;;;;;;;;;;;;;;;;;;;;;;;;;;;;
;;приём пищи 4;35,00;2,00;3,00;190,00;Творог нежирный 1%;220;;;;;;;;;;;;;;;;;;;;;;
;;сумма 4;35,00;2,00;3,00;190,00;;;;;;;;;;;;;;;;;;;;;;;;
;день 14/30;;;;;;;;;;;;;;;;;;;;;;;;;;;;;
;;приём пищи 1;5,00;2,00;24,00;140,00;Овсяные хлопья;40;;;;;;;;;;;;;;;;;;;;;;
;;;7,00;3,00;17,00;130,00;Йогурт 1% без добавок;200;;;;;;;;;;;;;;;;;;;;;;
Со 2 ого приема вес в готовом виде!!!;;;1,00;0,00;12,00;55,00;Апельсин;150;;;;;;;;;;;;;;;;;;;;;;
;;сумма 1;13,00;5,00;53,00;325,00;;;;;;;;;;;;;;;;;;;;;;;;
;;;;;;;;;;;;;;;;;;;;;;;;;;;;;;
;;приём пищи 2;2,00;1,00;23,00;110,00;Рис коричневый;100;;Картофель печеный;80;;;;;;;;;;;;;;;;;;;
;;;30,00;1,00;0,00;160,00;Филе индейки гриль;120;;;;;;;;;;;;;;;;;;;;;;
;;;0,00;0,00;4,00;15,00;Салат (огурец, пекинская капуста, зелень, болгарский перец);;Не ограничено;;;;;;;;;;;;;;;;;;;;;
;;;5,00;8,00;5,00;95,00;Паста миндальная;;1 ч.л.;Арахисовая паста;;1 ч.л.;;;;;;;;;;;;;;;;;;
;;сумма 2;37,00;10,00;32,00;380,00;;;;;;;;;;;;;;;;;;;;;;;;
;;;;;;;;;;;;;;;;;;;;;;;;;;;;;;
;;приём пищи 3;28,00;2,00;0,00;135,00;Филе куриное гриль;120;;;;;;;;;;;;;;;;;;;;;;
;;;2,00;0,00;25,00;118,00;Рис белый длинный;100;;;;;;;;;;;;;;;;;;;;;;
;;;1,00;10,00;3,00;103,00;Авокадо;;1/2 шт.;;;;;;;;;;;;;;;;;;;;;
;;;0,00;0,00;4,00;15,00;Салат без масла (огурец, пекинская капуста, зелень);;Не ограничено;Зелень (укроп, шпинат, петрушка);;Не ограничено;;;;;;;;;;;;;;;;;;
;;сумма 3;31,00;12,00;32,00;371,00;;;;;;;;;;;;;;;;;;;;;;;;
;;;;;;;;;;;;;;;;;;;;;;;;;;;;;;
;;приём пищи 4;32,00;5,00;0,00;170,00;Дорадо гриль;160;;Сибас гриль;160;;;;;;;;;;;;;;;;;;;
;;;0,00;0,00;4,00;15,00;Зелень (укроп, шпинат, петрушка);;Не ограничено;Салат (капуста брокколи, зелень, перец зеленый);;Не ограничено;;;;;;;;;;;;;;;;;;
;;сумма 4;32,00;5,00;4,00;185,00;;;;;;;;;;;;;;;;;;;;;;;;
;день 15/30;;;;;;;;;;;;;;;;;;;;;;;;;;;;;
;;приём пищи 1;6,00;1,00;31,00;160,00;Гречневая крупа;50;;Кукурузная крупа;40;;;;;;;;;;;;;;;;;;;
;;;13,00;6,00;0,00;110,00;Омлет яйца только 1шт желтка;;3;;;;;;;;;;;;;;;;;;;;;
Со 2 ого приема вес в готовом виде!!!;;;2,00;0,00;16,00;75,00;Фреш апельсиновый;200;;;;;;;;;;;;;;;;;;;;;;
;;сумма 1;21,00;7,00;47,00;345,00;;;;;;;;;;;;;;;;;;;;;;;;
;;;;;;;;;;;;;;;;;;;;;;;;;;;;;;
;;приём пищи 2;2,00;0,00;25,00;118,00;Рис отварной;100;;;;;;;;;;;;;;;;;;;;;;
;;;33,00;10,00;0,00;250,00;Говядина гриль;130;;;;;с 15 по 30 день воды не менее 2,5 лит в день!!!!;;;;;;;;;;;;;;;;;
;;;0,00;0,00;4,00;15,00;Салат (капуста брокколи, зелень, перец зеленый);;Не ограничено;;;;;;;;;;;;;;;;;;;;;
;;;2,00;5,00;2,00;60,00;Кешью;10;;;;;;;;;;;;;;;;;;;;;;
;;сумма 2;37,00;15,00;31,00;443,00;;;;;;;;;;;;;;;;;;;;;;;;
;;;;;;;;;;;;;;;;;;;;;;;;;;;;;;
;;приём пищи 3;2,00;0,00;16,00;80,00;Ячневая крупа;100;;гречневая крупа ;80;;;;;;;;;;;;;;;;;;;
;;;26,00;8,00;0,00;175,00;Говядина гриль;100;;;;;;;;;;;;;;;;;;;;;;
;;;0,00;0,00;4,00;15,00;Салат (огурец, пекинская капуста, зелень, болгарский перец);;Не ограничено;;;;;;;;;;;;;;;;;;;;;
;;сумма 3;28,00;8,00;20,00;270,00;;;;;;;;;;;;;;;;;;;;;;;;
;;;;;;;;;;;;;;;;;;;;;;;;;;;;;;
;;приём пищи 4;19,00;9,00;0,00;180,00;Хек филе запеченное;170;;Минтай филе гриль;170;;;;;;;;;;;;;;;;;;;
;;;0,00;0,00;4,00;15,00;Зелень (укроп, шпинат, петрушка);;Не ограничено;Салат без масла (огурец, пекинская капуста, зелень);;Не ограничено;;;;;;;;;;;;;;;;;;
;;сумма 4;19,00;9,00;4,00;195,00;;;;;;;;;;;;;;;;;;;;;;;;
;день 16/30;;;;;;;;;;;;;;;;;;;;;;;;;;;;;
;;приём пищи 1;6,00;1,00;31,00;160,00;Гречневая крупа;50;;Овсяная крупа;40;;;;;;;;;;;;;;;;;;;
;;;7,00;6,00;0,00;87,00;Вареное яйцо;;1;;;;;;;;;;;;;;;;;;;;;
Со 2 ого приема вес в готовом виде!!!;;;0,00;0,00;15,00;70,00;Яблоко;150;;Манго;150;;;;;;;;;;;;;;;;;;;
;;;1,00;0,00;17,00;70,00;Финик сушеный;25;;;;;;;;;;;;;;;;;;;;;;
;;сумма 1;14,00;7,00;63,00;387,00;;;;;;;;;;;;;;;;;;;;;;;;
;;;;;;;;;;;;;;;;;;;;;;;;;;;;;;
;;приём пищи 2;26,00;8,00;0,00;175,00;Говядина гриль;100;;;;;;;;;;;;;;;;;;;;;;
;;;2,00;1,00;23,00;110,00;Рис коричневый;100;;;;;;;;;;;;;;;;;;;;;;
;;;1,00;10,00;3,00;103,00;Авокадо;;1/2 шт.;;;;;;;;;;;;;;;;;;;;;
;;;0,00;0,00;4,00;15,00;Салат (огурец, пекинская капуста, зелень, болгарский перец);;Не ограничено;;;;;;;;;;;;;;;;;;;;;
;;сумма 2;29,00;19,00;30,00;403,00;;;;;;;;;;;;;;;;;;;;;;;;
;;;;;;;;;;;;;;;;;;;;;;;;;;;;;;
;;приём пищи 3;2,00;0,00;12,00;60,00;Картофель печеный;70;;Батат печеный;60;;;;;;;;;;;;;;;;;;;
;;;33,00;11,00;0,00;250,00;Говядина гриль;130;;Кролик филе запеченное;120;;;;;;;;;;;;;;;;;;;
;;;0,00;0,00;4,00;15,00;Салат без масла (огурец, пекинская капуста, зелень);;Не ограничено;;;;;;;;;;;;;;;;;;;;;
;;сумма 3;35,00;11,00;16,00;325,00;;;;;;;;;;;;;;;;;;;;;;;;
;;;;;;;;;;;;;;;;;;;;;;;;;;;;;;
;;приём пищи 4;9,00;3,00;22,00;160,00;Йогурт 1% без добавок;250;;;;;;;;;;;;;;;;;;;;;;
;;сумма 4;9,00;3,00;22,00;160,00;;250;;;;;;;;;;;;;;;;;;;;;;
;день 17/30;;;;;;;;;;;;;;;;;;;;;;;;;;;;;
;;приём пищи 1;5,00;2,00;27,00;150,00;Овсяная крупа;45;;Рисовая крупа;40;;;;;;;;;;;;;;;;;;;
Со 2 ого приема вес в готовом виде!!!;;;1,00;0,00;10,00;35,00;Инжир сухой;70;;;;;;;;;;;;;;;;;;;;;;
;;;7,00;6,00;0,00;87,00;Вареное яйцо;;1;;;;;;;;;;;;;;;;;;;;;
;;;0,00;0,00;16,00;63,00;Груша;150;;;;;;;;;;;;;;;;;;;;;;
;;сумма 1;13,00;8,00;53,00;335,00;;;;;;;;;;;;;;;;;;;;;;;;
;;;;;;;;;;;;;;;;;;;;;;;;;;;;;;
;;приём пищи 2;30,00;1,00;0,00;160,00;Филе индейки гриль;120;;;;;;;;;;;;;;;;;;;;;;
;;;2,00;1,00;23,00;110,00;Рис коричневый;100;;Батат гриль;100;;;;;;;;;;;;;;;;;;;
;;;1,00;10,00;3,00;103,00;Авокадо;;1/2 шт.;;;;;;;;;;;;;;;;;;;;;
;;;0,00;0,00;4,00;15,00;Салат (огурец, пекинская капуста, зелень, болгарский перец);;Не ограничено;;;;;;;;;;;;;;;;;;;;;
;;сумма 2;33,00;12,00;30,00;388,00;;;;;;;;;;;;;;;;;;;;;;;;
;;;;;;;;;;;;;;;;;;;;;;;;;;;;;;
;;приём пищи 3;2,00;0,00;19,00;95,00;Крупа ячневая;120;;Крупа гречневая;80;;;;;;;;;;;;;;;;;;;
;;;28,00;2,00;0,00;135,00;Филе куриное гриль;140;;;;;;;;;;;;;;;;;;;;;;
;;;5,00;8,00;5,00;95,00;Паста миндальная;;1 ч.л.;Арахисовая паста;;1 ч.л.;;;;;;;;;;;;;;;;;;
;;;0,00;0,00;4,00;15,00;Салат без масла (огурец, пекинская капуста, зелень);;Не ограничено;Спаржа аспарагус гриль;100;;;;;;;;;;;;;;;;;;;
;;сумма 3;35,00;10,00;28,00;340,00;;;;;;;;;;;;;;;;;;;;;;;;
;;;;;;;;;;;;;;;;;;;;;;;;;;;;;;
;;приём пищи 4;38,00;4,00;2,00;200,00;Телапия гриль;200;;;;;;;;;;;;;;;;;;;;;;
;;;0,00;0,00;4,00;15,00;Зелень (укроп, шпинат, петрушка);;Не ограничено;;;;;;;;;;;;;;;;;;;;;
;;сумма 4;38,00;4,00;6,00;215,00;;;;;;;;;;;;;;;;;;;;;;;;
;день 18/30;;;;;;;;;;;;;;;;;;;;;;;;;;;;;
;;приём пищи 1;3,00;1,00;30,00;140,00;Кукурузная крупа;40;;Овсяная крупа;30;;;;;;;;;;;;;;;;;;;
Со 2 ого приема вес в готовом виде!!!;;;7,00;6,00;0,00;87,00;Вареное яйцо;;1;;;;;;;;;;;;;;;;;;;;;
;;;2,00;13,00;1,00;120,00;Орех грецкий;20;;;;;;;;;;;;;;;;;;;;;;
;;;2,00;0,00;16,00;75,00;Фреш апельсиновый;200;;;;;;;;;;;;;;;;;;;;;;
;;сумма 1;14,00;20,00;47,00;422,00;;;;;;;;;;;;;;;;;;;;;;;;
;;;;;;;;;;;;;;;;;;;;;;;;;;;;;;
;;приём пищи 2;2,00;0,00;29,00;128,00;Рис жасмин;110;;;;;;;;;;;;;;;;;;;;;;
;;;37,00;1,00;0,00;200,00;Индейка гриль филе;150;;Куриное филе гриль;140;;;;;;;;;;;;;;;;;;;
;;;0,00;0,00;4,00;15,00;Салат (огурец, пекинская капуста, зелень, болгарский перец);;Не ограничено;;;;;;;;;;;;;;;;;;;;;
;;сумма 2;39,00;1,00;33,00;343,00;;;;;;;;;;;;;;;;;;;;;;;;
;;;;;;;;;;;;;;;;;;;;;;;;;;;;;;
;;приём пищи 3;20,00;21,00;0,00;285,00;Лосось стейк запеченный;100;;Форель стейк гриль;100;;;;;;;;;;;;;;;;;;;
;;;0,00;0,00;4,00;15,00;Салат без масла (огурец, пекинская капуста, зелень);;Не ограничено;;;;;;;;;;;;;;;;;;;;;
;;сумма 3;20,00;21,00;4,00;300,00;;;;;;;;;;;;;;;;;;;;;;;;
;;;;;;;;;;;;;;;;;;;;;;;;;;;;;;
;;приём пищи 4;18,00;13,00;0,00;180,00;Скумбрия гриль;100;;Угорь морской на гриле;150;;;;;;;;;;;;;;;;;;;
;;;2,00;0,00;3,00;20,00;Аспарагус спаржа запеченная;100;;;;;;;;;;;;;;;;;;;;;;
;;сумма 4;20,00;13,00;3,00;200,00;;;;;;;;;;;;;;;;;;;;;;;;
;день 19/30;;;;;;;;;;;;;;;;;;;;;;;;;;;;;
;;приём пищи 1;3,00;1,00;31,00;144,00;Кукурузные хлопья без сахара;40;;;;;;;;;;;;;;;;;;;;;;
Со 2 ого приема вес в готовом виде!!!;;;3,00;7,00;3,00;90,00;Кешью орехи;15;;;;;;;;;;;;;;;;;;;;;;
;;;0,00;0,00;18,00;75,00;Изюм;30;;;;;;;;;;;;;;;;;;;;;;
;;;8,00;0,00;0,00;32,00;Омлет яйца белок;;3;;;;;;;;;;;;;;;;;;;;;
;;сумма 1;14,00;8,00;52,00;341,00;;;;;;;;;;;;;;;;;;;;;;;;
;;;;;;;;;;;;;;;;;;;;;;;;;;;;;;
;;приём пищи 2;2,00;2,00;17,00;140,00;Картофель печеный;110;;Батат печеный;110;;;;;;;;;;;;;;;;;;;
;;;30,00;1,00;0,00;160,00;Индейка филе на гриле;120;;;;;;;;;;;;;;;;;;;;;;
;;;0,00;0,00;4,00;15,00;Салат (огурец, пекинская капуста, зелень, болгарский перец);;Не ограничено;;;;;;;;;;;;;;;;;;;;;
;;;0,00;10,00;0,00;90,00;Тыквенное масло;;1 ст.л.;;;;;;;;;;;;;;;;;;;;;
;;сумма 2;32,00;13,00;21,00;405,00;;;;;;;;;;;;;;;;;;;;;;;;
;;;;;;;;;;;;;;;;;;;;;;;;;;;;;;
;;;;;;;;;;;;;;;;;;;;;;;;;;;;;;
;;приём пищи 3;20,00;21,00;0,00;285,00;Лосось стейк гриль;100;;;;;;;;;;;;;;;;;;;;;;
;;;0,00;0,00;4,00;15,00;Салат без масла (огурец, пекинская капуста, зелень);;Не ограничено;;;;;;;;;;;;;;;;;;;;;
;;сумма 3;20,00;21,00;4,00;300,00;;;;;;;;;;;;;;;;;;;;;;;;
;;;;;;;;;;;;;;;;;;;;;;;;;;;;;;
;;приём пищи 4;21,00;6,00;0,00;180,00;Форель морская стейк печеная;120;;Скумбрия гриль;100;;;;;;;;;;;;;;;;;;;
;;;2,00;0,00;3,00;20,00;Аспарагус спаржа на гриле;100;;Зелень (укроп, шпинат, петрушка);;Не ограничено;;;;;;;;;;;;;;;;;;
;;сумма 4;23,00;6,00;3,00;200,00;;;;;;;;;;;;;;;;;;;;;;;;
;день 20/30;;;;;;;;;;;;;;;;;;;;;;;;;;;;;
;;приём пищи 1;5,00;2,00;24,00;140,00;Овсяная крупа;40;;;;;;;;;;;;;;;;;;;;;;
;;;7,00;3,00;18,00;100,00;Йогурт 1% без добавок;200;;;;;;;;;;;;;;;;;;;;;;
Со 2 ого приема вес в готовом виде!!!;;;4,00;16,00;1,00;150,00;Орех грецкий;35;;;;;;;;;;;;;;;;;;;;;;
;;сумма 1;16,00;21,00;43,00;390,00;;;;;;;;;;;;;;;;;;;;;;;;
;;;;;;;;;;;;;;;;;;;;;;;;;;;;;;
;;приём пищи 2;2,00;0,00;20,00;130,00;Батат печеный;100;;Картофель печеный;100;;;;;;;;;;;;;;;;;;;
;;;26,00;5,00;5,00;160,00;Филе куриное гриль;140;;;;;;;;;;;;;;;;;;;;;;
;;;0,00;0,00;4,00;15,00;Салат (капуста брокколи, зелень, перец зеленый);;Не ограничено;;;;;;;;;;;;;;;;;;;;;
;;;0,00;10,00;0,00;90,00;Тыквенное масло;;1 ст.л.;;;;;;;;;;;;;;;;;;;;;
;;сумма 2;28,00;15,00;29,00;395,00;;;;;;;;;;;;;;;;;;;;;;;;
;;;;;;;;;;;;;;;;;;;;;;;;;;;;;;
;;приём пищи 3;33,00;7,00;0,00;250,00;Форель морская стейк гриль;150;;;;;;;;;;;;;;;;;;;;;;
;;;0,00;0,00;4,00;15,00;Салат без масла (огурец, пекинская капуста, зелень);;Не ограничено;;;;;;;;;;;;;;;;;;;;;
;;сумма 3;33,00;7,00;4,00;265,00;;;;;;;;;;;;;;;;;;;;;;;;
;;;;;;;;;;;;;;;;;;;;;;;;;;;;;;
;;приём пищи 4;33,00;4,00;0,00;180,00;Окунь морской запеченный;170;;;;;;;;;;;;;;;;;;;;;;
;;;2,00;0,00;3,00;20,00;Аспарагус спаржа на гриле;100;;Зелень (укроп, шпинат, петрушка);;Не ограничено;;;;;;;;;;;;;;;;;;
;;сумма 4;35,00;4,00;3,00;200,00;;;;;;;;;;;;;;;;;;;;;;;;
;день 21/30;;;;;;;;;;;;;;;;;;;;;;;;;;;;;
;;приём пищи 1;3,00;0,00;32,00;140,00;Рисовая крупа;40;;;;;;;;;;;;;;;;;;;;;;
;;;8,00;0,00;0,00;32,00;Омлет яйца только белок;;3;;;;;;;;;;;;;;;;;;;;;
Со 2 ого приема вес в готовом виде!!!;;;5,00;14,00;4,00;165,00;Миндаль;25;;;;;;;;;;;;;;;;;;;;;;
;;;0,00;0,00;15,00;70,00;Яблоко;150;;;;;;;;;;;;;;;;;;;;;;
;;сумма 1;16,00;14,00;51,00;407,00;;;;;;;;;;;;;;;;;;;;;;;;
;;;;;;;;;;;;;;;;;;;;;;;;;;;;;;
;;приём пищи 2;25,00;16,00;0,00;240,00;Говядина гриль;120;;;;;;;;;;;;;;;;;;;;;;
;;;0,00;0,00;4,00;15,00;Салат без масла (огурец, пекинская капуста, зелень);;Не ограничено;;;;;;;;;;;;;;;;;;;;;
;;;3,00;11,00;3,00;130,00;Миндаль;20;;;;;;;;;;;;;;;;;;;;;;
;;сумма 2;28,00;27,00;7,00;385,00;;;;;;;;;;;;;;;;;;;;;;;;
;;;;;;;;;;;;;;;;;;;;;;;;;;;;;;
;;приём пищи 3;25,00;19,00;0,00;270,00;Скумбрия гриль;140;;;;;;;;;;;;;;;;;;;;;;
;;;0,00;0,00;4,00;15,00;Зелень (укроп, шпинат, петрушка);;Не ограничено;Аспарагус спаржа гриль;100;;;;;;;;;;;;;;;;;;;
;;сумма 3;25,00;19,00;4,00;285,00;;;;;;;;;;;;;;;;;;;;;;;;
;;;;;;;;;;;;;;;;;;;;;;;;;;;;;;
;;приём пищи 4;28,00;5,00;0,00;160,00;Пангасиус филе на гриле;150;;Форель морская запеченная;120;;;;;;;;;;;;;;;;;;;
;;;0,00;0,00;4,00;15,00;Салат без масла (огурец, пекинская капуста, зелень);;Не ограничено;Аспарагус спаржа на гриле;100;;;;;;;;;;;;;;;;;;;
;;сумма 4;28,00;5,00;4,00;175,00;;;;;;;;;;;;;;;;;;;;;;;;
;день 22/30;;;;;;;;;;;;;;;;;;;;;;;;;;;;;
;;приём пищи 1;5,00;2,00;24,00;140,00;Овсяная крупа;40;;;;;;;;;;;;;;;;;;;;;;
;;;8,00;0,00;0,00;32,00;Омлет яйца только белок;;3;;;;;;;;;;;;;;;;;;;;;
;;;1,00;0,00;12,00;50,00;Апельсин;150;;;;;;;;;;;;;;;;;;;;;;
Со 2 ого приема вес в готовом виде!!!;;;3,00;13,00;1,00;120,00;Грецкий орех;20;;;;;;;;;;;;;;;;;;;;;;
;;сумма 1;17,00;15,00;37,00;342,00;;;;;;;;;;;;;;;;;;;;;;;;
;;;;;;;;;;;;;;;;;;;;;;;;;;;;;;
;;приём пищи 2;38,00;2,00;0,00;200,00;Индейка филе гриль;150;;;;;;;;;;;;;;;;;;;;;;
;;;0,00;0,00;4,00;15,00;Салат (капуста брокколи, зелень, перец зеленый);;Не ограничено;;;;;;;;;;;;;;;;;;;;;
;;;0,00;10,00;0,00;95,00;Льняное масло;;1 ст.л.;;;;;;;;;;;;;;;;;;;;;
;;сумма 2;35,00;11,00;3,00;310,00;;;;;;;;;;;;;;;;;;;;;;;;
;;;;;;;;;;;;;;;;;;;;;;;;;;;;;;
;;приём пищи 3;37,00;1,00;0,00;200,00;Индейка гриль филе;150;;;;;;;;;;;;;;;;;;;;;;
;;;0,00;0,00;4,00;15,00;Салат без масла (огурец, пекинская капуста, зелень);;Не ограничено;;;;;;;;;;;;;;;;;;;;;
;;;1,00;12,00;5,00;130,00;Авокадо;;1/2 шт.;;;;;;;;;;;;;;;;;;;;;
;;сумма 3;38,00;13,00;9,00;345,00;;;;;;;;;;;;;;;;;;;;;;;;
;;;;;;;;;;;;;;;;;;;;;;;;;;;;;;
;;приём пищи 4;18,00;20,00;0,00;250,00;Лосось стейк на гриле;90;;Горбуша на гриле;140;;;;;;;;;;;;;;;;;;;
;;;2,00;0,00;3,00;20,00;Аспарагус спаржа запеченная;100;;Зелень (укроп, шпинат, петрушка);;Не ограничено;;;;;;;;;;;;;;;;;;
;;сумма 4;20,00;20,00;3,00;270,00;;;;;;;;;;;;;;;;;;;;;;;;
;день 23/30;;;;;;;;;;;;;;;;;;;;;;;;;;;;;
;;приём пищи 1;5,00;1,00;25,00;125,00;Гречневая крупа;40;;;;;;;;;;;;;;;;;;;;;;
;;;8,00;0,00;0,00;32,00;Омлет яйца только белок;;3;;;;;;;;;;;;;;;;;;;;;
Со 2 ого приема вес в готовом виде!!!;;;4,00;17,00;3,00;180,00;Миндаль;30;;;;;;;;;;;;;;;;;;;;;;
;;;0,00;0,00;16,00;63,00;Груша;150;;;;;;;;;;;;;;;;;;;;;;
;;сумма 1;17,00;18,00;44,00;400,00;;;;;;;;;;;;;;;;;;;;;;;;
;;;;;;;;;;;;;;;;;;;;;;;;;;;;;;
;;приём пищи 2;32,00;5,00;5,00;195,00;Филе куриное гриль;160;;;;;;;;;;;;;;;;;;;;;;
;;;0,00;0,00;4,00;15,00;Салат без масла (огурец, пекинская капуста, зелень);;Не ограничено;;;;;;;;;;;;;;;;;;;;;
;;;3,00;15,00;2,00;155,00;Грецкий орех;25;;;;;;;;;;;;;;;;;;;;;;
;;сумма 2;35,00;20,00;11,00;365,00;;;;;;;;;;;;;;;;;;;;;;;;
;;;;;;;;;;;;;;;;;;;;;;;;;;;;;;
;;приём пищи 3;30,00;5,00;5,00;195,00;Филе куриное гриль;160;;Говядина филе гриль;110;;;;;;;;;;;;;;;;;;;
;;;0,00;0,00;4,00;15,00;Салат (капуста брокколи, зелень, перец зеленый);;Не ограничено;;;;;;;;;;;;;;;;;;;;;
;;;0,00;10,00;2,00;90,00;Льняное масло;;1 ст.л.;;;;;;;;;;;;;;;;;;;;;
;;сумма 3;30,00;15,00;11,00;300,00;;;;;;;;;;;;;;;;;;;;;;;;
;;;;;;;;;;;;;;;;;;;;;;;;;;;;;;
;;приём пищи 4;37,00;3,00;0,00;180,00;Тилапия на гриле;170;;Окунь морской запеченный;140;;;;;;;;;;;;;;;;;;;
;;;0,00;0,00;4,00;15,00;Салат (огурец, пекинская капуста, зелень, болгарский перец);;Не ограничено;Аспарагус спаржа гриль;100;;;;;;;;;;;;;;;;;;;
;;сумма 4;37,00;3,00;4,00;195,00;;;;;;;;;;;;;;;;;;;;;;;;
;день 24/30;;;;;;;;;;;;;;;;;;;;;;;;;;;;;
;;приём пищи 1;3,00;1,00;33,00;146,00;Кукурузные хлопья без сахара;40;;;;;;;;;;;;;;;;;;;;;;
;;;8,00;0,00;0,00;32,00;Омлет яйца только белок;;3;;;;;;;;;;;;;;;;;;;;;
Со 2 ого приема вес в готовом виде!!!;;;5,00;15,00;3,00;130,00;Кешью;25;;;;;;;;;;;;;;;;;;;;;;
;;;1,00;0,00;12,00;50,00;Апельсин;150;;;;;;;;;;;;;;;;;;;;;;
;;сумма 1;17,00;16,00;48,00;358,00;;;;;;;;;;;;;;;;;;;;;;;;
;;;;;;;;;;;;;;;;;;;;;;;;;;;;;;
;;приём пищи 2;23,00;18,00;0,00;275,00;Скумбрия гриль;140;;Форель морская;160;;;;;;;;;;;;;;;;;;;
;;;0,00;0,00;4,00;15,00;Салат (капуста брокколи, зелень, перец зеленый);;Не ограничено;;;;;;;;;;;;;;;;;;;;;
;;;1,00;0,00;10,00;45,00;Грейпфрут ;150;;;;;;;;;;;;;;;;;;;;;;
;;сумма 2;24,00;18,00;14,00;335,00;;;;;;;;;;;;;;;;;;;;;;;;
;;;;;;;;;;;;;;;;;;;;;;;;;;;;;;
;;приём пищи 3;25,00;25,00;0,00;340,00;Лосось стейк гриль;120;;Форель стейк гриль;130;;;;;;;;;;;;;;;;;;;
;;;0,00;0,00;4,00;15,00;Салат без масла (огурец, пекинская капуста, зелень, болгарский перец);;Не ограничено;;;;;;;;;;;;;;;;;;;;;
;;сумма 3;25,00;25,00;4,00;355,00;;;;;;;;;;;;;;;;;;;;;;;;
;;;;;;;;;;;;;;;;;;;;;;;;;;;;;;
;;;;;;;;;;;;;;;;;;;;;;;;;;;;;;
;;приём пищи 4;38,00;2,00;0,00;175,00;Тунец филе;150;;;;;;;;;;;;;;;;;;;;;;
;;;2,00;0,00;3,00;20,00;Зелень + аспарагус спаржа;130;;;;;;;;;;;;;;;;;;;;;;
;;сумма 4;40,00;2,00;3,00;195,00;;;;;;;;;;;;;;;;;;;;;;;;
;день 25/30;;;;;;;;;;;;;;;;;;;;;;;;;;;;;
;;приём пищи 1;10,00;0,00;0,00;40,00;Омлет яйца только белок;;4;;;;;;;;;;;;;;;;;;;;;
;;;2,00;0,00;16,00;75,00;Фреш апельсиновый;200;;Яблочный фреш;200;;;;;;;;;;;;;;;;;;;
Со 2 ого приема вес в готовом виде!!!;;;2,00;0,00;55,00;220,00;Финик + курага;80;;;;;;;;;;;;;;;;;;;;;;
;;сумма 1;14,00;0,00;71,00;335,00;;;;;;;;;;;;;;;;;;;;;;;;
;;;;;;;;;;;;;;;;;;;;;;;;;;;;;;
;;приём пищи 2;25,00;16,00;0,00;240,00;Говядина гриль;100;;;;;;;;;;;;;;;;;;;;;;
;;;1,00;0,00;18,00;90,00;Рис коричневый;70;;;;;;;;;;;;;;;;;;;;;;
;;;1,00;12,00;3,00;127,00;Авокадо;;1/2 шт.;;;;;;;;;;;;;;;;;;;;;
;;;0,00;0,00;4,00;15,00;Салат (капуста брокколи, зелень, перец зеленый);;Не ограничено;;;;;;;;;;;;;;;;;;;;;
;;сумма 2;27,00;28,00;25,00;472,00;;;;;;;;;;;;;;;;;;;;;;;;
;;;;;;;;;;;;;;;;;;;;;;;;;;;;;;
;;приём пищи 3;;;;;;;;;;;;;;;;;;;;;;;;;;;;
;;;26,00;18,00;0,00;270,00;Скумбрия гриль;140;;;;;;;;;;;;;;;;;;;;;;
;;;0,00;0,00;4,00;15,00;Салат без масла (огурец, пекинская капуста, зелень, болгарский перец);;Не ограничено;;;;;;;;;;;;;;;;;;;;;
;;сумма 3;26,00;18,00;4,00;285,00;;;;;;;;;;;;;;;;;;;;;;;;
;;;;;;;;;;;;;;;;;;;;;;;;;;;;;;
;;приём пищи 4;30,00;5,00;0,00;170,00;Окунь морской запеченный;150;;Дорадо гриль;150;;;;;;;;;;;;;;;;;;;
;;;0,00;0,00;4,00;15,00;Салат (огурец, пекинская капуста, зелень, болгарский перец);;Не ограничено;;;;;;;;;;;;;;;;;;;;;
;;сумма 4;30,00;5,00;4,00;185,00;;;;;;;;;;;;;;;;;;;;;;;;
;;;;;;;;;;;;;;;;;;;;;;;;;;;;;;
;день 26/30;;;;;;;;;;;;;;;;;;;;;;;;;;;;;
;;приём пищи 1;11,00;0,00;0,00;42,00;Омлет яйца только белок;;4;;;;;;;;;;;;;;;;;;;;;
;;;2,00;0,00;16,00;75,00;Фреш апельсиновый;200;;;;;;;;;;;;;;;;;;;;;;
Со 2 ого приема вес в готовом виде!!!;;;4,00;12,00;5,00;150,00;Кешью;25;;;;;;;;;;;;;;;;;;;;;;
;;;1,00;0,00;15,00;65,00;Курага;30;;;;;;;;;;;;;;;;;;;;;;
;;сумма 1;18,00;12,00;36,00;332,00;;;;;;;;;;;;;;;;;;;;;;;;
;;;;;;;;;;;;;;;;;;;;;;;;;;;;;;
;;приём пищи 2;2,00;0,00;8,00;45,00;Гречневая крупа;50;;Рис пропаренный;50;;;;;;;;;;;;;;;;;;;
;;;29,00;11,00;0,00;220,00;Говядина гриль;100;;;;;;;;;;;;;;;;;;;;;;
;;;0,00;0,00;4,00;15,00;Салат (капуста брокколи, зелень, перец зеленый);;Не ограничено;;;;;;;;;;;;;;;;;;;;;
;;;1,00;12,00;3,00;127,00;Авокадо;;1/2 шт.;;;;;;;;;;;;;;;;;;;;;
;;сумма 2;32,00;23,00;15,00;407,00;;;;;;;;;;;;;;;;;;;;;;;;
;;;;;;;;;;;;;;;;;;;;;;;;;;;;;;
;;приём пищи 3;40,00;1,00;0,00;200,00;Индейка филе гриль;150;;;;;;;;;;;;;;;;;;;;;;
;;;0,00;0,00;4,00;15,00;Салат (огурец, пекинская капуста, зелень, болгарский перец);;Не ограничено;;;;;;;;;;;;;;;;;;;;;
;;;0,00;10,00;0,00;90,00;Льняное масло;;1 ст.л.;Арахисовое масло жидкое;;1 ст.л.;;;;;;;;;;;;;;;;;;
;;сумма 3;40,00;11,00;0,00;305,00;;;;;;;;;;;;;;;;;;;;;;;;
;;;;;;;;;;;;;;;;;;;;;;;;;;;;;;
;;приём пищи 4;40,00;2,00;0,00;190,00;Тунец филе;170;;Минтай филе запеченное;150;;;;;;;;;;;;;;;;;;;
;;;0,00;0,00;4,00;15,00;Салат без масла (огурец, пекинская капуста, зелень);;Не ограничено;Спаржа на гриле;100;;;;;;;;;;;;;;;;;;;
;;сумма 4;40,00;2,00;4,00;205,00;;;;;;;;;;;;;;;;;;;;;;;;
;день 27/30;;;;;;;;;;;;;;;;;;;;;;;;;;;;;
;;приём пищи 1;13,00;6,00;0,00;110,00;Омлет яйца оставить 1 желток;;3;;;;;;;;;;;;;;;;;;;;;
;;;1,00;0,00;17,00;100,00;Манго;150;;;;;;;;;;;;;;;;;;;;;;
Со 2 ого приема вес в готовом виде!!!;;;5,00;2,00;24,00;140,00;Овсяная крупа;40;;;;;;;;;;;;;;;;;;;;;;
;;сумма 1;19,00;8,00;41,00;350,00;;;;;;;;;;;;;;;;;;;;;;;;
;;;;;;;;;;;;;;;;;;;;;;;;;;;;;;
;;приём пищи 2;5,00;1,00;26,00;135,00;Пшеничная крупа;100;;Ячневая крупа;50;;;;;;;;;;;;;;;;;;;
;;;30,00;1,00;0,00;160,00;Индейка филе гриль;120;;;;;;;;;;;;;;;;;;;;;;
;;;0,00;0,00;4,00;15,00;Салат (капуста брокколи, зелень, перец зеленый);;Не ограничено;;;;;;;;;;;;;;;;;;;;;
;;;3,00;7,00;3,00;90,00;Кешью;15;;;;;;;;;;;;;;;;;;;;;;
;;сумма 2;38,00;9,00;33,00;400,00;;;;;;;;;;;;;;;;;;;;;;;;
;;;;;;;;;;;;;;;;;;;;;;;;;;;;;;
;;приём пищи 3;26,00;5,00;5,00;160,00;Филе куриное гриль;140;;;;;;;;;;;;;;;;;;;;;;
;;;1,00;0,00;8,00;50,00;Гречневая крупа;50;;;;;;;;;;;;;;;;;;;;;;
;;;1,00;12,00;3,00;127,00;Авокадо;;1/2 шт.;;;;;;;;;;;;;;;;;;;;;
;;;0,00;0,00;4,00;15,00;Салат без масла (огурец, пекинская капуста, зелень);;Не ограничено;;;;;;;;;;;;;;;;;;;;;
;;сумма 3;28,00;17,00;20,00;352,00;;;;;;;;;;;;;;;;;;;;;;;;
;;;;;;;;;;;;;;;;;;;;;;;;;;;;;;
;;приём пищи 4;32,00;5,00;5,00;155,00;Филе куриное гриль;130;;;;;;;;;;;;;;;;;;;;;;
;;;0,00;0,00;4,00;15,00;Салат без масла (огурец, пекинская капуста, зелень);;Не ограничено;Аспарагус спаржа;100;;;;;;;;;;;;;;;;;;;
;;сумма4;32,00;5,00;9,00;170,00;;;;;;;;;;;;;;;;;;;;;;;;
;день 28/30;;;;;;;;;;;;;;;;;;;;;;;;;;;;;
;;приём пищи 1;3,00;1,00;33,00;146,00;Кукурузные хлопья без сахара;40;;;;;;;;;;;;;;;;;;;;;;
;;;14,00;12,00;1,00;180,00;Омлет яйца целые;;2;;;;;;;;;;;;;;;;;;;;;
Со 2 ого приема вес в готовом виде!!!;;;0,00;0,00;16,00;63,00;Груша;150;;;;;;;;;;;;;;;;;;;;;;
;;сумма 1;17,00;13,00;50,00;389,00;;;;;;;;;;;;;;;;;;;;;;;;
;;;;;;;;;;;;;;;;;;;;;;;;;;;;;;
;;приём пищи 2;2,00;1,00;23,00;110,00;Рис коричневый;100;;;;;;;;;;;;;;;;;;;;;;
;;;33,00;10,00;0,00;230,00;Говядина гриль;130;;;;;;;;;;;;;;;;;;;;;;
;;;0,00;0,00;4,00;15,00;Салат (капуста брокколи, зелень, перец зеленый);;Не ограничено;;;;;;;;;;;;;;;;;;;;;
;;сумма 2;35,00;11,00;27,00;355,00;;;;;;;;;;;;;;;;;;;;;;;;
;;;;;;;;;;;;;;;;;;;;;;;;;;;;;;
;;;;;;;;;;;;;;;;;;;;;;;;;;;;;;
;;приём пищи 3;24,00;2,00;1,00;130,00;Форель речная запеченная;140;;Угорь морской гриль;140;;;;;;;;;;;;;;;;;;;
;;;1,00;0,00;15,00;70,00;Рис пропаренный;60;;;;;;;;;;;;;;;;;;;;;;
;;;1,00;12,00;3,00;127,00;Авокадо;;1/2 шт.;;;;;;;;;;;;;;;;;;;;;
;;сумма 3;26,00;14,00;19,00;327,00;;;;;;;;;;;;;;;;;;;;;;;;
;;;;;;;;;;;;;;;;;;;;;;;;;;;;;;
;;приём пищи 4;27,00;5,00;0,00;150,00;Дорадо гриль;150;;Сибас запеченный;150;;;;;;;;;;;;;;;;;;;
;;;0,00;0,00;4,00;15,00;Салат без масла (огурец, пекинская капуста, зелень);;Не ограничено;Зелень (укроп, шпинат, петрушка);;Не ограничено;;;;;;;;;;;;;;;;;;
;;сумма 4;27,00;5,00;4,00;165,00;;;;;;;;;;;;;;;;;;;;;;;;
;день 29/30;;;;;;;;;;;;;;;;;;;;;;;;;;;;;
;;приём пищи 1;5,00;2,00;24,00;140,00;Овсяная крупа;40;;;;;;;;;;;;;;;;;;;;;;
;;;4,00;11,00;3,00;130,00;Миндаль;20;;;;;;;;;;;;;;;;;;;;;;
;;;7,00;2,00;9,00;90,00;Йогурт 1% без добавок;150;;;;;;;;;;;;;;;;;;;;;;
Со 2 ого приема вес в готовом виде!!!;;;0,00;0,00;6,00;20,00;Инжир;40;;;;;;;;;;;;;;;;;;;;;;
;;сумма 1;16,00;15,00;42,00;380,00;;;;;;;;;;;;;;;;;;;;;;;;
;;;;;;;;;;;;;;;;;;;;;;;;;;;;;;
;;приём пищи 2;2,00;2,00;17,00;140,00;Картофель печеный;110;;Батат печеный;110;;;;;;;;;;;;;;;;;;;
;;;30,00;1,00;0,00;180,00;Индейка филе на гриле;140;;;;;;;;;;;;;;;;;;;;;;
;;;0,00;0,00;4,00;15,00;Салат (капуста брокколи, зелень, перец зеленый);;Не ограничено;;;;;;;;;;;;;;;;;;;;;
;;сумма 2;32,00;3,00;21,00;335,00;;;;;;;;;;;;;;;;;;;;;;;;
;;;;;;;;;;;;;;;;;;;;;;;;;;;;;;
;;приём пищи 3;37,00;1,00;0,00;200,00;Индейка гриль филе;150;;Филе кролика гриль;130;;;;;;;;;;;;;;;;;;;
;;;3,00;13,00;1,00;135,00;Грецкий орех;20;;;;;;;;;;;;;;;;;;;;;;
;;;0,00;0,00;4,00;15,00;Салат (огурец, пекинская капуста, зелень, болгарский перец);;Не ограничено;;;;;;;;;;;;;;;;;;;;;
;;сумма 3;40,00;14,00;5,00;350,00;;;;;;;;;;;;;;;;;;;;;;;;
;;;;;;;;;;;;;;;;;;;;;;;;;;;;;;
;;приём пищи 4;30,00;5,00;0,00;190,00;Окунь морской запеченный;170;;Дорадо гриль;170;;;;;;;;;;;;;;;;;;;
;;;0,00;0,00;5,00;20,00;Аспарагус спаржа;100;;Салат без масла (огурец, пекинская капуста, зелень);;;;;;;;;;;;;;;;;;;;
;;сумма4;30,00;5,00;5,00;210,00;;;;;;;;;;;;;;;;;;;;;;;;
;день 30/30;;;;;;;;;;;;;;;;;;;;;;;;;;;;;
;;приём пищи 1;5,00;2,00;24,00;140,00;Овсяная крупа;40;;;;;;;;;;;;;;;;;;;;;;
;;;7,00;3,00;18,00;130,00;Йогурт 1% без добавок;200;;;;;;;;;;;;;;;;;;;;;;
Со 2 ого приема вес в готовом виде!!!;;;3,00;0,00;21,00;100,00;Курага;50;;;;;;;;;;;;;;;;;;;;;;
;;сумма 1;15,00;5,00;63,00;370,00;;;;;;;;;;;;;;;;;;;;;;;;
;;;;;;;;;;;;;;;;;;;;;;;;;;;;;;
;;приём пищи 2;2,00;1,00;16,00;80,00;Батат гриль;100;;Картофель гриль;100;;;;;;;;;;;;;;;;;;;
;;;32,00;10,00;0,00;210,00;Говядина филе гриль;120;;;;;;;;;;;;;;;;;;;;;;
;;;3,00;9,00;2,00;100,00;Миндаль;15;;;;;;;;;;;;;;;;;;;;;;
;;;0,00;0,00;4,00;15,00;Салат (капуста брокколи, зелень, перец зеленый);;Не ограничено;;;;;;;;;;;;;;;;;;;;;
;;сумма 2;37,00;20,00;22,00;405,00;;;;;;;;;;;;;;;;;;;;;;;;
;;;;;;;;;;;;;;;;;;;;;;;;;;;;;;
;;приём пищи 3;30,00;1,00;0,00;180,00;Индейка филе гриль;140;;;;;;;;;;;;;;;;;;;;;;
;;;4,00;10,00;4,00;120,00;Грецкий орех;20;;;;;;;;;;;;;;;;;;;;;;
;;;0,00;0,00;4,00;15,00;Салат (огурец, пекинская капуста, зелень, болгарский перец);;Не ограничено;;;;;;;;;;;;;;;;;;;;;
;;сумма 3;34,00;11,00;8,00;315,00;;;;;;;;;;;;;;;;;;;;;;;;
;;;;;;;;;;;;;;;;;;;;;;;;;;;;;;
;;приём пищи 4;32,00;2,00;2,00;170,00;Творог зернистый 1%;200;;Йогурт без добавок 1%;250;;;;;;;;;;;;;;;;;;;
;;сумма 4;32,00;2,00;2,00;170,00;;;;;;;;;;;;;;;;;;;;;;;;
;;;;;;;;;;;;;;;;;;;;;;;;;;;;;;
;;;;;;;;;;;;;;;;;;;;;;;;;;;;;;
;;;;;;;;;;;;;;;;;;;;;;;;;;;;;;
;;;;;;;;;;;;;;;;;;;;;;;;;;;;;;
;;;;;;;;;;;;;;;;;;;;;;;;;;;;;;
;;;;;;;;;;;;;;;;;;;;;;;;;;;;;;
;;;;;;;;;;;;;;;;;;;;;;;;;;;;;;
;;;;;;;;;;;;;;;;;;;;;;;;;;;;;;
;;;;;;;;;;;;;;;;;;;;;;;;;;;;;;
;;;;;;;;;;;;;;;;;;;;;;;;;;;;;;
;;;;;;;;;;;;;;;;;;;;;;;;;;;;;;
;;;;;;;;;;;;;;;;;;;;;;;;;;;;;;
;;;;;;;;;;;;;;;;;;;;;;;;;;;;;;
;;;;;;;;;;;;;;;;;;;;;;;;;;;;;;
;;;;;;;;;;;;;;;;;;;;;;;;;;;;;;
;;;;;;;;;;;;;;;;;;;;;;;;;;;;;;
;;;;;;;;;;;;;;;;;;;;;;;;;;;;;;
;;;;;;;;;;;;;;;;;;;;;;;;;;;;;;
;;;;;;;;;;;;;;;;;;;;;;;;;;;;;;
;;;;;;;;;;;;;;;;;;;;;;;;;;;;;;
;;;;;;;;;;;;;;;;;;;;;;;;;;;;;;
;;;;;;;;;;;;;;;;;;;;;;;;;;;;;;
;;;;;;;;;;;;;;;;;;;;;;;;;;;;;;
;;;;;;;;;;;;;;;;;;;;;;;;;;;;;;
;;;;;;;;;;;;;;;;;;;;;;;;;;;;;;
;;;;;;;;;;;;;;;;;;;;;;;;;;;;;;
;;;;;;;;;;;;;;;;;;;;;;;;;;;;;;
;;;;;;;;;;;;;;;;;;;;;;;;;;;;;;
;;;;;;;;;;;;;;;;;;;;;;;;;;;;;;
;;;;;;;;;;;;;;;;;;;;;;;;;;;;;;
;;;;;;;;;;;;;;;;;;;;;;;;;;;;;;
;;;;;;;;;;;;;;;;;;;;;;;;;;;;;;
;;;;;;;;;;;;;;;;;;;;;;;;;;;;;;
;;;;;;;;;;;;;;;;;;;;;;;;;;;;;;
;;;;;;;;;;;;;;;;;;;;;;;;;;;;;;
;;;;;;;;;;;;;;;;;;;;;;;;;;;;;;
;;;;;;;;;;;;;;;;;;;;;;;;;;;;;;
;;;;;;;;;;;;;;;;;;;;;;;;;;;;;;
;;;;;;;;;;;;;;;;;;;;;;;;;;;;;;
;;;;;;;;;;;;;;;;;;;;;;;;;;;;;;
;;;;;;;;;;;;;;;;;;;;;;;;;;;;;;
;;;;;;;;;;;;;;;;;;;;;;;;;;;;;;
;;;;;;;;;;;;;;;;;;;;;;;;;;;;;;
;;;;;;;;;;;;;;;;;;;;;;;;;;;;;;
;;;;;;;;;;;;;;;;;;;;;;;;;;;;;;
;;;;;;;;;;;;;;;;;;;;;;;;;;;;;;
;;;;;;;;;;;;;;;;;;;;;;;;;;;;;;
;;;;;;;;;;;;;;;;;;;;;;;;;;;;;;
;;;;;;;;;;;;;;;;;;;;;;;;;;;;;;
;;;;;;;;;;;;;;;;;;;;;;;;;;;;;;
;;;;;;;;;;;;;;;;;;;;;;;;;;;;;;
;;;;;;;;;;;;;;;;;;;;;;;;;;;;;;
;;;;;;;;;;;;;;;;;;;;;;;;;;;;;;
;;;;;;;;;;;;;;;;;;;;;;;;;;;;;;
;;;;;;;;;;;;;;;;;;;;;;;;;;;;;;
;;;;;;;;;;;;;;;;;;;;;;;;;;;;;;
;;;;;;;;;;;;;;;;;;;;;;;;;;;;;;
;;;;;;;;;;;;;;;;;;;;;;;;;;;;;;
;;;;;;;;;;;;;;;;;;;;;;;;;;;;;;
;;;;;;;;;;;;;;;;;;;;;;;;;;;;;;
;;;;;;;;;;;;;;;;;;;;;;;;;;;;;;
;;;;;;;;;;;;;;;;;;;;;;;;;;;;;;
;;;;;;;;;;;;;;;;;;;;;;;;;;;;;;
;;;;;;;;;;;;;;;;;;;;;;;;;;;;;;
;;;;;;;;;;;;;;;;;;;;;;;;;;;;;;
;;;;;;;;;;;;;;;;;;;;;;;;;;;;;;
;;;;;;;;;;;;;;;;;;;;;;;;;;;;;;
;;;;;;;;;;;;;;;;;;;;;;;;;;;;;;
;;;;;;;;;;;;;;;;;;;;;;;;;;;;;;
;;;;;;;;;;;;;;;;;;;;;;;;;;;;;;
;;;;;;;;;;;;;;;;;;;;;;;;;;;;;;
;;;;;;;;;;;;;;;;;;;;;;;;;;;;;;
;;;;;;;;;;;;;;;;;;;;;;;;;;;;;;
;;;;;;;;;;;;;;;;;;;;;;;;;;;;;;
;;;;;;;;;;;;;;;;;;;;;;;;;;;;;;
;;;;;;;;;;;;;;;;;;;;;;;;;;;;;;
;;;;;;;;;;;;;;;;;;;;;;;;;;;;;;
;;;;;;;;;;;;;;;;;;;;;;;;;;;;;;
;;;;;;;;;;;;;;;;;;;;;;;;;;;;;;
;;;;;;;;;;;;;;;;;;;;;;;;;;;;;;
;;;;;;;;;;;;;;;;;;;;;;;;;;;;;;
;;;;;;;;;;;;;;;;;;;;;;;;;;;;;;
;;;;;;;;;;;;;;;;;;;;;;;;;;;;;;
;;;;;;;;;;;;;;;;;;;;;;;;;;;;;;
;;;;;;;;;;;;;;;;;;;;;;;;;;;;;;
;;;;;;;;;;;;;;;;;;;;;;;;;;;;;;
;;;;;;;;;;;;;;;;;;;;;;;;;;;;;;
;;;;;;;;;;;;;;;;;;;;;;;;;;;;;;
;;;;;;;;;;;;;;;;;;;;;;;;;;;;;;
;;;;;;;;;;;;;;;;;;;;;;;;;;;;;;
;;;;;;;;;;;;;;;;;;;;;;;;;;;;;;
;;;;;;;;;;;;;;;;;;;;;;;;;;;;;;
;;;;;;;;;;;;;;;;;;;;;;;;;;;;;;
;;;;;;;;;;;;;;;;;;;;;;;;;;;;;;
;;;;;;;;;;;;;;;;;;;;;;;;;;;;;;
;;;;;;;;;;;;;;;;;;;;;;;;;;;;;;
;;;;;;;;;;;;;;;;;;;;;;;;;;;;;;
;;;;;;;;;;;;;;;;;;;;;;;;;;;;;;
;;;;;;;;;;;;;;;;;;;;;;;;;;;;;;
;;;;;;;;;;;;;;;;;;;;;;;;;;;;;;
;;;;;;;;;;;;;;;;;;;;;;;;;;;;;;
;;;;;;;;;;;;;;;;;;;;;;;;;;;;;;
;;;;;;;;;;;;;;;;;;;;;;;;;;;;;;
;;;;;;;;;;;;;;;;;;;;;;;;;;;;;;
;;;;;;;;;;;;;;;;;;;;;;;;;;;;;;
;;;;;;;;;;;;;;;;;;;;;;;;;;;;;;
;;;;;;;;;;;;;;;;;;;;;;;;;;;;;;
;;;;;;;;;;;;;;;;;;;;;;;;;;;;;;
;;;;;;;;;;;;;;;;;;;;;;;;;;;;;;
;;;;;;;;;;;;;;;;;;;;;;;;;;;;;;
;;;;;;;;;;;;;;;;;;;;;;;;;;;;;;
;;;;;;;;;;;;;;;;;;;;;;;;;;;;;;
;;;;;;;;;;;;;;;;;;;;;;;;;;;;;;
;;;;;;;;;;;;;;;;;;;;;;;;;;;;;;
;;;;;;;;;;;;;;;;;;;;;;;;;;;;;;
;;;;;;;;;;;;;;;;;;;;;;;;;;;;;;
;;;;;;;;;;;;;;;;;;;;;;;;;;;;;;
;;;;;;;;;;;;;;;;;;;;;;;;;;;;;;
;;;;;;;;;;;;;;;;;;;;;;;;;;;;;;
;;;;;;;;;;;;;;;;;;;;;;;;;;;;;;
;;;;;;;;;;;;;;;;;;;;;;;;;;;;;;
;;;;;;;;;;;;;;;;;;;;;;;;;;;;;;
;;;;;;;;;;;;;;;;;;;;;;;;;;;;;;
;;;;;;;;;;;;;;;;;;;;;;;;;;;;;;
;;;;;;;;;;;;;;;;;;;;;;;;;;;;;;
;;;;;;;;;;;;;;;;;;;;;;;;;;;;;;
;;;;;;;;;;;;;;;;;;;;;;;;;;;;;;
;;;;;;;;;;;;;;;;;;;;;;;;;;;;;;
;;;;;;;;;;;;;;;;;;;;;;;;;;;;;;
;;;;;;;;;;;;;;;;;;;;;;;;;;;;;;
;;;;;;;;;;;;;;;;;;;;;;;;;;;;;;
;;;;;;;;;;;;;;;;;;;;;;;;;;;;;;
;;;;;;;;;;;;;;;;;;;;;;;;;;;;;;
;;;;;;;;;;;;;;;;;;;;;;;;;;;;;;
;;;;;;;;;;;;;;;;;;;;;;;;;;;;;;
;;;;;;;;;;;;;;;;;;;;;;;;;;;;;;
;;;;;;;;;;;;;;;;;;;;;;;;;;;;;;
;;;;;;;;;;;;;;;;;;;;;;;;;;;;;;
;;;;;;;;;;;;;;;;;;;;;;;;;;;;;;
;;;;;;;;;;;;;;;;;;;;;;;;;;;;;;
;;;;;;;;;;;;;;;;;;;;;;;;;;;;;;
;;;;;;;;;;;;;;;;;;;;;;;;;;;;;;
;;;;;;;;;;;;;;;;;;;;;;;;;;;;;;
;;;;;;;;;;;;;;;;;;;;;;;;;;;;;;
;;;;;;;;;;;;;;;;;;;;;;;;;;;;;;
;;;;;;;;;;;;;;;;;;;;;;;;;;;;;;
;;;;;;;;;;;;;;;;;;;;;;;;;;;;;;
;;;;;;;;;;;;;;;;;;;;;;;;;;;;;;
;;;;;;;;;;;;;;;;;;;;;;;;;;;;;;
;;;;;;;;;;;;;;;;;;;;;;;;;;;;;;
;;;;;;;;;;;;;;;;;;;;;;;;;;;;;;
;;;;;;;;;;;;;;;;;;;;;;;;;;;;;;
;;;;;;;;;;;;;;;;;;;;;;;;;;;;;;
;;;;;;;;;;;;;;;;;;;;;;;;;;;;;;
;;;;;;;;;;;;;;;;;;;;;;;;;;;;;;
;;;;;;;;;;;;;;;;;;;;;;;;;;;;;;
;;;;;;;;;;;;;;;;;;;;;;;;;;;;;;
;;;;;;;;;;;;;;;;;;;;;;;;;;;;;;
;;;;;;;;;;;;;;;;;;;;;;;;;;;;;;
;;;;;;;;;;;;;;;;;;;;;;;;;;;;;;
;;;;;;;;;;;;;;;;;;;;;;;;;;;;;;
;;;;;;;;;;;;;;;;;;;;;;;;;;;;;;
;;;;;;;;;;;;;;;;;;;;;;;;;;;;;;
;;;;;;;;;;;;;;;;;;;;;;;;;;;;;;
;;;;;;;;;;;;;;;;;;;;;;;;;;;;;;
;;;;;;;;;;;;;;;;;;;;;;;;;;;;;;
;;;;;;;;;;;;;;;;;;;;;;;;;;;;;;
;;;;;;;;;;;;;;;;;;;;;;;;;;;;;;
;;;;;;;;;;;;;;;;;;;;;;;;;;;;;;
;;;;;;;;;;;;;;;;;;;;;;;;;;;;;;
;;;;;;;;;;;;;;;;;;;;;;;;;;;;;;
;;;;;;;;;;;;;;;;;;;;;;;;;;;;;;
;;;;;;;;;;;;;;;;;;;;;;;;;;;;;;
;;;;;;;;;;;;;;;;;;;;;;;;;;;;;;
;;;;;;;;;;;;;;;;;;;;;;;;;;;;;;
;;;;;;;;;;;;;;;;;;;;;;;;;;;;;;
;;;;;;;;;;;;;;;;;;;;;;;;;;;;;;
;;;;;;;;;;;;;;;;;;;;;;;;;;;;;;
;;;;;;;;;;;;;;;;;;;;;;;;;;;;;;
;;;;;;;;;;;;;;;;;;;;;;;;;;;;;;
;;;;;;;;;;;;;;;;;;;;;;;;;;;;;;
;;;;;;;;;;;;;;;;;;;;;;;;;;;;;;
;;;;;;;;;;;;;;;;;;;;;;;;;;;;;;
;;;;;;;;;;;;;;;;;;;;;;;;;;;;;;
;;;;;;;;;;;;;;;;;;;;;;;;;;;;;;
;;;;;;;;;;;;;;;;;;;;;;;;;;;;;;
;;;;;;;;;;;;;;;;;;;;;;;;;;;;;;
;;;;;;;;;;;;;;;;;;;;;;;;;;;;;;
;;;;;;;;;;;;;;;;;;;;;;;;;;;;;;
;;;;;;;;;;;;;;;;;;;;;;;;;;;;;;
;;;;;;;;;;;;;;;;;;;;;;;;;;;;;;
;;;;;;;;;;;;;;;;;;;;;;;;;;;;;;
;;;;;;;;;;;;;;;;;;;;;;;;;;;;;;
;;;;;;;;;;;;;;;;;;;;;;;;;;;;;;
;;;;;;;;;;;;;;;;;;;;;;;;;;;;;;
;;;;;;;;;;;;;;;;;;;;;;;;;;;;;;
;;;;;;;;;;;;;;;;;;;;;;;;;;;;;;
;;;;;;;;;;;;;;;;;;;;;;;;;;;;;;
;;;;;;;;;;;;;;;;;;;;;;;;;;;;;;
;;;;;;;;;;;;;;;;;;;;;;;;;;;;;;
;;;;;;;;;;;;;;;;;;;;;;;;;;;;;;
;;;;;;;;;;;;;;;;;;;;;;;;;;;;;;
;;;;;;;;;;;;;;;;;;;;;;;;;;;;;;
;;;;;;;;;;;;;;;;;;;;;;;;;;;;;;
;;;;;;;;;;;;;;;;;;;;;;;;;;;;;;
;;;;;;;;;;;;;;;;;;;;;;;;;;;;;;
;;;;;;;;;;;;;;;;;;;;;;;;;;;;;;
;;;;;;;;;;;;;;;;;;;;;;;;;;;;;;
;;;;;;;;;;;;;;;;;;;;;;;;;;;;;;
;;;;;;;;;;;;;;;;;;;;;;;;;;;;;;
;;;;;;;;;;;;;;;;;;;;;;;;;;;;;;
;;;;;;;;;;;;;;;;;;;;;;;;;;;;;;
;;;;;;;;;;;;;;;;;;;;;;;;;;;;;;
;;;;;;;;;;;;;;;;;;;;;;;;;;;;;;
;;;;;;;;;;;;;;;;;;;;;;;;;;;;;;
;;;;;;;;;;;;;;;;;;;;;;;;;;;;;;
;;;;;;;;;;;;;;;;;;;;;;;;;;;;;;
;;;;;;;;;;;;;;;;;;;;;;;;;;;;;;
;;;;;;;;;;;;;;;;;;;;;;;;;;;;;;
;;;;;;;;;;;;;;;;;;;;;;;;;;;;;;
;;;;;;;;;;;;;;;;;;;;;;;;;;;;;;
;;;;;;;;;;;;;;;;;;;;;;;;;;;;;;
;;;;;;;;;;;;;;;;;;;;;;;;;;;;;;
;;;;;;;;;;;;;;;;;;;;;;;;;;;;;;
;;;;;;;;;;;;;;;;;;;;;;;;;;;;;;
;;;;;;;;;;;;;;;;;;;;;;;;;;;;;;
;;;;;;;;;;;;;;;;;;;;;;;;;;;;;;
;;;;;;;;;;;;;;;;;;;;;;;;;;;;;;
;;;;;;;;;;;;;;;;;;;;;;;;;;;;;;
;;;;;;;;;;;;;;;;;;;;;;;;;;;;;;
;;;;;;;;;;;;;;;;;;;;;;;;;;;;;;
;;;;;;;;;;;;;;;;;;;;;;;;;;;;;;
;;;;;;;;;;;;;;;;;;;;;;;;;;;;;;
;;;;;;;;;;;;;;;;;;;;;;;;;;;;;;
;;;;;;;;;;;;;;;;;;;;;;;;;;;;;;
;;;;;;;;;;;;;;;;;;;;;;;;;;;;;;
;;;;;;;;;;;;;;;;;;;;;;;;;;;;;;
;;;;;;;;;;;;;;;;;;;;;;;;;;;;;;
;;;;;;;;;;;;;;;;;;;;;;;;;;;;;;
;;;;;;;;;;;;;;;;;;;;;;;;;;;;;;
;;;;;;;;;;;;;;;;;;;;;;;;;;;;;;
;;;;;;;;;;;;;;;;;;;;;;;;;;;;;;
;;;;;;;;;;;;;;;;;;;;;;;;;;;;;;
;;;;;;;;;;;;;;;;;;;;;;;;;;;;;;
;;;;;;;;;;;;;;;;;;;;;;;;;;;;;;
;;;;;;;;;;;;;;;;;;;;;;;;;;;;;;
;;;;;;;;;;;;;;;;;;;;;;;;;;;;;;
;;;;;;;;;;;;;;;;;;;;;;;;;;;;;;
;;;;;;;;;;;;;;;;;;;;;;;;;;;;;;
;;;;;;;;;;;;;;;;;;;;;;;;;;;;;;
;;;;;;;;;;;;;;;;;;;;;;;;;;;;;;
;;;;;;;;;;;;;;;;;;;;;;;;;;;;;;
;;;;;;;;;;;;;;;;;;;;;;;;;;;;;;
;;;;;;;;;;;;;;;;;;;;;;;;;;;;;;
;;;;;;;;;;;;;;;;;;;;;;;;;;;;;;
;;;;;;;;;;;;;;;;;;;;;;;;;;;;;;
;;;;;;;;;;;;;;;;;;;;;;;;;;;;;;
;;;;;;;;;;;;;;;;;;;;;;;;;;;;;;
;;;;;;;;;;;;;;;;;;;;;;;;;;;;;;
;;;;;;;;;;;;;;;;;;;;;;;;;;;;;;
;;;;;;;;;;;;;;;;;;;;;;;;;;;;;;
;;;;;;;;;;;;;;;;;;;;;;;;;;;;;;
;;;;;;;;;;;;;;;;;;;;;;;;;;;;;;
;;;;;;;;;;;;;;;;;;;;;;;;;;;;;;
;;;;;;;;;;;;;;;;;;;;;;;;;;;;;;
;;;;;;;;;;;;;;;;;;;;;;;;;;;;;;
;;;;;;;;;;;;;;;;;;;;;;;;;;;;;;
;;;;;;;;;;;;;;;;;;;;;;;;;;;;;;
;;;;;;;;;;;;;;;;;;;;;;;;;;;;;;
;;;;;;;;;;;;;;;;;;;;;;;;;;;;;;
;;;;;;;;;;;;;;;;;;;;;;;;;;;;;;
;;;;;;;;;;;;;;;;;;;;;;;;;;;;;;
;;;;;;;;;;;;;;;;;;;;;;;;;;;;;;
;;;;;;;;;;;;;;;;;;;;;;;;;;;;;;
;;;;;;;;;;;;;;;;;;;;;;;;;;;;;;
;;;;;;;;;;;;;;;;;;;;;;;;;;;;;;
;;;;;;;;;;;;;;;;;;;;;;;;;;;;;;
;;;;;;;;;;;;;;;;;;;;;;;;;;;;;;
;;;;;;;;;;;;;;;;;;;;;;;;;;;;;;
;;;;;;;;;;;;;;;;;;;;;;;;;;;;;;
;;;;;;;;;;;;;;;;;;;;;;;;;;;;;;
;;;;;;;;;;;;;;;;;;;;;;;;;;;;;;
;;;;;;;;;;;;;;;;;;;;;;;;;;;;;;
;;;;;;;;;;;;;;;;;;;;;;;;;;;;;;
;;;;;;;;;;;;;;;;;;;;;;;;;;;;;;
;;;;;;;;;;;;;;;;;;;;;;;;;;;;;;
;;;;;;;;;;;;;;;;;;;;;;;;;;;;;;
;;;;;;;;;;;;;;;;;;;;;;;;;;;;;;
;;;;;;;;;;;;;;;;;;;;;;;;;;;;;;
;;;;;;;;;;;;;;;;;;;;;;;;;;;;;;
;;;;;;;;;;;;;;;;;;;;;;;;;;;;;;
;;;;;;;;;;;;;;;;;;;;;;;;;;;;;;
;;;;;;;;;;;;;;;;;;;;;;;;;;;;;;
;;;;;;;;;;;;;;;;;;;;;;;;;;;;;;
;;;;;;;;;;;;;;;;;;;;;;;;;;;;;;
;;;;;;;;;;;;;;;;;;;;;;;;;;;;;;
;;;;;;;;;;;;;;;;;;;;;;;;;;;;;;
;;;;;;;;;;;;;;;;;;;;;;;;;;;;;;
;;;;;;;;;;;;;;;;;;;;;;;;;;;;;;
;;;;;;;;;;;;;;;;;;;;;;;;;;;;;;
;;;;;;;;;;;;;;;;;;;;;;;;;;;;;;
;;;;;;;;;;;;;;;;;;;;;;;;;;;;;;
;;;;;;;;;;;;;;;;;;;;;;;;;;;;;;
;;;;;;;;;;;;;;;;;;;;;;;;;;;;;;
;;;;;;;;;;;;;;;;;;;;;;;;;;;;;;
;;;;;;;;;;;;;;;;;;;;;;;;;;;;;;
;;;;;;;;;;;;;;;;;;;;;;;;;;;;;;
;;;;;;;;;;;;;;;;;;;;;;;;;;;;;;
;;;;;;;;;;;;;;;;;;;;;;;;;;;;;;
;;;;;;;;;;;;;;;;;;;;;;;;;;;;;;
;;;;;;;;;;;;;;;;;;;;;;;;;;;;;;
;;;;;;;;;;;;;;;;;;;;;;;;;;;;;;
;;;;;;;;;;;;;;;;;;;;;;;;;;;;;;
;;;;;;;;;;;;;;;;;;;;;;;;;;;;;;
;;;;;;;;;;;;;;;;;;;;;;;;;;;;;;
;;;;;;;;;;;;;;;;;;;;;;;;;;;;;;
;;;;;;;;;;;;;;;;;;;;;;;;;;;;;;
;;;;;;;;;;;;;;;;;;;;;;;;;;;;;;
;;;;;;;;;;;;;;;;;;;;;;;;;;;;;;
;;;;;;;;;;;;;;;;;;;;;;;;;;;;;;
;;;;;;;;;;;;;;;;;;;;;;;;;;;;;;
;;;;;;;;;;;;;;;;;;;;;;;;;;;;;;
;;;;;;;;;;;;;;;;;;;;;;;;;;;;;;
;;;;;;;;;;;;;;;;;;;;;;;;;;;;;;
;;;;;;;;;;;;;;;;;;;;;;;;;;;;;;
;;;;;;;;;;;;;;;;;;;;;;;;;;;;;;
;;;;;;;;;;;;;;;;;;;;;;;;;;;;;;
;;;;;;;;;;;;;;;;;;;;;;;;;;;;;;
;;;;;;;;;;;;;;;;;;;;;;;;;;;;;;
;;;;;;;;;;;;;;;;;;;;;;;;;;;;;;
;;;;;;;;;;;;;;;;;;;;;;;;;;;;;;
;;;;;;;;;;;;;;;;;;;;;;;;;;;;;;
;;;;;;;;;;;;;;;;;;;;;;;;;;;;;;
;;;;;;;;;;;;;;;;;;;;;;;;;;;;;;
;;;;;;;;;;;;;;;;;;;;;;;;;;;;;;
;;;;;;;;;;;;;;;;;;;;;;;;;;;;;;
;;;;;;;;;;;;;;;;;;;;;;;;;;;;;;
;;;;;;;;;;;;;;;;;;;;;;;;;;;;;;
;;;;;;;;;;;;;;;;;;;;;;;;;;;;;;
;;;;;;;;;;;;;;;;;;;;;;;;;;;;;;
;;;;;;;;;;;;;;;;;;;;;;;;;;;;;;
;;;;;;;;;;;;;;;;;;;;;;;;;;;;;;
;;;;;;;;;;;;;;;;;;;;;;;;;;;;;;
;;;;;;;;;;;;;;;;;;;;;;;;;;;;;;
;;;;;;;;;;;;;;;;;;;;;;;;;;;;;;
;;;;;;;;;;;;;;;;;;;;;;;;;;;;;;
;;;;;;;;;;;;;;;;;;;;;;;;;;;;;;
;;;;;;;;;;;;;;;;;;;;;;;;;;;;;;
;;;;;;;;;;;;;;;;;;;;;;;;;;;;;;
;;;;;;;;;;;;;;;;;;;;;;;;;;;;;;
;;;;;;;;;;;;;;;;;;;;;;;;;;;;;;
;;;;;;;;;;;;;;;;;;;;;;;;;;;;;;
;;;;;;;;;;;;;;;;;;;;;;;;;;;;;;
;;;;;;;;;;;;;;;;;;;;;;;;;;;;;;
;;;;;;;;;;;;;;;;;;;;;;;;;;;;;;
;;;;;;;;;;;;;;;;;;;;;;;;;;;;;;
;;;;;;;;;;;;;;;;;;;;;;;;;;;;;;
;;;;;;;;;;;;;;;;;;;;;;;;;;;;;;
;;;;;;;;;;;;;;;;;;;;;;;;;;;;;;
;;;;;;;;;;;;;;;;;;;;;;;;;;;;;;
;;;;;;;;;;;;;;;;;;;;;;;;;;;;;;
;;;;;;;;;;;;;;;;;;;;;;;;;;;;;;
;;;;;;;;;;;;;;;;;;;;;;;;;;;;;;
;;;;;;;;;;;;;;;;;;;;;;;;;;;;;;
;;;;;;;;;;;;;;;;;;;;;;;;;;;;;;
;;;;;;;;;;;;;;;;;;;;;;;;;;;;;;
;;;;;;;;;;;;;;;;;;;;;;;;;;;;;;
;;;;;;;;;;;;;;;;;;;;;;;;;;;;;;
;;;;;;;;;;;;;;;;;;;;;;;;;;;;;;
;;;;;;;;;;;;;;;;;;;;;;;;;;;;;;
;;;;;;;;;;;;;;;;;;;;;;;;;;;;;;
;;;;;;;;;;;;;;;;;;;;;;;;;;;;;;
;;;;;;;;;;;;;;;;;;;;;;;;;;;;;;
;;;;;;;;;;;;;;;;;;;;;;;;;;;;;;
;;;;;;;;;;;;;;;;;;;;;;;;;;;;;;
;;;;;;;;;;;;;;;;;;;;;;;;;;;;;;
;;;;;;;;;;;;;;;;;;;;;;;;;;;;;;
;;;;;;;;;;;;;;;;;;;;;;;;;;;;;;
;;;;;;;;;;;;;;;;;;;;;;;;;;;;;;
;;;;;;;;;;;;;;;;;;;;;;;;;;;;;;
;;;;;;;;;;;;;;;;;;;;;;;;;;;;;;
;;;;;;;;;;;;;;;;;;;;;;;;;;;;;;
;;;;;;;;;;;;;;;;;;;;;;;;;;;;;;
;;;;;;;;;;;;;;;;;;;;;;;;;;;;;;
;;;;;;;;;;;;;;;;;;;;;;;;;;;;;;
;;;;;;;;;;;;;;;;;;;;;;;;;;;;;;
;;;;;;;;;;;;;;;;;;;;;;;;;;;;;;
;;;;;;;;;;;;;;;;;;;;;;;;;;;;;;
;;;;;;;;;;;;;;;;;;;;;;;;;;;;;;