# группы;день;# приёма пищи;БЕЛОК гр;ЖИР грм;УГЛЕВ грм;ККАЛ;наименование;кол-во грамм;кол-во штук;замена;кол-во грамм;кол-во штук;;;;;;;;;;;;;;;;;;
группа 2150 ккал;день 1/30;приём пищи 1;6,00;3,00;30,00;175,00;Овсяная крупа;50;;Гречневая крупа;50;;;;;;;;;;;;;;;;;;;
;;;0,00;0,00;14,00;75,00;Груша;150;;;;;;;;;;;;;;;;;;;;;;
;;;8,00;6,00;0,00;94,00;Яйцо вареное;;1;;;;с 1 по 7 день воды не менее 2,6 лит в день!!;;;;;;;;;;;;;;;;;
;;;2,00;6,00;2,00;65,00;Миндаль;10;;;;;;;;;;;;;;;;;;;;;;
;;сумма 1;16,00;15,00;46,00;409,00;;;;;;;;;;;;;;;;;;;;;;;;
;;;;;;;;;;;;;;;;;;;;;;;;;;;;;;
Со 2 ого приёма вес в готовом виде!!!;;;;;;;;;;;;;;;;;;;;;;;;;;;;;;
;;приём пищи 2;39,00;12,00;0,00;270,00;Говядина гриль;150;;;;;;;;;;;;;;;;;;;;;;
;;;2,00;0,00;25,00;120,00;Рис пропаренный;100;;;;;;;;;;;;;;;;;;;;;;
;;;0,00;0,00;4,00;15,00;Овощи (зелень, огурец, брокколи);;Не ограничено;;;;;;;;;;;;;;;;;;;;;
;;;3,00;7,00;3,00;90,00;Кешью;15;;;;;;;;;;;;;;;;;;;;;;
;;сумма 2;44,00;19,00;32,00;495,00;;;;;;;;;;;;;;;;;;;;;;;;
;;;;;;;;;;;;;;;;;;;;;;;;;;;;;;
;;приём пищи 3;4,00;0,00;23,00;105,00;Гречневая крупа;110;;Запечённый картофель;80;;;;;;;;;;;;;;;;;;;
;;;32,00;5,00;5,00;180,00;Куриное филе гриль;150;;Индейка филе гриль;120;;;;;;;;;;;;;;;;;;;
;;;1,00;14,00;3,00;130,00;Авокадо;60;;;;;;;;;;;;;;;;;;;;;;
;;;0,00;0,00;4,00;15,00;Салат без масла (огурец, пекинская капуста, зелень);;Не ограничено;Зелень (укроп, шпинат, петрушка);;Не ограничено;;;;;;;;;;;;;;;;;;
;;сумма 3;37,00;19,00;35,00;430,00;;;;;;;;;;;;;;;;;;;;;;;;
;;;;;;;;;;;;;;;;;;;;;;;;;;;;;;
;;приём пищи 4;32,00;1,00;0,00;170,00;Индейка гриль филе;130;;;;;;;;;;;;;;;;;;;;;;
;;;1,00;0,00;13,00;60,00;Рис белый отварной;50;;;;;;;;;;;;;;;;;;;;;;
;;;1;0;15;72;Яблоко;150;;;;;;;;;;;;;;;;;;;;;;
;;;2;0;3;20;Спаржа + зелень;150;;;;;;;;;;;;;;;;;;;;;;
;;сумма 4;36,00;1,00;31,00;322,00;;;;;;;;;;;;;;;;;;;;;;;;
;;;;;;;;;;;;;;;;;;;;;;;;;;;;;;
;;приём пищи 5;9,00;6,00;0,00;130,00;Омлет (без масла) 1 желток + 3 белка;120;3;;;;;;;;;;;;;;;;;;;;;
;;;2,00;10,00;2,00;90,00;Грецкий орех;15;;;;;;;;;;;;;;;;;;;;;;
;;;2,00;0,00;13,00;65,00;Грейпфрутовый фреш;200;;;;;;;;;;;;;;;;;;;;;;
;;сумма 5;13,00;16,00;15,00;285,00;;;;;;;;;;;;;;;;;;;;;;;;
;;;;;;;;;;;;;;;;;;;;;;;;;;;;;;
;;приём пищи 6;32,00;3,00;0,00;180,00;Хек запеченный;220;;Окунь морской гриль;180;;;;;;;;;;;;;;;;;;;
;;;0,00;0,00;4,00;15,00;Салат без масла (огурец, пекинская капуста, зелень);;Не ограничено;;;;;;;;;;;;;;;;;;;;;
;;сумма 6;32,00;3,00;4,00;195,00;;;;;;;;;;;;;;;;;;;;;;;;
; ДЕНЬ 2/30;;;;;;;;;;;;;;;;;;;;;;;;;;;;;
;;приём пищи 1;6,00;3,00;30,00;175,00;Овсяная крупа;50;;Гречневая крупа;50;;;;;;;;;;;;;;;;;;;
;;;1,00;0,00;8,00;40,00;Киви;80;;;;;;;;;;;;;;;;;;;;;;
;;;15,00;13,00;1,00;180,00;Омлет яйца целые;;2;;;;;;;;;;;;;;;;;;;;;
;;сумма 1;22,00;16,00;39,00;395,00;;;;;;;;;;;;;;;;;;;;;;;;
Со 2 ого приёма вес в готовом виде!!;;;;;;;;;;;;;;;;;;;;;;;;;;;;;;
;;приём пищи 2;;;;;;;;;;;;;;;;;;;;;;;;;;;;
;;;2,00;7,00;16,00;135,00;Запечённый картофель;100;;Батат запеченный;100;;;;;;;;;;;;;;;;;;;
;;;33,00;11,00;0,00;230,00;Говядина гриль;130;;;;;;;;;;;;;;;;;;;;;;
;;;1,00;0,00;15,00;70,00;Яблоко;150;;;;;;;;;;;;;;;;;;;;;;
;;;0,00;0,00;4,00;15,00;Овощи (любые зеленые);;Не ограничено;;;;;;;;;;;;;;;;;;;;;
;;сумма 2;30,00;22,00;35,00;450,00;;;;;;;;;;;;;;;;;;;;;;;;
;;;;;;;;;;;;;;;;;;;;;;;;;;;;;;
;;приём пищи 3;;;;;;;;;;;;;;;;;;;;;;;;;;;;
;;;37,00;1,00;0,00;200,00;Индейка гриль филе;150;;;;;;;;;;;;;;;;;;;;;;
;;;3,00;9,00;2,00;97,00;Миндаль;15;;;;;;;;;;;;;;;;;;;;;;
;;;4,00;0,00;22,00;110,00;Гречневая крупа;120;;;;;;;;;;;;;;;;;;;;;;
;;;0,00;0,00;4,00;15,00;Зелень (укроп, шпинат, петрушка);;Не ограничено;;;;;;;;;;;;;;;;;;;;;
;;сумма 3;44,00;10,00;28,00;422,00;;;;;;;;;;;;;;;;;;;;;;;;
;;;;;;;;;;;;;;;;;;;;;;;;;;;;;;
;;приём пищи 4;37,00;3,00;0,00;200,00;Индейка гриль филе;150;;;;;;;;;;;;;;;;;;;;;;
;;;1;0;25;120;Рис жасмин;100;;;;;;;;;;;;;;;;;;;;;;
;;;1,00;0,00;15,00;72,00;Яблоко;150;;;;;;;;;;;;;;;;;;;;;;
;;;2;0;3;20;Спаржа + зелень;150;;;;;;;;;;;;;;;;;;;;;;
;;сумма 4;41,00;3,00;43,00;412,00;;;;;;;;;;;;;;;;;;;;;;;;
;;;;;;;;;;;;;;;;;;;;;;;;;;;;;;
;;приём пищи 5;9,00;6,00;0,00;130,00;Омлет (без масла) 1 желток + 3 белка;120;3;;;;;;;;;;;;;;;;;;;;;
;;;2,00;10,00;2,00;100,00;Грецкий орех;15;;;;;;;;;;;;;;;;;;;;;;
;;;2,00;0,00;13,00;65,00;Грейпфрутовый фреш;200;;;;;;;;;;;;;;;;;;;;;;
;;сумма 5;13,00;16,00;15,00;295,00;;;;;;;;;;;;;;;;;;;;;;;;
;;;;;;;;;;;;;;;;;;;;;;;;;;;;;;
;;;;;;;;;;;;;;;;;;;;;;;;;;;;;;
;;приём пищи 6;33,00;6,00;0,00;190,00;Окунь морской запеченный;180;;Минтай филе гриль;180;;;;;;;;;;;;;;;;;;;
;;;0,00;0,00;4,00;15,00;Салат без масла (огурец, пекинская капуста, зелень);;Не ограничено;;;;;;;;;;;;;;;;;;;;;
;;сумма 6;33,00;6,00;4,00;205,00;;;;;;;;;;;;;;;;;;;;;;;;
;день 3/30;;;;;;;;;;;;;;;;;;;;;;;;;;;;;
;;приём пищи 1;5,00;2,00;28,00;160,00;Овсяная крупа;45;;;;;;;;;;;;;;;;;;;;;;
;;;1,00;0,00;8,00;40,00;Киви;80;;;;;;;;;;;;;;;;;;;;;;
;;;15,00;13,00;1,00;190,00;Омлет яйца целые;;2;;;;;;;;;;;;;;;;;;;;;
;;сумма 1;21,00;15,00;37,00;390,00;;;;;;;;;;;;;;;;;;;;;;;;
Со 2 ого приёма вес в готовом виде!!;;;;;;;;;;;;;;;;;;;;;;;;;;;;;;
;;приём пищи 2;33,00;11,00;0,00;230,00;Говядина гриль;130;;Куриное филе гриль;150;;;;;;;;;;;;;;;;;;;
;;;3,00;0,00;17,00;90,00;Гречневая крупа;100;;;;;;;;;;;;;;;;;;;;;;
;;;2,00;10,00;2,00;100,00;Грецкий орех;15;;;;;;;;;;;;;;;;;;;;;;
;;сумма 2;38,00;21,00;19,00;420,00;;;;;;;;;;;;;;;;;;;;;;;;
;;приём пищи 3;;;;;;;;;;;;;;;;;;;;;;;;;;;;
;;;37,00;1,00;0,00;200,00;Индейка гриль филе;150;;;;;;;;;;;;;;;;;;;;;;
;;;3,00;7,00;3,00;90,00;Кешью;15;;;;;;;;;;;;;;;;;;;;;;
;;;2,00;0,00;25,00;116,00;Рис пропаренный;100;;;;;;;;;;;;;;;;;;;;;;
;;сумма 3;42,00;8,00;28,00;406,00;;;;;;;;;;;;;;;;;;;;;;;;
;;;;;;;;;;;;;;;;;;;;;;;;;;;;;;
;;приём пищи 4;28,00;5,00;4,00;165,00;Куриное филе на гриле;140;;;;;;;;;;;;;;;;;;;;;;
;;;1,00;0,00;15,00;72,00;Яблоко;150;;;;;;;;;;;;;;;;;;;;;;
;;;4,00;11,00;3,00;130,00;Миндаль;20;;;;;;;;;;;;;;;;;;;;;;
;;;2,00;0,00;3,00;20,00;Спаржа + зелень;150;;;;;;;;;;;;;;;;;;;;;;
;;сумма 4;35,00;16,00;25,00;387,00;;;;;;;;;;;;;;;;;;;;;;;;
;;;;;;;;;;;;;;;;;;;;;;;;;;;;;;
;;приём пищи 5;32,00;1,00;0,00;170,00;Индейка гриль филе;130;;;;;;;;;;;;;;;;;;;;;;
;;;3,00;9,00;2,00;97,00;Кешью;15;;;;;;;;;;;;;;;;;;;;;;
;;;2,00;0,00;3,00;20,00;Спаржа + зелень;150;;;;;;;;;;;;;;;;;;;;;;
;;сумма 5;37,00;10,00;5,00;287,00;;;;;;;;;;;;;;;;;;;;;;;;
;;;;;;;;;;;;;;;;;;;;;;;;;;;;;;
;;приём пищи 6;30,00;6,00;0,00;225,00;Хек запеченный;250;;Тунец филе;220;;;;;;;;;;;;;;;;;;;
;;;0,00;0,00;4,00;15,00;Салат без масла (огурец, пекинская капуста, зелень);;Не ограничено;Спаржа на гриле;100;;;;;;;;;;;;;;;;;;;
;;сумма 6;30,00;6,00;4,00;240,00;;;;;;;;;;;;;;;;;;;;;;;;
;день 4/30;;;;;;;;;;;;;;;;;;;;;;;;;;;;;
;;приём пищи 1;6,00;3,00;30,00;175,00;Овсяная крупа;50;;Гречневая крупа;50;;;;;;;;;;;;;;;;;;;
Со 2 ого приёма вес в готовом виде!!!;;;7,00;6,00;0,00;94,00;Яйцо вареное;;1;;;;;;;;;;;;;;;;;;;;;
;;;1,00;0,00;15,00;72,00;Яблоко;150;;;;;;;;;;;;;;;;;;;;;;
;;;2,00;14,00;2,00;120,00;Грецкий орех;20;;Миндаль;20;;;;;;;;;;;;;;;;;;;
;;сумма 1;16,00;23,00;47,00;461,00;;;;;;;;;;;;;;;;;;;;;;;;
;;;;;;;;;;;;;;;;;;;;;;;;;;;;;;
;;приём пищи 2;33,00;11,00;0,00;230,00;Говядина запеченная;130;;;;;;;;;;;;;;;;;;;;;;
;;;2,00;0,00;29,00;135,00;Рис отварной;110;;;;;;;;;;;;;;;;;;;;;;
;;;0,00;0,00;4,00;15,00;Овощи (зелень, огурец, брокколи);;Не ограничено;;;;;;;;;;;;;;;;;;;;;
;;сумма 2;35,00;11,00;33,00;380,00;;;;;;;;;;;;;;;;;;;;;;;;
;;;;;;;;;;;;;;;;;;;;;;;;;;;;;;
;;приём пищи 3;33,00;11,00;0,00;230,00;Говядина гриль;130;;;;;;;;;;;;;;;;;;;;;;
;;;2,00;1,00;19,00;90,00;Картофель запеченный;100;;Батат гриль;120;;;;;;;;;;;;;;;;;;;
;;;3,00;7,00;3,00;90,00;Кешью;15;;;;;;;;;;;;;;;;;;;;;;
;;;0,00;0,00;4,00;15,00;Овощи (зеленые любые);;Не ограничено;;;;;;;;;;;;;;;;;;;;;
;;СУММА 3;38,00;19,00;26,00;425,00;;;;;;;;;;;;;;;;;;;;;;;;
;;;;;;;;;;;;;;;;;;;;;;;;;;;;;;
;;приём пищи 4;37,00;1,00;0,00;200,00;Индейка гриль филе;150;;;;;;;;;;;;;;;;;;;;;;
;;;2,00;1,00;23,00;110,00;Рис коричневый;100;;;;;;;;;;;;;;;;;;;;;;
;;;2,00;0,00;3,00;20,00;Спаржа + зелень;150;;;;;;;;;;;;;;;;;;;;;;
;;сумма 4;41,00;2,00;26,00;330,00;;;;;;;;;;;;;;;;;;;;;;;;
;;;;;;;;;;;;;;;;;;;;;;;;;;;;;;
;;приём пищи 5;39,00;12,00;0,00;270,00;Говядина гриль;150;;;;;;;;;;;;;;;;;;;;;;
;;;1,00;0,00;15,00;70,00;Яблоко;150;;;;;;;;;;;;;;;;;;;;;;
;;;2,00;0,00;3,00;20,00;Спаржа + зелень;150;;;;;;;;;;;;;;;;;;;;;;
;;сумма 5;42,00;12,00;18,00;360,00;;;;;;;;;;;;;;;;;;;;;;;;
;;;;;;;;;;;;;;;;;;;;;;;;;;;;;;
;;;;;;;;;;;;;;;;;;;;;;;;;;;;;;
;;приём пищи 6;40,00;2,00;0,00;210,00;Тунец гриль;220;;;;;;;;;;;;;;;;;;;;;;
;;;0,00;0,00;4,00;15,00;Салат без масла (огурец, пекинская капуста, зелень);;Не ограничено;;;;;;;;;;;;;;;;;;;;;
;;сумма 6;40,00;2,00;4,00;225,00;;;;;;;;;;;;;;;;;;;;;;;;
;день 5/30;;;;;;;;;;;;;;;;;;;;;;;;;;;;;
;;приём пищи 1;6,00;3,00;30,00;175,00;Овсяная крупа;50;;Гречневая крупа;50;;;;;;;;;;;;;;;;;;;
;;;7,00;6,00;0,00;94,00;Яйцо вареное;;1;;;;;;;;;;;;;;;;;;;;;
;;;0,00;0,00;11,00;42,00;Груша;100;;;;;;;;;;;;;;;;;;;;;;
;;;3,00;13,00;2,00;130,00;Грецкий орех;20;;;;;;;;;;;;;;;;;;;;;;
;;сумма 1;16,00;22,00;43,00;441,00;;;;;;;;;;;;;;;;;;;;;;;;
;;;;;;;;;;;;;;;;;;;;;;;;;;;;;;
;;приём пищи 2;27,00;5,00;5,00;180,00;Куриное филе гриль;150;;;;;;;;;;;;;;;;;;;;;;
;;;1,00;0,00;25,00;120,00;Рис жасмин;100;;Картофель запеченный;70;;;;;;;;;;;;;;;;;;;
;;;0,00;0,00;4,00;15,00;Салат (огурец, пекинская капуста, зелень, болгарский перец);;Не ограничено;;;;;;;;;;;;;;;;;;;;;
;;;1,00;0,00;8,00;40,00;Киви;80;;;;;;;;;;;;;;;;;;;;;;
;;;0,00;10,00;0,00;90,00;Оливковое масло;;1 ст.л.;Льняное масло;;1 ст.л.;;;;;;;;;;;;;;;;;;
;;сумма 2;29,00;15,00;42,00;445,00;;;;;;;;;;;;;;;;;;;;;;;;
;;;;;;;;;;;;;;;;;;;;;;;;;;;;;;
;;приём пищи 3;28,00;5,00;4,00;165,00;Куриное филе на гриле;140;;;;;;;;;;;;;;;;;;;;;;
;;;5,00;1,00;30,00;155,00;Пшеничная крупа;110;;Гречневая крупа;110;;;;;;;;;;;;;;;;;;;
;;;0,00;0,00;4,00;15,00;Овощи (огурец, зелень, брокколи);;Не ограничено;;;;;;;;;;;;;;;;;;;;;
;;сумма 3;33,00;6,00;38,00;335,00;;;;;;;;;;;;;;;;;;;;;;;;
;;;;;;;;;;;;;;;;;;;;;;;;;;;;;;
;;приём пищи 4;37,00;1,00;0,00;200,00;Индейка гриль филе;150;;;;;;;;;;;;;;;;;;;;;;
;;;1,00;0,00;12,00;62,00;Яблоко;130;;;;;;;;;;;;;;;;;;;;;;
;;;3,00;1,00;21,00;102,00;Картофель запеченный;120;;;;;;;;;;;;;;;;;;;;;;
;;;2,00;0,00;3,00;20,00;Спаржа + зелень;150;;;;;;;;;;;;;;;;;;;;;;
;;сумма 4;43,00;2,00;36,00;384,00;;;;;;;;;;;;;;;;;;;;;;;;
;;;;;;;;;;;;;;;;;;;;;;;;;;;;;;
;;приём пищи 5;9,00;6,00;0,00;130,00;Омлет (без масла) 1 желток + 3 белка;120;3;;;;;;;;;;;;;;;;;;;;;
;;;3,00;9,00;2,00;97,00;Миндаль;15;;;;;;;;;;;;;;;;;;;;;;
;;;2,00;0,00;13,00;65,00;Грейпфрутовый фреш;200;;;;;;;;;;;;;;;;;;;;;;
;;сумма 5;14,00;15,00;15,00;292,00;;;;;;;;;;;;;;;;;;;;;;;;
;;;;;;;;;;;;;;;;;;;;;;;;;;;;;;
;;приём пищи 6;;;;;;;;;;;;;;;;;;;;;;;;;;;;
;;;40,00;5,00;1,00;230,00;Форель речная запеченная;250;;Окунь морской гриль;230;;;;;;;;;;;;;;;;;;;
;;;0,00;0,00;4,00;15,00;Салат (огурец, пекинская капуста, зелень);;Не ограничено;Спаржа - аспарагус гриль;100;;;;;;;;;;;;;;;;;;;
;;сумма 6;40,00;5,00;5,00;245,00;;;;;;;;;;;;;;;;;;;;;;;;
;день 6/30;;;;;;;;;;;;;;;;;;;;;;;;;;;;;
;;приём пищи 1;6,00;3,00;30,00;175,00;Овсяная крупа;50;;Гречневая крупа;50;;;;;;;;;;;;;;;;;;;
;;;7,00;2,00;9,00;90,00;Йогурт 1% без добавок;150;;;;;;;;;;;;;;;;;;;;;;
;;;1,00;0,00;8,00;40,00;Киви;80;;;;;;;;;;;;;;;;;;;;;;
;;;4,00;11,00;3,00;130,00;Миндаль;20;;;;;;;;;;;;;;;;;;;;;;
;;сумма 1;18,00;16,00;50,00;435,00;;;;;;;;;;;;;;;;;;;;;;;;
;;;;;;;;;;;;;;;;;;;;;;;;;;;;;;
Со 2 ого приёма вес в готовом виде!!!;Со 2 ого приёме вес вес в готовом виде!!!;;;;;;;;;;;;;;;;;;;;;;;;;;;;;
;;приём пищи 2;34,00;9,00;0,00;220,00;Говядина гриль;130;;;;;;;;;;;;;;;;;;;;;;
;;;3,00;0,00;23,00;100,00;Крупа ячневая;100;;Картофель запеченный;100;;;;;;;;;;;;;;;;;;;
;;;0,00;0,00;4,00;15,00;Салат (огурец, пекинская капуста, зелень, болгарский перец);;Не ограничено;;;;;;;;;;;;;;;;;;;;;
;;;1,00;10,00;3,00;108,00;Авокадо;;1/2 шт.;;;;;;;;;;;;;;;;;;;;;
;;сумма 2;38,00;19,00;30,00;443,00;;;;;;;;;;;;;;;;;;;;;;;;
;;;;;;;;;;;;;;;;;;;;;;;;;;;;;;
;;приём пищи 3;29,00;11,00;0,00;220,00;Говядина запеченная;100;;Индейка филе гриль;130;;;;;;;;;;;;;;;;;;;
;;;4,00;2,00;22,00;95,00;Крупа пшеничная;110;;Крупа гречневая;100;;;;;;;;;;;;;;;;;;;
;;;4,00;11,00;3,00;130,00;Миндаль;20;;;;;;;;;;;;;;;;;;;;;;
;;;0,00;0,00;4,00;15,00;Овощи (огурец, брокколи, зелень);;Не ограничено;;;;;;;;;;;;;;;;;;;;;
;;сумма 3;37,00;24,00;29,00;460,00;;;;;;;;;;;;;;;;;;;;;;;;
;;;;;;;;;;;;;;;;;;;;;;;;;;;;;;
;;приём пищи 4;28,00;5,00;4,00;165,00;Куриное филе на гриле;140;;;;;;;;;;;;;;;;;;;;;;
;;;3,00;1,00;21,00;102,00;Картофель запеченный;120;;;;;;;;;;;;;;;;;;;;;;
;;;2,00;0,00;3,00;20,00;Спаржа + зелень;150;;;;;;;;;;;;;;;;;;;;;;
;;сумма 4;33,00;6,00;28,00;287,00;;;;;;;;;;;;;;;;;;;;;;;;
;;;;;;;;;;;;;;;;;;;;;;;;;;;;;;
;;приём пищи 5;9,00;6,00;0,00;130,00;Омлет (без масла) 1 желток + 3 белка;120;3;;;;;;;;;;;;;;;;;;;;;
;;;3,00;9,00;2,00;97,00;Миндаль;15;;;;;;;;;;;;;;;;;;;;;;
;;;2,00;0,00;13,00;65,00;Грейпфрутовый фреш;200;;;;;;;;;;;;;;;;;;;;;;
;;сумма 5;14,00;15,00;15,00;292,00;;;;;;;;;;;;;;;;;;;;;;;;
;;;;;;;;;;;;;;;;;;;;;;;;;;;;;;
;;приём пищи 6;30,00;5,00;0,00;180,00;Хек филе гриль;200;;Минтай филе гриль;200;;;;;;;;;;;;;;;;;;;
;;;2,00;0,00;3,00;20,00;Аспарагус (спаржа) гриль;100;;Салат (огурец, пекинская капуста, зелень);;Не ограничено;;;;;;;;;;;;;;;;;;
;;сумма 6;32,00;5,00;3,00;200,00;;;;;;;;;;;;;;;;;;;;;;;;
;день 7/30;;;;;;;;;;;;;;;;;;;;;;;;;;;;;
;;приём пищи 1;11,00;16,00;2,00;202,00;Омлет яйца целые;;2;;;;;;;;;;;;;;;;;;;;;
;;;4,00;1,00;34,00;175,00;Кукурузная крупа;50;;Овсяная крупа;50;;;;;;;;;;;;;;;;;;;
Со 2 ого приёма вес в готовом виде!!!;;;1,00;0,00;21,00;85,00;Сухофрукт любой;30;;Курага;30;;;;;;;;;;;;;;;;;;;
;;сумма 1;16,00;17,00;57,00;462,00;;;;;;;;;;;;;;;;;;;;;;;;
;;приём пищи 2;;;;;;;;;;;с 7 по 14 день воды не менее 3 лит в день!!!!;;;;;;;;;;;;;;;;;
;;;3,00;1,00;24,00;115,00;Батат запеченный;120;;Картофель запеченный;120;;;;;;;;;;;;;;;;;;;
;;;0,00;0,00;11,00;42,00;Груша;100;;;;;;;;;;;;;;;;;;;;;;
;;;35,00;14,00;0,00;260,00;Филе кролика;160;;Филе говядины;140;;;;;;;;;;;;;;;;;;;
;;;0,00;0,00;4,00;15,00;Салат (любые овощи);;Не ограничено;;;;;;;;;;;;;;;;;;;;;
;;сумма 2;38,00;15,00;39,00;432,00;;;;;;;;;;;;;;;;;;;;;;;;
;;;;;;;;;;;;;;;;;;;;;;;;;;;;;;
;;приём пищи 3;27,00;16,00;0,00;270,00;Скумбрия гриль;140;;Лосось гриль;100;;;;;;;;;;;;;;;;;;;
;;;3,00;0,00;23,00;110,00;Рис белый длинный;100;;;;;;;;;;;;;;;;;;;;;;
;;;0,00;0,00;4,00;15,00;Салат (огурец, пекинская капуста, зелень, болгарский перец) без масла;;Не ограничено;;;;;;;;;;;;;;;;;;;;;
;;сумма 3;30,00;16,00;27,00;395,00;;;;;;;;;;;;;;;;;;;;;;;;
;;;;;;;;;;;;;;;;;;;;;;;;;;;;;;
;;приём пищи 4;37,00;1,00;0,00;200,00;Индейка гриль филе;150;;;;;;;;;;;;;;;;;;;;;;
;;;3,00;1,00;21,00;102,00;Картофель запеченный;120;;;;;;;;;;;;;;;;;;;;;;
;;;2,00;0,00;3,00;20,00;Спаржа + зелень;150;;;;;;;;;;;;;;;;;;;;;;
;;сумма 4;42,00;2,00;24,00;322,00;;;;;;;;;;;;;;;;;;;;;;;;
;;;;;;;;;;;;;;;;;;;;;;;;;;;;;;
;;приём пищи 5;37,00;1,00;0,00;200,00;Индейка гриль филе;150;3;;;;;;;;;;;;;;;;;;;;;
;;;1,00;0,00;8,00;40,00;Киви;80;;;;;;;;;;;;;;;;;;;;;;
;;;2,00;0,00;13,00;65,00;Грейпфрутовый фреш;200;;;;;;;;;;;;;;;;;;;;;;
;;сумма 5;11,00;6,00;13,00;305,00;;;;;;;;;;;;;;;;;;;;;;;;
;;;;;;;;;;;;;;;;;;;;;;;;;;;;;;
;;приём пищи 6;42,00;6,00;0,00;255,00;Окунь морской гриль;220;;Тунец филе;200;;;;;;;;;;;;;;;;;;;
;;;0,00;0,00;4,00;15,00;Зелень (укроп, шпинат, петрушка);;Не ограничено;;;;;;;;;;;;;;;;;;;;;
;;сумма 6;42,00;6,00;4,00;270,00;;;;;;;;;;;;;;;;;;;;;;;;
;день 8/30;;;;;;;;;;;;;;;;;;;;;;;;;;;;;
;;приём пищи 1;6,00;3,00;30,00;175,00;Овсяная крупа;50;;Гречневая крупа;50;;;;;;;;;;;;;;;;;;;
;;;0,00;0,00;11,00;42,00;Груша;100;;;;;;;;;;;;;;;;;;;;;;
;;;4,00;13,00;2,00;120,00;Миндаль;20;;;;;;;;;;;;;;;;;;;;;;
Со 2 ого приёма вес в готовом виде!!!;;;8,00;0,00;0,00;31,00;Омлет яйца только белки;;3;;;;;;;;;;;;;;;;;;;;;
;;сумма 1;18,00;16,00;43,00;368,00;;;;;;;;;;;;;;;;;;;;;;;;
;;;;;;;;;;;;;;;;;;;;;;;;;;;;;;
;;;37,00;1,00;0,00;200,00;Индейка гриль филе;150;;;;;;;;;;;;;;;;;;;;;;
;;;1,00;0,00;25,00;120,00;Рис пропаренный;100;;;;;;;;;;;;;;;;;;;;;;
;;;0,00;0,00;4,00;15,00;Салат (капуста брокколи, зелень, перец зеленый);;Не ограничено;;;;;;;;;;;;;;;;;;;;;
;;;1,00;15,00;5,00;130,00;Авокадо;;1/2 шт.;;;;;;;;;;;;;;;;;;;;;
;;сумма 2;39,00;16,00;34,00;465,00;;;;;;;;;;;;;;;;;;;;;;;;
;;;;;;;;;;;;;;;;;;;;;;;;;;;;;;
;;приём пищи 3;2,00;2,00;21,00;120,00;Гречневая крупа;120;;;;;;;;;;;;;;;;;;;;;;
;;;30,00;1,00;0,00;156,00;Филе индейка;120;;;;;;;;;;;;;;;;;;;;;;
;;;1,00;0,00;12,00;62,00;Яблоко;130;;;;;;;;;;;;;;;;;;;;;;
;;;2,00;10,00;2,00;100,00;Грецкий орех;15;;;;;;;;;;;;;;;;;;;;;;
;;;0,00;0,00;4,00;15,00;Салат (огурец, пекинская капуста, зелень, болгарский перец) без масла;;Не ограничено;;;;;;;;;;;;;;;;;;;;;
;;сумма 3;35,00;13,00;39,00;453,00;;;;;;;;;;;;;;;;;;;;;;;;
;;;;;;;;;;;;;;;;;;;;;;;;;;;;;;
;;приём пищи 4;28,00;5,00;5,00;180,00;Куриное филе на гриле;150;;;;;;;;;;;;;;;;;;;;;;
;;;2,00;1,00;23,00;110,00;Рис коричневый;100;;;;;;;;;;;;;;;;;;;;;;
;;;2,00;6,00;2,00;65,00;Миндаль;10;;;;;;;;;;;;;;;;;;;;;;
;;;2,00;0,00;3,00;20,00;Спаржа + зелень;150;;;;;;;;;;;;;;;;;;;;;;
;;сумма 4;34,00;12,00;33,00;375,00;;;;;;;;;;;;;;;;;;;;;;;;
;;;;;;;;;;;;;;;;;;;;;;;;;;;;;;
;;приём пищи 5;37,00;1,00;0,00;200,00;Индейка гриль филе;150;;;;;;;;;;;;;;;;;;;;;;
;;;1,00;0,00;15,00;70,00;Яблоко;150;;;;;;;;;;;;;;;;;;;;;;
;;;2,00;0,00;3,00;20,00;Спаржа + зелень;150;;;;;;;;;;;;;;;;;;;;;;
;;сумма 5;40,00;1,00;18,00;290,00;;;;;;;;;;;;;;;;;;;;;;;;
;;;;;;;;;;;;;;;;;;;;;;;;;;;;;;
;;приём пищи 6;40,00;2,00;2,00;200,00;Творог зернистый 1%;250;;;;;;;;;;;;;;;;;;;;;;
;;сумма 6;40,00;2,00;2,00;200,00;;;;;;;;;;;;;;;;;;;;;;;;
;день 9/30;;;;;;;;;;;;;;;;;;;;;;;;;;;;;
;;приём пищи 1;3,00;1,00;37,00;170,00;Кукурузные хлопья без сахара;50;;Овсяная крупа;50;;;;;;;;;;;;;;;;;;;
;;;0,00;0,00;11,00;42,00;Груша;100;;;;;;;;;;;;;;;;;;;;;;
;;;1,00;0,00;26,00;100,00;Изюм;40;;;;;;;;;;;;;;;;;;;;;;
Со 2 ого приёма вес в готовом виде!!!;;;7,00;6,00;0,00;90,00;Яйцо вареное;;1;;;;;;;;;;;;;;;;;;;;;
;;сумма 1;11,00;7,00;74,00;402,00;;;;;;;;;;;;;;;;;;;;;;;;
;;;;;;;;;;;;;;;;;;;;;;;;;;;;;;
;;приём пищи 2;3,00;1,00;21,00;102,00;Картофель запеченный;120;;;;;;;;;;;;;;;;;;;;;;
;;;30,00;4,00;4,00;170,00;Филе куриное гриль;150;;;;;;;;;;;;;;;;;;;;;;
;;;2,00;0,00;3,00;20,00;Спаржа (аспарагус);100;;Салат (огурец, пекинская капуста, зелень, болгарский перец) без масла;;Не ограничено;;;;;;;;;;;;;;;;;;
;;;4,00;11,00;3,00;130,00;Миндаль;20;;;;;;;;;;;;;;;;;;;;;;
;;сумма 2;39,00;16,00;31,00;422,00;;;;;;;;;;;;;;;;;;;;;;;;
;;;;;;;;;;;;;;;;;;;;;;;;;;;;;;
;;приём пищи 3;2,00;1,00;23,00;110,00;Рис коричневый;100;;;;;;;;;;;;;;;;;;;;;;
;;;32,00;6,00;6,00;210,00;Куриное филе на гриле;180;;;;;;;;;;;;;;;;;;;;;;
;;;1,00;10,00;3,00;106,00;Авокадо;50;;;;;;;;;;;;;;;;;;;;;;
;;;0,00;0,00;4,00;15,00;Салат (огурец, пекинская капуста, зелень, болгарский перец) без масла;;Не ограничено;Спаржа (аспарагус) гриль;100;;;;;;;;;;;;;;;;;;;
;;сумма 3;35,00;17,00;36,00;441,00;;;;;;;;;;;;;;;;;;;;;;;;
;;;;;;;;;;;;;;;;;;;;;;;;;;;;;;
;;приём пищи 4;37,00;1,00;0,00;200,00;Индейка гриль филе;150;;;;;;;;;;;;;;;;;;;;;;
;;;1,00;0,00;12,00;62,00;Яблоко;130;;;;;;;;;;;;;;;;;;;;;;
;;;3,00;1,00;21,00;100,00;Картофель запеченный;120;;;;;;;;;;;;;;;;;;;;;;
;;;2,00;0,00;3,00;20,00;Спаржа + зелень;150;;;;;;;;;;;;;;;;;;;;;;
;;сумма 4;43,00;2,00;36,00;382,00;;;;;;;;;;;;;;;;;;;;;;;;
;;;;;;;;;;;;;;;;;;;;;;;;;;;;;;
;;приём пищи 5;32,00;4,00;0,00;225,00;Окунь морской гриль;200;;Лосось запеченный;110;;;;;;;;;;;;;;;;;;;
;;;2,00;0,00;16,00;80,00;Киви;150;;;;;;;;;;;;;;;;;;;;;;
;;;0,00;0,00;4,00;15,00;Салат (огурец, пекинская капуста, зелень, болгарский перец) без масла;;Не ограничено;;;;;;;;;;;;;;;;;;;;;
;;сумма 5;34,00;4,00;20,00;320,00;;;;;;;;;;;;;;;;;;;;;;;;
;;;;;;;;;;;;;;;;;;;;;;;;;;;;;;
;;приём пищи 6;40,00;2,00;2,00;200,00;Творог зернистый 1%;250;;;;;;;;;;;;;;;;;;;;;;
;;сумма 6;40,00;2,00;2,00;200,00;;;;;;;;;;;;;;;;;;;;;;;;
;день 10/30;;;;;;;;;;;;;;;;;;;;;;;;;;;;;
;;приём пищи 1;5,00;2,00;24,00;140,00;Овсяная крупа;40;;;;;;;;;;;;;;;;;;;;;;
;;;1,00;0,00;12,00;54,00;Апельсин;150;;;;;;;;;;;;;;;;;;;;;;
;;;1,00;0,00;13,00;50,00;Изюм;20;;;;;;;;;;;;;;;;;;;;;;
Со 2 ого приёма вес в готовом виде!!!;;;11,00;0,00;0,00;35,00;Омлет яйца только белок;;4;;;;;;;;;;;;;;;;;;;;;
;;;4,00;11,00;3,00;130,00;Миндаль;20;;;;;;;;;;;;;;;;;;;;;;
;;сумма 1;22,00;13,00;52,00;409,00;;;;;;;;;;;;;;;;;;;;;;;;
;;;;;;;;;;;;;;;;;;;;;;;;;;;;;;
;;приём пищи 2;2,00;0,00;12,00;60,00;Ячневая крупа;80;;Пшеничная крупа;80;;;;;;;;;;;;;;;;;;;
;;;25,00;16,00;0,00;240,00;Говядина гриль;120;;;;;;;;;;;;;;;;;;;;;;
;;;1,00;0,00;12,00;62,00;Яблоко;130;;;;;;;;;;;;;;;;;;;;;;
;;;0,00;0,00;4,00;15,00;Салат (огурец, пекинская капуста, зелень, болгарский перец) без масла;;Не ограничено;;;;;;;;;;;;;;;;;;;;;
;;сумма 2;28,00;16,00;28,00;377,00;;;;;;;;;;;;;;;;;;;;;;;;
;;;;;;;;;;;;;;;;;;;;;;;;;;;;;;
;;приём пищи 3;;;;;;;;;;;;;;;;;;;;;;;;;;;;
;;;3,00;2,00;23,00;110,00;Гречневая крупа;120;;;;;;;;;;;;;;;;;;;;;;
;;;25,00;16,00;0,00;240,00;Говядина гриль;120;;;;;;;;;;;;;;;;;;;;;;
;;;3,00;7,00;3,00;90,00;Кешью;15;;;;;;;;;;;;;;;;;;;;;;
;;;0,00;0,00;4,00;15,00;Зелень (укроп, шпинат, петрушка);;Не ограничено;;;;;;;;;;;;;;;;;;;;;
;;сумма 3;27,00;18,00;11,00;455,00;;;;;;;;;;;;;;;;;;;;;;;;
;;;;;;;;;;;;;;;;;;;;;;;;;;;;;;
;;приём пищи 4;37,00;1,00;0,00;200,00;Индейка гриль филе;150;;;;;;;;;;;;;;;;;;;;;;
;;;3,00;1,00;21,00;102,00;Картофель запеченный;120;;;;;;;;;;;;;;;;;;;;;;
;;;1,00;10,00;3,00;106,00;Авокадо;;1/2 шт.;;;;;;;;;;;;;;;;;;;;;
;;сумма 4;41,00;12,00;24,00;408,00;;;;;;;;;;;;;;;;;;;;;;;;
;;;;;;;;;;;;;;;;;;;;;;;;;;;;;;
;;приём пищи 5;35,00;5,00;5,00;230,00;Куриное филе на гриле;200;;;;;;;;;;;;;;;;;;;;;;
;;;1,00;0,00;8,00;40,00;Киви;80;;;;;;;;;;;;;;;;;;;;;;
;;;2,00;0,00;3,00;20,00;Спаржа + зелень;150;;;;;;;;;;;;;;;;;;;;;;
;;сумма 5;38,00;5,00;16,00;290,00;;;;;;;;;;;;;;;;;;;;;;;;
;;;;;;;;;;;;;;;;;;;;;;;;;;;;;;
;;приём пищи 6;32,00;11,00;0,00;230,00;Филе трески гриль;130;;Минтай филе гриль;200;;;;;;;;;;;;;;;;;;;
;;;0,00;0,00;4,00;15,00;Салат без масла (огурец, пекинская капуста, зелень);;Не ограничено;;;;;;;;;;;;;;;;;;;;;
;;сумма 6;32,00;11,00;4,00;245,00;;;;;;;;;;;;;;;;;;;;;;;;
;день 11/30;;;;;;;;;;;;;;;;;;;;;;;;;;;;;
;;приём пищи 1;7,00;3,00;35,00;205,00;Овсяная крупа;60;;Гречневая крупа;50;;;;;;;;;;;;;;;;;;;
;;;7,00;6,00;0,00;95,00;Яйцо вареное;;1;;;;;;;;;;;;;;;;;;;;;
Со 2 ого приёма вес в готовом виде!!!;;;0,00;0,00;16,00;63,00;Груша;150;;;;;;;;;;;;;;;;;;;;;;
;;сумма 1;14,00;9,00;51,00;363,00;;;;;;;;;;;;;;;;;;;;;;;;
;;;;;;;;;;;;;;;;;;;;;;;;;;;;;;
;;приём пищи 2;2,00;1,00;17,00;85,00;Батат запеченный;100;;Картофель запеченный;100;;;;;;;;;;;;;;;;;;;
;;;30,00;7,00;0,00;240,00;Форель морская гриль;150;;Скумбрия гриль;120;;;;;;;;;;;;;;;;;;;
;;;4,00;11,00;3,00;130,00;Миндаль;20;;;;;;;;;;;;;;;;;;;;;;
;;;0,00;0,00;4,00;15,00;Салат (капуста брокколи, зелень, перец зеленый);;Не ограничено;;;;;;;;;;;;;;;;;;;;;
;;сумма 2;36,00;19,00;24,00;470,00;;;;;;;;;;;;;;;;;;;;;;;;
;;;;;;;;;;;;;;;;;;;;;;;;;;;;;;
;;приём пищи 3;2,00;0,00;25,00;118,00;Рис пропаренный;100;;;;;;;;;;;;;;;;;;;;;;
;;;38,00;5,00;0,00;225,00;Окунь морской гриль;200;;Лосось;110;;;;;;;;;;;;;;;;;;;
;;;3,00;9,00;2,00;97,00;Миндаль;15;;;;;;;;;;;;;;;;;;;;;;
;;;0,00;0,00;4,00;15,00;Салат без масла (огурец, пекинская капуста, зелень);;Не ограничено;;;;;;;;;;;;;;;;;;;;;
;;сумма 3;43,00;14,00;31,00;455,00;;;;;;;;;;;;;;;;;;;;;;;;
;;;;;;;;;;;;;;;;;;;;;;;;;;;;;;
;;приём пищи 4;37,00;1,00;0,00;200,00;Индейка гриль филе;150;;;;;;;;;;;;;;;;;;;;;;
;;;3,00;1,00;21,00;102,00;Картофель запеченный;120;;;;;;;;;;;;;;;;;;;;;;
;;;1,00;0,00;15,00;70,00;Яблоко;150;;;;;;;;;;;;;;;;;;;;;;
;;;2,00;0,00;3,00;20,00;Спаржа + зелень;150;;;;;;;;;;;;;;;;;;;;;;
;;сумма 4;43,00;2,00;39,00;392,00;;;;;;;;;;;;;;;;;;;;;;;;
;;;;;;;;;;;;;;;;;;;;;;;;;;;;;;
;;приём пищи 5;35,00;5,00;5,00;230,00;Куриное филе на гриле;200;;;;;;;;;;;;;;;;;;;;;;
;;;1,00;0,00;8,00;40,00;Киви;80;;;;;;;;;;;;;;;;;;;;;;
;;;0,00;0,00;4,00;15,00;Зелень (укроп, шпинат, петрушка);;Не ограничено;;;;;;;;;;;;;;;;;;;;;
;;сумма 5;36,00;5,00;17,00;285,00;;;;;;;;;;;;;;;;;;;;;;;;
;;;;;;;;;;;;;;;;;;;;;;;;;;;;;;
;;приём пищи 6;40,00;2,00;0,00;185,00;Тунец филе;180;;;;;;;;;;;;;;;;;;;;;;
;;;2,00;0,00;3,00;20,00;Спаржа (аспарагус);100;;Зелень (укроп, шпинат, петрушка);;Не ограничено;;;;;;;;;;;;;;;;;;
;;сумма 6;42,00;2,00;3,00;205,00;;;;;;;;;;;;;;;;;;;;;;;;
;;;;;;;;;;;;;;;;;;;;;;;;;;;;;;
;день 12/30;;;;;;;;;;;;;;;;;;;;;;;;;;;;;
;;приём пищи 1;5,00;2,00;28,00;170,00;Овсяная крупа;50;;Гречневая крупа;50;;;;;;;;;;;;;;;;;;;
;;;11,00;0,00;0,00;42,00;Омлет только белок;;4;;;;;;;;;;;;;;;;;;;;;
;;;4,00;7,00;3,00;90,00;Паста ореховая микс;;1 ч.л.;Арахисовая паста;;1 ч.л.;;;;;;;;;;;;;;;;;;
Со 2 ого приёма вес в готовом виде!!!;;;1,00;0,00;17,00;102,00;Манго;150;;Яблоко;150;;;;;;;;;;;;;;;;;;;
;;сумма 1;21,00;9,00;48,00;404,00;;;;;;;;;;;;;;;;;;;;;;;;
;;;;;;;;;;;;;;;;;;;;;;;;;;;;;;
;;приём пищи 2;3,00;1,00;17,00;90,00;Гречневая крупа;100;;Батат запеченный;100;;;;;;;;;;;;;;;;;;;
;;;35,00;1,00;0,00;180,00;Филе индейки гриль;140;;;;;;;;;;;;;;;;;;;;;;
;;;0,00;0,00;11,00;42,00;Груша;100;;;;;;;;;;;;;;;;;;;;;;
;;;3,00;9,00;2,00;97,00;Миндаль;15;;;;;;;;;;;;;;;;;;;;;;
;;;0,00;0,00;4,00;15,00;Салат без масла (огурец, пекинская капуста, зелень);;Не ограничено;;;;;;;;;;;;;;;;;;;;;
;;сумма 2;41,00;11,00;34,00;424,00;;;;;;;;;;;;;;;;;;;;;;;;
;;;;;;;;;;;;;;;;;;;;;;;;;;;;;;
;;приём пищи 3;2,00;0,00;25,00;118,00;Рис пропаренный;100;;Гречневая крупа;100;;;;;;;;;;;;;;;;;;;
;;;33,00;10,00;0,00;230,00;Говядина гриль;130;;;;;;;;;;;;;;;;;;;;;;
;;;2,00;0,00;16,00;80,00;Киви;150;;;;;;;;;;;;;;;;;;;;;;
;;;0,00;0,00;4,00;15,00;Салат (огурец, пекинская капуста, зелень, болгарский перец);;Не ограничено;;;;;;;;;;;;;;;;;;;;;
;;сумма 3;37,00;10,00;45,00;443,00;;;;;;;;;;;;;;;;;;;;;;;;
;;;;;;;;;;;;;;;;;;;;;;;;;;;;;;
;;приём пищи 4;38,00;5,00;0,00;230,00;Окунь морской гриль;200;;Лосось запеченный;110;;;;;;;;;;;;;;;;;;;
;;;1,00;0,00;15,00;70,00;Яблоко;150;;;;;;;;;;;;;;;;;;;;;;
;;;1,00;0,00;13,00;60,00;Рис коричневый;50;;;;;;;;;;;;;;;;;;;;;;
;;;0,00;0,00;4,00;15,00;Зелень (укроп, шпинат, петрушка);;Не ограничено;;;;;;;;;;;;;;;;;;;;;
;;сумма 4;40,00;5,00;32,00;375,00;;;;;;;;;;;;;;;;;;;;;;;;
;;;;;;;;;;;;;;;;;;;;;;;;;;;;;;
;;приём пищи 5;35,00;5,00;5,00;230,00;Куриное филе на гриле;200;;;;;;;;;;;;;;;;;;;;;;
;;;2,00;6,00;2,00;65,00;Миндаль;10;;;;;;;;;;;;;;;;;;;;;;
;;;2,00;0,00;3,00;20,00;Спаржа + зелень;150;;;;;;;;;;;;;;;;;;;;;;
;;сумма 5;39,00;11,00;10,00;315,00;;;;;;;;;;;;;;;;;;;;;;;;
;;;;;;;;;;;;;;;;;;;;;;;;;;;;;;
;;приём пищи 6;29,00;3,00;3,00;210,00;Творог нежирный 1%;250;;;;;;;;;;;;;;;;;;;;;;
;;сумма 6;29,00;3,00;3,00;210,00;;;;;;;;;;;;;;;;;;;;;;;;
;день 13/30;;;;;;;;;;;;;;;;;;;;;;;;;;;;;
;;приём пищи 1;3,00;1,00;31,00;144,00;Кукурузные хлопья без сахара;40;;Овсяные хлопья;35;;;;;;;;;;;;;;;;;;;
;;;7,00;6,00;0,00;95,00;Яйцо вареное;;1;;;;;;;;;;;;;;;;;;;;;
;;;2,00;0,00;16,00;80,00;Киви;150;;;;;;;;;;;;;;;;;;;;;;
Со 2 ого приёма вес в готовом виде!!!;;;0,00;0,00;8,00;35,00;Инжир сушеный;50;;Финик;30;;;;;;;;;;;;;;;;;;;
;;сумма 1;12,00;7,00;55,00;354,00;;;;;;;;;;;;;;;;;;;;;;;;
;;;;;;;;;;;;;;;;;;;;;;;;;;;;;;
;;приём пищи 2;2,00;2,00;17,00;140,00;Картофель запеченный;110;;Батат запеченный;100;;;;;;;;;;;;;;;;;;;
;;;39,00;12,00;0,00;270,00;Говядина гриль;150;;;;;;;;;;;;;;;;;;;;;;
;;;0,00;0,00;11,00;42,00;Груша;100;;;;;;;;;;;;;;;;;;;;;;
;;;0,00;0,00;4,00;15,00;Овощи (зелень, огурец, брокколи);;Не ограничено;;;;;;;;;;;;;;;;;;;;;
;;сумма 2;41,00;14,00;32,00;467,00;;;;;;;;;;;;;;;;;;;;;;;;
;;;;;;;;;;;;;;;;;;;;;;;;;;;;;;
;;приём пищи 3;2,00;2,00;11,00;80,00;Гречневая крупа;100;;;;;;;;;;;;;;;;;;;;;;
;;;33,00;12,00;0,00;250,00;Кролик филе гриль;140;;Филе индейки гриль;120;;;;;;;;;;;;;;;;;;;
;;;2,00;10,00;2,00;100,00;Грецкий орех;15;;;;;;;;;;;;;;;;;;;;;;
;;;0,00;0,00;4,00;15,00;Салат (капуста брокколи, зелень, перец зеленый);;Не ограничено;;;;;;;;;;;;;;;;;;;;;
;;сумма 3;37,00;24,00;17,00;445,00;;;;;;;;;;;;;;;;;;;;;;;;
;;;;;;;;;;;;;;;;;;;;;;;;;;;;;;
;;приём пищи 4;38,00;5,00;0,00;225,00;Окунь морской гриль;200;;Лосось запеченный;110;;;;;;;;;;;;;;;;;;;
;;;2,00;1,00;23,00;110,00;Рис коричневый;100;;;;;;;;;;;;;;;;;;;;;;
;;;2,00;6,00;2,00;65,00;Миндаль;10;;;;;;;;;;;;;;;;;;;;;;
;;;0,00;0,00;4,00;15,00;Зелень (укроп, шпинат, петрушка);;Не ограничено;;;;;;;;;;;;;;;;;;;;;
;;сумма 4;42,00;12,00;29,00;415,00;;;;;;;;;;;;;;;;;;;;;;;;
;;;;;;;;;;;;;;;;;;;;;;;;;;;;;;
;;приём пищи 5;37,00;1,00;0,00;200,00;Индейка гриль филе;150;;;;;;;;;;;;;;;;;;;;;;
;;;1,00;0,00;15,00;70,00;Яблоко;150;;;;;;;;;;;;;;;;;;;;;;
;;;2,00;0,00;3,00;20,00;Спаржа + зелень;150;;;;;;;;;;;;;;;;;;;;;;
;;сумма 5;40,00;1,00;18,00;290,00;;;;;;;;;;;;;;;;;;;;;;;;
;;;;;;;;;;;;;;;;;;;;;;;;;;;;;;
;;приём пищи 6;40,00;3,00;2,00;200,00;Творог зернистый 1%;250;;;;;;;;;;;;;;;;;;;;;;
;;сумма 6;40,00;3,00;2,00;200,00;;;;;;;;;;;;;;;;;;;;;;;;
;день 14/30;;;;;;;;;;;;;;;;;;;;;;;;;;;;;
;;приём пищи 1;7,00;3,00;35,00;205,00;Овсяная крупа;60;;Гречневая крупа;60;;;;;;;;;;;;;;;;;;;
;;;7,00;3,00;17,00;130,00;Йогурт 1% без добавок;200;;;;;;;;;;;;;;;;;;;;;;
;;;2,00;6,00;2,00;65,00;Миндаль;10;;;;;;;;;;;;;;;;;;;;;;
Со 2 ого приёма вес в готовом виде!!!;;;1,00;0,00;12,00;55,00;Апельсин;150;;;;;;;;;;;;;;;;;;;;;;
;;сумма 1;17,00;12,00;66,00;455,00;;;;;;;;;;;;;;;;;;;;;;;;
;;;;;;;;;;;;;;;;;;;;;;;;;;;;;;
;;приём пищи 2;2,00;1,00;23,00;110,00;Рис коричневый;100;;Картофель запеченный;80;;;;;;;;;;;;;;;;;;;
;;;37,00;1,00;0,00;200,00;Индейка гриль филе;150;;;;;;;;;;;;;;;;;;;;;;
;;;0,00;0,00;4,00;15,00;Салат (огурец, пекинская капуста, зелень, болгарский перец);;Не ограничено;;;;;;;;;;;;;;;;;;;;;
;;;5,00;8,00;5,00;95,00;Паста миндальная;;1 ч.л.;Арахисовая паста;;1 ч.л.;;;;;;;;;;;;;;;;;;
;;сумма 2;44,00;10,00;32,00;420,00;;;;;;;;;;;;;;;;;;;;;;;;
;;;;;;;;;;;;;;;;;;;;;;;;;;;;;;
;;приём пищи 3;37,00;1,00;0,00;200,00;Индейка гриль филе;150;;;;;;;;;;;;;;;;;;;;;;
;;;2,00;0,00;25,00;118,00;Рис пропаренный;100;;;;;;;;;;;;;;;;;;;;;;
;;;3,00;7,00;3,00;90,00;Кешью;15;;;;;;;;;;;;;;;;;;;;;;
;;;0,00;0,00;4,00;15,00;Салат без масла (огурец, пекинская капуста, зелень);;Не ограничено;Зелень (укроп, шпинат, петрушка);;Не ограничено;;;;;;;;;;;;;;;;;;
;;сумма 3;42,00;8,00;32,00;423,00;;;;;;;;;;;;;;;;;;;;;;;;
;;;;;;;;;;;;;;;;;;;;;;;;;;;;;;
;;;;;;;;;;;;;;;;;;;;;;;;;;;;;;
;;приём пищи 4;28,00;5,00;4,00;165,00;Куриное филе на гриле;140;;;;;;;;;;;;;;;;;;;;;;
;;;3,00;1,00;21,00;102,00;Картофель запеченный;120;;;;;;;;;;;;;;;;;;;;;;
;;;1,00;10,00;3,00;106,00;Авокадо;;1/2 шт.;;;;;;;;;;;;;;;;;;;;;
;;;2,00;0,00;3,00;20,00;Спаржа + зелень;150;;;;;;;;;;;;;;;;;;;;;;
;;сумма 4;34,00;16,00;31,00;393,00;;;;;;;;;;;;;;;;;;;;;;;;
;;;;;;;;;;;;;;;;;;;;;;;;;;;;;;
;;приём пищи 5;9,00;6,00;0,00;130,00;Омлет (без масла) 1 желток + 3 белка;120;3;;;;;;;;;;;;;;;;;;;;;
;;;2,00;6,00;2,00;65,00;Грецкий орех;10;;;;;;;;;;;;;;;;;;;;;;
;;;2,00;0,00;13,00;65,00;Грейпфрутовый фреш;200;;;;;;;;;;;;;;;;;;;;;;
;;сумма 5;11,00;6,00;13,00;260,00;;;;;;;;;;;;;;;;;;;;;;;;
;;;;;;;;;;;;;;;;;;;;;;;;;;;;;;
;;приём пищи 6;38,00;5,00;0,00;210,00;Дорадо гриль;200;;Сибас гриль;200;;;;;;;;;;;;;;;;;;;
;;;0,00;0,00;4,00;15,00;Зелень (укроп, шпинат, петрушка);;Не ограничено;Салат (капуста брокколи, зелень, перец зеленый);;Не ограничено;;;;;;;;;;;;;;;;;;
;;сумма 6;38,00;5,00;4,00;225,00;;;;;;;;;;;;;;;;;;;;;;;;
;день 15/30;;;;;;;;;;;;;;;;;;;;;;;;;;;;;
;;приём пищи 1;6,00;1,00;31,00;160,00;Гречневая крупа;50;;Кукурузная крупа;40;;;;;;;;;;;;;;;;;;;
;;;13,00;6,00;0,00;110,00;Омлет яйца только 1шт желтка;;3;;;;;;;;;;;;;;;;;;;;;
;;;1,00;0,00;15,00;70,00;Яблоко;150;;;;;;;;;;;;;;;;;;;;;;
Со 2 ого приёма вес в готовом виде!!!;;;2,00;0,00;16,00;75,00;Фреш апельсиновый;200;;;;;;;;;;;;;;;;;;;;;;
;;сумма 1;22,00;7,00;62,00;415,00;;;;;;;;;;;;;;;;;;;;;;;;
;;;;;;;;;;;;;;;;;;;;;;;;;;;;;;
;;приём пищи 2;2,00;0,00;25,00;118,00;Рис жасмин;100;;;;;;;;;;;;;;;;;;;;;;
;;;39,00;12,00;0,00;270,00;Говядина гриль;150;;;;;с 15 по 30 день воды не менее 3,3 лит в день!!!!;;;;;;;;;;;;;;;;;
;;;0,00;0,00;4,00;15,00;Салат (капуста брокколи, зелень, перец зеленый);;Не ограничено;;;;;;;;;;;;;;;;;;;;;
;;сумма 2;41,00;12,00;29,00;403,00;;;;;;;;;;;;;;;;;;;;;;;;
;;;;;;;;;;;;;;;;;;;;;;;;;;;;;;
;;приём пищи 3;1,00;0,00;25,00;120,00;Рис пропаренный;100;;Гречневая крупа;80;;;;;;;;;;;;;;;;;;;
;;;39,00;12,00;0,00;270,00;Говядина гриль;150;;;;;;;;;;;;;;;;;;;;;;
;;;0,00;0,00;4,00;15,00;Салат (огурец, пекинская капуста, зелень, болгарский перец);;Не ограничено;;;;;;;;;;;;;;;;;;;;;
;;сумма 3;40,00;12,00;29,00;405,00;;;;;;;;;;;;;;;;;;;;;;;;
;;;;;;;;;;;;;;;;;;;;;;;;;;;;;;
;;;;;;;;;;;;;;;;;;;;;;;;;;;;;;
;;приём пищи 4;37,00;1,00;0,00;200,00;Индейка гриль филе;150;;;;;;;;;;;;;;;;;;;;;;
;;;3,00;1,00;21,00;102,00;Картофель запеченный;120;;;;;;;;;;;;;;;;;;;;;;
;;;2,00;0,00;16,00;80,00;Киви;150;;;;;;;;;;;;;;;;;;;;;;
;;;0,00;0,00;4,00;15,00;Зелень (укроп, шпинат, петрушка);;Не ограничено;;;;;;;;;;;;;;;;;;;;;
;;сумма 4;42,00;2,00;41,00;397,00;;;;;;;;;;;;;;;;;;;;;;;;
;;;;;;;;;;;;;;;;;;;;;;;;;;;;;;
;;приём пищи 5;35,00;5,00;5,00;230,00;Куриное филе на гриле;200;;;;;;;;;;;;;;;;;;;;;;
;;;3,00;2,00;17,00;90,00;Гречневая крупа;100;;;;;;;;;;;;;;;;;;;;;;
;;;2,00;0,00;3,00;20,00;Спаржа + зелень;150;;;;;;;;;;;;;;;;;;;;;;
;;сумма 5;40,00;7,00;25,00;340,00;;;;;;;;;;;;;;;;;;;;;;;;
;;;;;;;;;;;;;;;;;;;;;;;;;;;;;;
;;приём пищи 6;28,00;9,00;0,00;200,00;Хек филе;220;;Минтай филе;220;;;;;;;;;;;;;;;;;;;
;;;0,00;0,00;4,00;15,00;Зелень (укроп, шпинат, петрушка);;Не ограничено;Салат без масла (огурец, пекинская капуста, зелень);;Не ограничено;;;;;;;;;;;;;;;;;;
;;сумма 6;28,00;9,00;4,00;215,00;;;;;;;;;;;;;;;;;;;;;;;;
;день 16/30;;;;;;;;;;;;;;;;;;;;;;;;;;;;;
;;приём пищи 1;6,00;1,00;31,00;160,00;Гречневая крупа;50;;Овсяная крупа;50;;;;;;;;;;;;;;;;;;;
;;;7,00;6,00;0,00;87,00;Вареное яйцо;;1;;;;;;;;;;;;;;;;;;;;;
Со 2 ого приёма вес в готовом виде!!!;;;0,00;0,00;15,00;70,00;Яблоко;150;;Манго;150;;;;;;;;;;;;;;;;;;;
;;;1,00;0,00;26,00;100,00;Изюм;40;;;;;;;;;;;;;;;;;;;;;;
;;сумма 1;14,00;7,00;72,00;417,00;;;;;;;;;;;;;;;;;;;;;;;;
;;;;;;;;;;;;;;;;;;;;;;;;;;;;;;
;;приём пищи 2;33,00;10,00;0,00;230,00;Говядина гриль;130;;;;;;;;;;;;;;;;;;;;;;
;;;2,00;1,00;23,00;110,00;Рис коричневый;100;;;;;;;;;;;;;;;;;;;;;;
;;;2,00;0,00;16,00;80,00;Киви;150;;;;;;;;;;;;;;;;;;;;;;
;;;0,00;0,00;4,00;15,00;Салат (огурец, пекинская капуста, зелень, болгарский перец);;Не ограничено;;;;;;;;;;;;;;;;;;;;;
;;сумма 2;37,00;11,00;43,00;435,00;;;;;;;;;;;;;;;;;;;;;;;;
;;;;;;;;;;;;;;;;;;;;;;;;;;;;;;
;;приём пищи 3;39,00;12,00;0,00;270,00;Говядина гриль;150;;Кролик филе гриль;120;;;;;;;;;;;;;;;;;;;
;;;0,00;0,00;15,00;72,00;Груша;150;;;;;;;;;;;;;;;;;;;;;;
;;;3,00;1,00;21,00;102,00;Картофель запеченный с травами;120;;;;;;;;;;;;;;;;;;;;;;
;;;0,00;0,00;4,00;15,00;Салат без масла (огурец, пекинская капуста, зелень);;Не ограничено;;;;;;;;;;;;;;;;;;;;;
;;сумма 3;42,00;13,00;40,00;459,00;;;;;;;;;;;;;;;;;;;;;;;;
;;;;;;;;;;;;;;;;;;;;;;;;;;;;;;
;;;;;;;;;;;;;;;;;;;;;;;;;;;;;;
;;приём пищи 4;38,00;5,00;0,00;225,00;Окунь морской гриль;200;;Лосось запеченный;110;;;;;;;;;;;;;;;;;;;
;;;2,00;1,00;23,00;110,00;Рис коричневый отварной;100;;;;;;;;;;;;;;;;;;;;;;
;;;1,00;0,00;15,00;70,00;Яблоко;150;;;;;;;;;;;;;;;;;;;;;;
;;;0,00;0,00;4,00;15,00;Зелень + огурец;;Не ограничено;;;;;;;;;;;;;;;;;;;;;
;;сумма 4;41,00;6,00;42,00;420,00;;;;;;;;;;;;;;;;;;;;;;;;
;;;;;;;;;;;;;;;;;;;;;;;;;;;;;;
;;приём пищи 5;37,00;1,00;0,00;200,00;Индейка гриль филе;150;;;;;;;;;;;;;;;;;;;;;;
;;;1,00;0,00;10,00;45,00;Грейпфрут;150;;;;;;;;;;;;;;;;;;;;;;
;;;2,00;0,00;3,00;20,00;Спаржа + зелень;150;;;;;;;;;;;;;;;;;;;;;;
;;сумма 5;40,00;1,00;13,00;265,00;;;;;;;;;;;;;;;;;;;;;;;;
;;;;;;;;;;;;;;;;;;;;;;;;;;;;;;
;;приём пищи 6;11,00;4,00;27,00;195,00;Йогурт 1% без добавок;300;;;;;;;;;;;;;;;;;;;;;;
;;сумма 6;11,00;4,00;27,00;195,00;;;;;;;;;;;;;;;;;;;;;;;;
;день 17/30;;;;;;;;;;;;;;;;;;;;;;;;;;;;;
;;приём пищи 1;7,00;3,00;35,00;205,00;Овсяная крупа;60;;Гречневая крупа;60;;;;;;;;;;;;;;;;;;;
;;;7,00;6,00;0,00;87,00;Вареное яйцо;;1;;;;;;;;;;;;;;;;;;;;;
;;;0,00;0,00;16,00;63,00;Груша;150;;;;;;;;;;;;;;;;;;;;;;
;;сумма 1;14,00;9,00;51,00;355,00;;;;;;;;;;;;;;;;;;;;;;;;
;;;;;;;;;;;;;;;;;;;;;;;;;;;;;;
;;приём пищи 2;37,00;1,00;0,00;200,00;Индейка гриль филе;150;;;;;;;;;;;;;;;;;;;;;;
;;;2,00;1,00;23,00;110,00;Рис коричневый;100;;Батат запеченный;100;;;;;;;;;;;;;;;;;;;
;;;1,00;10,00;3,00;103,00;Авокадо;;1/2 шт.;;;;;;;;;;;;;;;;;;;;;
;;;0,00;0,00;4,00;15,00;Салат (огурец, пекинская капуста, зелень, болгарский перец);;Не ограничено;;;;;;;;;;;;;;;;;;;;;
;;сумма 2;40,00;12,00;30,00;428,00;;;;;;;;;;;;;;;;;;;;;;;;
;;;;;;;;;;;;;;;;;;;;;;;;;;;;;;
;;приём пищи 3;2,00;0,00;16,00;80,00;Крупа ячневая;100;;Крупа гречневая;80;;;;;;;;;;;;;;;;;;;
;;;28,00;2,00;0,00;155,00;Филе куриное гриль;150;;;;;;;;;;;;;;;;;;;;;;
;;;5,00;8,00;5,00;95,00;Паста миндальная;;1 ч.л.;Арахисовая паста;;1 ч.л.;;;;;;;;;;;;;;;;;;
;;;2,00;0,00;16,00;80,00;Киви;150;;;;;;;;;;;;;;;;;;;;;;
;;;0,00;0,00;4,00;15,00;Салат без масла (огурец, пекинская капуста, зелень);;Не ограничено;Спаржа аспарагус гриль;100;;;;;;;;;;;;;;;;;;;
;;сумма 3;37,00;10,00;41,00;425,00;;;;;;;;;;;;;;;;;;;;;;;;
;;;;;;;;;;;;;;;;;;;;;;;;;;;;;;
;;;;;;;;;;;;;;;;;;;;;;;;;;;;;;
;;приём пищи 4;38,00;5,00;0,00;225,00;Окунь морской гриль;200;;Лосось гриль;110;;;;;;;;;;;;;;;;;;;
;;;2,00;1,00;23,00;110,00;Рис коричневый;100;;;;;;;;;;;;;;;;;;;;;;
;;;1,00;0,00;15,00;70,00;Яблоко;150;;;;;;;;;;;;;;;;;;;;;;
;;;2,00;0,00;3,00;20,00;Спаржа + зелень;150;;;;;;;;;;;;;;;;;;;;;;
;;сумма 4;43,00;6,00;41,00;425,00;;;;;;;;;;;;;;;;;;;;;;;;
;;;;;;;;;;;;;;;;;;;;;;;;;;;;;;
;;приём пищи 5;37,00;1,00;0,00;200,00;Индейка гриль филе;150;;;;;;;;;;;;;;;;;;;;;;
;;;2,00;10,00;2,00;100,00;Грецкий орех;15;;;;;;;;;;;;;;;;;;;;;;
;;;2,00;0,00;3,00;20,00;Зелень (укроп, шпинат, петрушка);150;;;;;;;;;;;;;;;;;;;;;;
;;сумма 5;34,00;1,00;3,00;320,00;;;;;;;;;;;;;;;;;;;;;;;;
;;;  ;;;;;;;;;;;;;;;;;;;;;;;;;;;
;;приём пищи 6;38,00;5,00;2,00;210,00;Тилапия;200;;;;;;;;;;;;;;;;;;;;;;
;;;0,00;0,00;4,00;15,00;Салат (огурец, пекинская капуста, зелень, болгарский перец);;Не ограничено;;;;;;;;;;;;;;;;;;;;;
;;сумма 6;38,00;5,00;6,00;225,00;;;;;;;;;;;;;;;;;;;;;;;;
;день 18/30;;;;;;;;;;;;;;;;;;;;;;;;;;;;;
;;приём пищи 1;3,00;1,00;35,00;175,00;Кукурузная крупа;50;;Овсяная крупа;50;;;;;;;;;;;;;;;;;;;
Со 2 ого приёма вес в готовом виде!!!;;;7,00;6,00;0,00;87,00;Вареное яйцо;;1;;;;;;;;;;;;;;;;;;;;;
;;;1,00;0,00;8,00;40,00;Киви;80;;;;;;;;;;;;;;;;;;;;;;
;;;2,00;0,00;16,00;75,00;Фреш апельсиновый;200;;;;;;;;;;;;;;;;;;;;;;
;;сумма 1;13,00;7,00;59,00;377,00;;;;;;;;;;;;;;;;;;;;;;;;
;;;;;;;;;;;;;;;;;;;;;;;;;;;;;;
;;приём пищи 2;2,00;0,00;29,00;128,00;Рис пропаренный;110;;;;;;;;;;;;;;;;;;;;;;
;;;37,00;1,00;0,00;200,00;Индейка гриль филе;150;;Куриное филе гриль;190;;;;;;;;;;;;;;;;;;;
;;;3,00;9,00;2,00;97,00;Миндаль;15;;;;;;;;;;;;;;;;;;;;;;
;;;0,00;0,00;4,00;15,00;Салат (огурец, пекинская капуста, зелень, болгарский перец);;Не ограничено;;;;;;;;;;;;;;;;;;;;;
;;сумма 2;42,00;10,00;35,00;440,00;;;;;;;;;;;;;;;;;;;;;;;;
;;;;;;;;;;;;;;;;;;;;;;;;;;;;;;
;;приём пищи 3;20,00;21,00;0,00;285,00;Лосось стейк;100;;Форель стейк;100;;;;;;;;;;;;;;;;;;;
;;;1,00;0,00;25,00;120,00;Рис пропаренный;100;;;;;;;;;;;;;;;;;;;;;;
;;;0,00;0,00;4,00;15,00;Салат без масла (огурец, пекинская капуста, зелень);;Не ограничено;;;;;;;;;;;;;;;;;;;;;
;;сумма 3;21,00;21,00;29,00;420,00;;;;;;;;;;;;;;;;;;;;;;;;
;;;;;;;;;;;;;;;;;;;;;;;;;;;;;;
;;;;;;;;;;;;;;;;;;;;;;;;;;;;;;
;;приём пищи 4;37,00;1,00;0,00;200,00;Индейка гриль филе;150;;;;;;;;;;;;;;;;;;;;;;
;;;3,00;7,00;3,00;90,00;Кешью;15;;;;;;;;;;;;;;;;;;;;;;
;;;1,00;0,00;12,00;62,00;Яблоко;130;;;;;;;;;;;;;;;;;;;;;;
;;;2,00;0,00;3,00;20,00;Спаржа + зелень;150;;;;;;;;;;;;;;;;;;;;;;
;;сумма 4;43,00;8,00;18,00;372,00;;;;;;;;;;;;;;;;;;;;;;;;
;;;;;;;;;;;;;;;;;;;;;;;;;;;;;;
;;приём пищи 5;35,00;5,00;5,00;230,00;Куриное филе на гриле;200;;;;;;;;;;;;;;;;;;;;;;
;;;0,00;0,00;15,00;70,00;Груша;150;;;;;;;;;;;;;;;;;;;;;;
;;;2,00;0,00;3,00;20,00;Спаржа + зелень;150;;;;;;;;;;;;;;;;;;;;;;
;;сумма 5;37,00;5,00;23,00;320,00;;;;;;;;;;;;;;;;;;;;;;;;
;;;;;;;;;;;;;;;;;;;;;;;;;;;;;;
;;приём пищи 6;24,00;16,00;0,00;220,00;Скумбрия гриль;120;;Угорь морской запеченный;150;;;;;;;;;;;;;;;;;;;
;;;2,00;0,00;3,00;20,00;Аспарагус спаржа гриль;100;;;;;;;;;;;;;;;;;;;;;;
;;сумма 6;26,00;16,00;3,00;240,00;;;;;;;;;;;;;;;;;;;;;;;;
;день 19/30;;;;;;;;;;;;;;;;;;;;;;;;;;;;;
;;приём пищи 1;3,00;1,00;31,00;140,00;Кукурузные хлопья без сахара;40;;;;;;;;;;;;;;;;;;;;;;
;;;1,00;0,00;26,00;100,00;Изюм;40;;;;;;;;;;;;;;;;;;;;;;
;;;1,00;0,00;15,00;72,00;Яблоко;150;;;;;;;;;;;;;;;;;;;;;;
;;;8,00;0,00;0,00;32,00;Омлет яйца белок;;3;;;;;;;;;;;;;;;;;;;;;
;;сумма 1;13,00;1,00;72,00;344,00;;;;;;;;;;;;;;;;;;;;;;;;
;;;;;;;;;;;;;;;;;;;;;;;;;;;;;;
;;приём пищи 2;2,00;2,00;17,00;140,00;Картофель запеченный;110;;Батат запеченный;110;;;;;;;;;;;;;;;;;;;
;;;37,00;1,00;0,00;200,00;Индейка гриль филе;150;;;;;;;;;;;;;;;;;;;;;;
;;;0,00;0,00;4,00;15,00;Салат (огурец, пекинская капуста, зелень, болгарский перец);;Не ограничено;;;;;;;;;;;;;;;;;;;;;
;;;0,00;10,00;0,00;90,00;Тыквенное масло;;1 ст.л.;;;;;;;;;;;;;;;;;;;;;
;;сумма 2;39,00;13,00;21,00;445,00;;;;;;;;;;;;;;;;;;;;;;;;
;;;;;;;;;;;;;;;;;;;;;;;;;;;;;;
;;приём пищи 3;;;;;;;;;;;;;;;;;;;;;;;;;;;;
;;;20,00;21,00;0,00;285,00;Лосось стейк;100;;;;;;;;;;;;;;;;;;;;;;
;;;1,00;0,00;8,00;40,00;Киви;80;;;;;;;;;;;;;;;;;;;;;;
;;;1,00;0,00;25,00;120,00;Рис пропаренный;100;;;;;;;;;;;;;;;;;;;;;;
;;;0,00;0,00;4,00;15,00;Салат без масла (огурец, пекинская капуста, зелень);;Не ограничено;;;;;;;;;;;;;;;;;;;;;
;;сумма 3;22,00;21,00;37,00;460,00;;;;;;;;;;;;;;;;;;;;;;;;
;;;;;;;;;;;;;;;;;;;;;;;;;;;;;;
;;приём пищи 4;32,00;6,00;6,00;210,00;Куриное филе на гриле;180;;;;;;;;;;;;;;;;;;;;;;
;;;1,00;0,00;12,00;62,00;Яблоко;130;;;;;;;;;;;;;;;;;;;;;;
;;;1,00;0,00;8,00;40,00;Киви;80;;;;;;;;;;;;;;;;;;;;;;
;;;2,00;1,00;13,00;65,00;Картофель запеченный;75;;;;;;;;;;;;;;;;;;;;;;
;;;2,00;0,00;3,00;20,00;Спаржа + зелень;150;;;;;;;;;;;;;;;;;;;;;;
;;сумма 4;38,00;7,00;42,00;397,00;;;;;;;;;;;;;;;;;;;;;;;;
;;;;;;;;;;;;;;;;;;;;;;;;;;;;;;
;;приём пищи 5;9,00;6,00;0,00;130,00;Омлет (без масла) 1 желток + 3 белка;120;3;;;;;;;;;;;;;;;;;;;;;
;;;2,00;6,00;2,00;65,00;Миндаль;10;;;;;;;;;;;;;;;;;;;;;;
;;;2,00;0,00;13,00;65,00;Грейпфрутовый фреш;200;;;;;;;;;;;;;;;;;;;;;;
;;сумма 5;13,00;12,00;15,00;260,00;;;;;;;;;;;;;;;;;;;;;;;;
;;;;;;;;;;;;;;;;;;;;;;;;;;;;;;
;;приём пищи 6;29,00;6,00;0,00;220,00;Форель морская стейк;140;;Скумбрия гриль;120;;;;;;;;;;;;;;;;;;;
;;;2,00;0,00;3,00;20,00;Аспарагус спаржа;100;;Зелень (укроп, шпинат, петрушка);;Не ограничено;;;;;;;;;;;;;;;;;;
;;сумма 6;31,00;6,00;3,00;240,00;;;;;;;;;;;;;;;;;;;;;;;;
;день 20/30;;;;;;;;;;;;;;;;;;;;;;;;;;;;;
;;приём пищи 1;7,00;3,00;35,00;205,00;Овсяная крупа;60;;Гречневая крупа;60;;;;;;;;;;;;;;;;;;;
;;;2,00;6,00;2,00;65,00;Миндаль;10;;;;;;;;;;;;;;;;;;;;;;
;;;7,00;3,00;18,00;95,00;Йогурт 1% без добавок;200;;;;;;;;;;;;;;;;;;;;;;
;;сумма 1;16,00;12,00;55,00;365,00;;;;;;;;;;;;;;;;;;;;;;;;
;;;;;;;;;;;;;;;;;;;;;;;;;;;;;;
;;приём пищи 2;2,00;0,00;20,00;130,00;Батат запеченный;100;;Картофель запеченный;100;;;;;;;;;;;;;;;;;;;
;;;32,00;6,00;6,00;210,00;Куриное филе на гриле;180;;;;;;;;;;;;;;;;;;;;;;
;;;0,00;0,00;4,00;15,00;Салат (капуста брокколи, зелень, перец зеленый);;Не ограничено;;;;;;;;;;;;;;;;;;;;;
;;;0,00;10,00;0,00;90,00;Тыквенное масло;;1 ст.л.;;;;;;;;;;;;;;;;;;;;;
;;сумма 2;34,00;16,00;30,00;445,00;;;;;;;;;;;;;;;;;;;;;;;;
;;;;;;;;;;;;;;;;;;;;;;;;;;;;;;
;;приём пищи 3;33,00;7,00;0,00;250,00;Форель морская стейк;150;;;;;;;;;;;;;;;;;;;;;;
;;;1,00;0,00;25,00;120,00;Рис пропаренный;100;;;;;;;;;;;;;;;;;;;;;;
;;;1,00;0,00;12,00;62,00;Яблоко;130;;;;;;;;;;;;;;;;;;;;;;
;;;0,00;0,00;4,00;15,00;Салат без масла (огурец, пекинская капуста, зелень);;Не ограничено;;;;;;;;;;;;;;;;;;;;;
;;сумма 3;35,00;7,00;41,00;447,00;;;;;;;;;;;;;;;;;;;;;;;;
;;;;;;;;;;;;;;;;;;;;;;;;;;;;;;
;;;;;;;;;;;;;;;;;;;;;;;;;;;;;;
;;приём пищи 4;28,00;5,00;4,00;165,00;Куриное филе на гриле;140;;;;;;;;;;;;;;;;;;;;;;
;;;2,00;1,00;23,00;110,00;Рис коричневый;100;;;;;;;;;;;;;;;;;;;;;;
;;;3,00;7,00;3,00;90,00;Кешью;15;;;;;;;;;;;;;;;;;;;;;;
;;;2,00;0,00;3,00;20,00;Спаржа + зелень;150;;;;;;;;;;;;;;;;;;;;;;
;;сумма 4;35,00;13,00;33,00;385,00;;;;;;;;;;;;;;;;;;;;;;;;
;;;;;;;;;;;;;;;;;;;;;;;;;;;;;;
;;приём пищи 5;9,00;6,00;0,00;130,00;Омлет (без масла) 1 желток + 3 белка;;;;;;;;;;;;;;;;;;;;;;;
;;;0,00;0,00;15,00;72,00;Груша;150;;;;;;;;;;;;;;;;;;;;;;
;;;2,00;0,00;13,00;65,00;Грейпфрутовый фреш;;;;;;;;;;;;;;;;;;;;;;;
;;сумма 5;11,00;6,00;28,00;267,00;;;;;;;;;;;;;;;;;;;;;;;;
;;;;;;;;;;;;;;;;;;;;;;;;;;;;;;
;;приём пищи 6;38,00;5,00;0,00;225,00;Окунь морской гриль;200;;Лосось гриль;110;;;;;;;;;;;;;;;;;;;
;;;2,00;0,00;3,00;20,00;Аспарагус спаржа;100;;Зелень (укроп, шпинат, петрушка);;Не ограничено;;;;;;;;;;;;;;;;;;
;;сумма 6;40,00;5,00;3,00;245,00;;;;;;;;;;;;;;;;;;;;;;;;
;день 21/30;;;;;;;;;;;;;;;;;;;;;;;;;;;;;
;;приём пищи 1;6,00;3,00;30,00;175,00;Овсяная крупа;50;;Гречневая крупа;50;;;;;;;;;;;;;;;;;;;
;;;8,00;0,00;0,00;32,00;Омлет яйца только белок;;3;;;;;;;;;;;;;;;;;;;;;
Со 2 ого приёма вес в готовом виде!!!;;;3,00;7,00;3,00;90,00;Кешью;15;;;;;;;;;;;;;;;;;;;;;;
;;;0,00;0,00;15,00;70,00;Яблоко;150;;;;;;;;;;;;;;;;;;;;;;
;;сумма 1;17,00;10,00;48,00;367,00;;;;;;;;;;;;;;;;;;;;;;;;
;;;;;;;;;;;;;;;;;;;;;;;;;;;;;;
;;приём пищи 2;30,00;9,00;0,00;220,00;Говядина гриль;130;;;;;;;;;;;;;;;;;;;;;;
;;;3,00;2,00;17,00;90,00;Гречневая крупа;100;;;;;;;;;;;;;;;;;;;;;;
;;;0,00;0,00;4,00;15,00;Салат без масла (огурец, пекинская капуста, зелень);;Не ограничено;;;;;;;;;;;;;;;;;;;;;
;;;4,00;11,00;3,00;130,00;Миндаль;20;;;;;;;;;;;;;;;;;;;;;;
;;сумма 2;37,00;22,00;24,00;455,00;;;;;;;;;;;;;;;;;;;;;;;;
;;;;;;;;;;;;;;;;;;;;;;;;;;;;;;
;;приём пищи 3;25,00;19,00;0,00;270,00;Скумбрия гриль;140;;;;;;;;;;;;;;;;;;;;;;
;;;2,00;1,00;23,00;110,00;Рис коричневый;100;;;;;;;;;;;;;;;;;;;;;;
;;;1,00;0,00;12,00;62,00;Яблоко;130;;;;;;;;;;;;;;;;;;;;;;
;;;0,00;0,00;4,00;15,00;Зелень (укроп, шпинат, петрушка);;Не ограничено;Аспарагус спаржа;100;;;;;;;;;;;;;;;;;;;
;;сумма 3;28,00;20,00;39,00;457,00;;;;;;;;;;;;;;;;;;;;;;;;
;;;;;;;;;;;;;;;;;;;;;;;;;;;;;;
;;;;;;;;;;;;;;;;;;;;;;;;;;;;;;
;;приём пищи 4;35,00;5,00;5,00;230,00;Куриное филе на гриле;200;;;;;;;;;;;;;;;;;;;;;;
;;;1,00;0,00;25,00;120,00;Рис пропаренный;100;;;;;;;;;;;;;;;;;;;;;;
;;;0,00;0,00;11,00;42,00;Груша;100;;Киви;80;;;;;;;;;;;;;;;;;;;
;;;0,00;0,00;4,00;15,00;Зелень (укроп, шпинат, петрушка);;Не ограничено;;;;;;;;;;;;;;;;;;;;;
;;сумма 4;36,00;5,00;45,00;407,00;;;;;;;;;;;;;;;;;;;;;;;;
;;;;;;;;;;;;;;;;;;;;;;;;;;;;;;
;;приём пищи 5;32,00;1,00;0,00;170,00;Индейка гриль;130;3;;;;;;;;;;;;;;;;;;;;;
;;;2,00;10,00;2,00;100,00;Грецкий орех;15;;;;;;;;;;;;;;;;;;;;;;
;;;2,00;0,00;3,00;20,00;Спаржа + зелень;150;;;;;;;;;;;;;;;;;;;;;;
;;сумма 5;36,00;11,00;5,00;290,00;;;;;;;;;;;;;;;;;;;;;;;;
;;;;;;;;;;;;;;;;;;;;;;;;;;;;;;
;;приём пищи 6;38,00;5,00;0,00;210,00;Пангасиус филе запеченное;200;;Форель морская гриль;140;;;;;;;;;;;;;;;;;;;
;;;0,00;0,00;4,00;15,00;Салат без масла (огурец, пекинская капуста, зелень);;Не ограничено;Аспарагус спаржа гриль;100;;;;;;;;;;;;;;;;;;;
;;сумма 6;38,00;5,00;4,00;225,00;;;;;;;;;;;;;;;;;;;;;;;;
;день 22/30;;;;;;;;;;;;;;;;;;;;;;;;;;;;;
;;приём пищи 1;7,00;3,00;35,00;205,00;Овсяная крупа;60;;Гречневая крупа;60;;;;;;;;;;;;;;;;;;;
;;;11,00;0,00;0,00;42,00;Омлет яйца только белок;;4;;;;;;;;;;;;;;;;;;;;;
;;;1,00;0,00;12,00;50,00;Апельсин;150;;;;;;;;;;;;;;;;;;;;;;
Со 2 ого приёма вес в готовом виде!!!;;;3,00;13,00;1,00;120,00;Грецкий орех;20;;;;;;;;;;;;;;;;;;;;;;
;;сумма 1;22,00;16,00;48,00;417,00;;;;;;;;;;;;;;;;;;;;;;;;
;;;;;;;;;;;;;;;;;;;;;;;;;;;;;;
;;приём пищи 2;37,00;1,00;0,00;200,00;Индейка гриль филе;150;;;;;;;;;;;;;;;;;;;;;;
;;;1,00;0,00;25,00;120,00;Рис жасмин;100;;;;;;;;;;;;;;;;;;;;;;
;;;0,00;0,00;4,00;15,00;Салат (капуста брокколи, зелень, перец зеленый);;Не ограничено;;;;;;;;;;;;;;;;;;;;;
;;;0,00;10,00;0,00;95,00;Льняное масло;;1 ст.л.;;;;;;;;;;;;;;;;;;;;;
;;сумма 2;38,00;11,00;29,00;430,00;;;;;;;;;;;;;;;;;;;;;;;;
;;;;;;;;;;;;;;;;;;;;;;;;;;;;;;
;;приём пищи 3;37,00;1,00;0,00;200,00;Индейка гриль филе;150;;;;;;;;;;;;;;;;;;;;;;
;;;3,00;2,00;17,00;90,00;Гречневая крупа;100;;;;;;;;;;;;;;;;;;;;;;
;;;0,00;0,00;4,00;15,00;Салат без масла (огурец, пекинская капуста, зелень);;Не ограничено;;;;;;;;;;;;;;;;;;;;;
;;;1,00;10,00;3,00;106,00;Авокадо;;1/2 шт.;;;;;;;;;;;;;;;;;;;;;
;;сумма 3;41,00;13,00;24,00;411,00;;;;;;;;;;;;;;;;;;;;;;;;
;;;;;;;;;;;;;;;;;;;;;;;;;;;;;;
;;приём пищи 4;30,00;5,00;4,00;185,00;Куриное филе на гриле;150;;;;;;;;;;;;;;;;;;;;;;
;;;3,00;1,00;21,00;102,00;Картофель запеченный с травами;120;;;;;;;;;;;;;;;;;;;;;;
;;;1,00;0,00;12,00;62,00;Яблоко;130;;;;;;;;;;;;;;;;;;;;;;
;;;0,00;0,00;4,00;15,00;Зелень (укроп, шпинат, петрушка);;Не ограничено;;;;;;;;;;;;;;;;;;;;;
;;сумма 4;34,00;6,00;41,00;364,00;;;;;;;;;;;;;;;;;;;;;;;;
;;;;;;;;;;;;;;;;;;;;;;;;;;;;;;
;;приём пищи 5;35,00;5,00;5,00;230,00;Куриное филе на гриле;200;;;;;;;;;;;;;;;;;;;;;;
;;;1,00;0,00;8,00;40,00;Киви;80;;;;;;;;;;;;;;;;;;;;;;
;;;2,00;0,00;3,00;20,00;Спаржа + зелень;150;;;;;;;;;;;;;;;;;;;;;;
;;сумма 5;38,00;5,00;16,00;290,00;;;;;;;;;;;;;;;;;;;;;;;;
;;;;;;;;;;;;;;;;;;;;;;;;;;;;;;
;;приём пищи 6;18,00;20,00;0,00;250,00;Лосось стейк;90;;Горбуша гриль;140;;;;;;;;;;;;;;;;;;;
;;;2,00;0,00;3,00;20,00;Аспарагус спаржа;100;;Зелень (укроп, шпинат, петрушка);;Не ограничено;;;;;;;;;;;;;;;;;;
;;сумма 6;20,00;20,00;3,00;270,00;;;;;;;;;;;;;;;;;;;;;;;;
;день 23/30;;;;;;;;;;;;;;;;;;;;;;;;;;;;;
;;приём пищи 1;7,00;3,00;35,00;205,00;Овсяная крупа;60;;Гречневая крупа;50;;;;;;;;;;;;;;;;;;;
;;;8,00;0,00;0,00;32,00;Омлет яйца только белок;;3;;;;;;;;;;;;;;;;;;;;;
Со 2 ого приёма вес в готовом виде!!!;;;4,00;11,00;3,00;130,00;Миндаль;20;;;;;;;;;;;;;;;;;;;;;;
;;;0,00;0,00;16,00;63,00;Груша;150;;;;;;;;;;;;;;;;;;;;;;
;;сумма 1;19,00;14,00;54,00;430,00;;;;;;;;;;;;;;;;;;;;;;;;
;;;;;;;;;;;;;;;;;;;;;;;;;;;;;;
;;приём пищи 2;32,00;5,00;5,00;195,00;Филе куриное гриль;160;;;;;;;;;;;;;;;;;;;;;;
;;;2,00;0,00;16,00;80,00;Киви;150;;;;;;;;;;;;;;;;;;;;;;
;;;4,00;2,00;21,00;110,00;Гречневая крупа;120;;;;;;;;;;;;;;;;;;;;;;
;;;0,00;0,00;4,00;15,00;Салат без масла (огурец, пекинская капуста, зелень);;Не ограничено;;;;;;;;;;;;;;;;;;;;;
;;сумма 2;38,00;7,00;46,00;400,00;;;;;;;;;;;;;;;;;;;;;;;;
;;;;;;;;;;;;;;;;;;;;;;;;;;;;;;
;;приём пищи 3;27,00;5,00;5,00;180,00;Филе куриное гриль;150;;;;;;;;;;;;;;;;;;;;;;
;;;2,00;1,00;23,00;110,00;Рис коричневый;100;;;;;;;;;;;;;;;;;;;;;;
;;;1,00;0,00;15,00;72,00;Груша;150;;;;;;;;;;;;;;;;;;;;;;
;;;0,00;0,00;4,00;15,00;Салат (капуста брокколи, зелень, перец зеленый);;Не ограничено;;;;;;;;;;;;;;;;;;;;;
;;;0,00;10,00;2,00;90,00;Льняное масло;;1 ст.л.;;;;;;;;;;;;;;;;;;;;;
;;сумма 3;30,00;16,00;49,00;467,00;;;;;;;;;;;;;;;;;;;;;;;;
;;;;;;;;;;;;;;;;;;;;;;;;;;;;;;
;;приём пищи 4;37,00;1,00;0,00;200,00;Индейка гриль филе;150;;;;;;;;;;;;;;;;;;;;;;
;;;3,00;1,00;21,00;102,00;Картофель запеченный;120;;;;;;;;;;;;;;;;;;;;;;
;;;1,00;0,00;8,00;40,00;Киви;80;;;;;;;;;;;;;;;;;;;;;;
;;;2,00;0,00;3,00;20,00;Спаржа + зелень;150;;;;;;;;;;;;;;;;;;;;;;
;;сумма 4;43,00;2,00;32,00;362,00;;;;;;;;;;;;;;;;;;;;;;;;
;;;;;;;;;;;;;;;;;;;;;;;;;;;;;;
;;приём пищи 5;40,00;3,00;2,00;200,00;Творог зернистый 1%;250;;;;;;;;;;;;;;;;;;;;;;
;;;1,00;0,00;15,00;70,00;Яблоко;150;;;;;;;;;;;;;;;;;;;;;;
;;сумма 5;41,00;3,00;17,00;270,00;;;;;;;;;;;;;;;;;;;;;;;;
;;;;;;;;;;;;;;;;;;;;;;;;;;;;;;
;;приём пищи 6;45,00;5,00;0,00;215,00;Тилапия гриль;200;;Окунь морской запеченный;180;;;;;;;;;;;;;;;;;;;
;;;0,00;0,00;4,00;15,00;Салат (огурец, пекинская капуста, зелень, болгарский перец);;Не ограничено;Аспарагус спаржа гриль;100;;;;;;;;;;;;;;;;;;;
;;сумма 6;45,00;5,00;4,00;230,00;;;;;;;;;;;;;;;;;;;;;;;;
;день 24/30;;;;;;;;;;;;;;;;;;;;;;;;;;;;;
;;приём пищи 1;3,00;1,00;37,00;165,00;Кукурузные хлопья без сахара;45;;;;;;;;;;;;;;;;;;;;;;
;;;8,00;0,00;0,00;32,00;Омлет яйца только белок;;3;;;;;;;;;;;;;;;;;;;;;
Со 2 ого приёма вес в готовом виде!!!;;;5,00;15,00;3,00;130,00;Кешью;25;;;;;;;;;;;;;;;;;;;;;;
;;;1,00;0,00;12,00;50,00;Апельсин;150;;;;;;;;;;;;;;;;;;;;;;
;;сумма 1;17,00;16,00;52,00;377,00;;;;;;;;;;;;;;;;;;;;;;;;
;;;;;;;;;;;;;;;;;;;;;;;;;;;;;;
;;приём пищи 2;23,00;18,00;0,00;275,00;Скумбрия гриль;140;;Форель морская гриль;160;;;;;;;;;;;;;;;;;;;
;;;2,00;1,00;23,00;110,00;Рис коричневый;100;;;;;;;;;;;;;;;;;;;;;;
;;;0,00;0,00;4,00;15,00;Салат (капуста брокколи, зелень, перец зеленый);;Не ограничено;;;;;;;;;;;;;;;;;;;;;
;;;1,00;0,00;10,00;45,00;Грейпфрут;150;;;;;;;;;;;;;;;;;;;;;;
;;сумма 2;26,00;19,00;37,00;445,00;;;;;;;;;;;;;;;;;;;;;;;;
;;;;;;;;;;;;;;;;;;;;;;;;;;;;;;
;;приём пищи 3;25,00;25,00;0,00;340,00;Лосось стейк;120;;Семга стейк;130;;;;;;;;;;;;;;;;;;;
;;;1,00;0,00;13,00;60,00;Рис пропаренный;50;;;;;;;;;;;;;;;;;;;;;;
;;;1,00;0,00;15,00;42,00;Яблоко;100;;;;;;;;;;;;;;;;;;;;;;
;;;0,00;0,00;4,00;15,00;Салат без масла (огурец, пекинская капуста, зелень, болгарский перец);;Не ограничено;;;;;;;;;;;;;;;;;;;;;
;;сумма 3;27,00;25,00;32,00;457,00;;;;;;;;;;;;;;;;;;;;;;;;
;;;;;;;;;;;;;;;;;;;;;;;;;;;;;;
;;приём пищи 4;37,00;1,00;0,00;200,00;Индейка гриль филе;150;;;;;;;;;;;;;;;;;;;;;;
;;;3,00;1,00;21,00;122,00;Картофель запеченный;120;;;;;;;;;;;;;;;;;;;;;;
;;;0,00;0,00;4,00;15,00;Салат (капуста брокколи, зелень, перец зеленый);;Не ограничено;;;;;;;;;;;;;;;;;;;;;
;;сумма 4;40,00;2,00;25,00;337,00;;;;;;;;;;;;;;;;;;;;;;;;
;;;;;;;;;;;;;;;;;;;;;;;;;;;;;;
;;приём пищи 5;35,00;5,00;5,00;230,00;Куриное филе на гриле;200;;;;;;;;;;;;;;;;;;;;;;
;;;2,00;0,00;16,00;80,00;Киви;150;;;;;;;;;;;;;;;;;;;;;;
;;;2,00;0,00;3,00;20,00;Спаржа + зелень;150;;;;;;;;;;;;;;;;;;;;;;
;;сумма 5;39,00;5,00;24,00;330,00;;;;;;;;;;;;;;;;;;;;;;;;
;;;;;;;;;;;;;;;;;;;;;;;;;;;;;;
;;приём пищи 6;42,00;3,00;0,00;205,00;Тунец филе;180;;;;;;;;;;;;;;;;;;;;;;
;;;2,00;0,00;3,00;20,00;Зелень + аспарагус спаржа;130;;;;;;;;;;;;;;;;;;;;;;
;;сумма 6;44,00;3,00;3,00;225,00;;;;;;;;;;;;;;;;;;;;;;;;
;день 25/30;;;;;;;;;;;;;;;;;;;;;;;;;;;;;
;;приём пищи 1;10,00;0,00;0,00;40,00;Омлет яйца только белок;;4;;;;;;;;;;;;;;;;;;;;;
;;;2,00;0,00;16,00;75,00;Фреш апельсиновый;200;;Яблочный фреш;200;;;;;;;;;;;;;;;;;;;
;;;4,00;14,00;2,00;130,00;Грецкий орех;20;;;;;;;;;;;;;;;;;;;;;;
Со 2 ого приёма вес в готовом виде!!!;;;2,00;0,00;29,00;120,00;Финик + курага;40;;;;;;;;;;;;;;;;;;;;;;
;;сумма 1;18,00;14,00;47,00;365,00;;;;;;;;;;;;;;;;;;;;;;;;
;;;;;;;;;;;;;;;;;;;;;;;;;;;;;;
;;приём пищи 2;39,00;12,00;0,00;270,00;Говядина гриль;150;;;;;;;;;;;;;;;;;;;;;;
;;;3,00;1,00;21,00;102,00;Картофель запеченный с травами;120;;;;;;;;;;;;;;;;;;;;;;
;;;2,00;6,00;2,00;65,00;Миндаль;10;;;;;;;;;;;;;;;;;;;;;;
;;;0,00;0,00;4,00;15,00;Салат (капуста брокколи, зелень, перец зеленый);;Не ограничено;;;;;;;;;;;;;;;;;;;;;
;;сумма 2;44,00;19,00;27,00;452,00;;;;;;;;;;;;;;;;;;;;;;;;
;;;;;;;;;;;;;;;;;;;;;;;;;;;;;;
;;приём пищи 3;;;;;;;;;;;;;;;;;;;;;;;;;;;;
;;;26,00;18,00;0,00;270,00;Скумбрия гриль;140;;;;;;;;;;;;;;;;;;;;;;
;;;1,00;0,00;8,00;40,00;Киви;80;;;;;;;;;;;;;;;;;;;;;;
;;;2,00;1,00;23,00;110,00;Рис коричневый;100;;;;;;;;;;;;;;;;;;;;;;
;;;0,00;0,00;4,00;15,00;Салат без масла (огурец, пекинская капуста, зелень, болгарский перец);;Не ограничено;;;;;;;;;;;;;;;;;;;;;
;;сумма 3;29,00;19,00;35,00;435,00;;;;;;;;;;;;;;;;;;;;;;;;
;;;;;;;;;;;;;;;;;;;;;;;;;;;;;;
;;приём пищи 4;32,00;6,00;6,00;210,00;Куриное филе на гриле;180;;;;;;;;;;;;;;;;;;;;;;
;;;1,00;0,00;25,00;120,00;Рис пропаренный;100;;;;;;;;;;;;;;;;;;;;;;
;;;1,00;0,00;12,00;62,00;Яблоко;130;;;;;;;;;;;;;;;;;;;;;;
;;;0,00;0,00;4,00;15,00;Зелень (укроп, шпинат, петрушка);;Не ограничено;;;;;;;;;;;;;;;;;;;;;
;;сумма 4;34,00;6,00;47,00;407,00;;;;;;;;;;;;;;;;;;;;;;;;
;;;;;;;;;;;;;;;;;;;;;;;;;;;;;;
;;приём пищи 5;32,00;1,00;0,00;170,00;Индейка гриль;130;;;;;;;;;;;;;;;;;;;;;;
;;;0,00;0,00;15,00;72,00;Груша;150;;;;;;;;;;;;;;;;;;;;;;
;;;2,00;0,00;3,00;20,00;Спаржа + зелень;150;;;;;;;;;;;;;;;;;;;;;;
;;сумма 5;34,00;1,00;18,00;262,00;;;;;;;;;;;;;;;;;;;;;;;;
;;;;;;;;;;;;;;;;;;;;;;;;;;;;;;
;;приём пищи 6;39,00;5,00;0,00;225,00;Окунь морской гриль;200;;Дорадо гриль;200;;;;;;;;;;;;;;;;;;;
;;;0,00;0,00;4,00;15,00;Салат (огурец, пекинская капуста, зелень, болгарский перец);;Не ограничено;;;;;;;;;;;;;;;;;;;;;
;;сумма 6;39,00;5,00;4,00;240,00;;;;;;;;;;;;;;;;;;;;;;;;
;день 26/30;;;;;;;;;;;;;;;;;;;;;;;;;;;;;
;;приём пищи 1;11,00;0,00;0,00;42,00;Омлет яйца только белок;;4;;;;;;;;;;;;;;;;;;;;;
;;;2,00;0,00;16,00;75,00;Фреш апельсиновый;200;;;;;;;;;;;;;;;;;;;;;;
Со 2 ого приёма вес в готовом виде!!!;;;4,00;12,00;5,00;150,00;Кешью;25;;;;;;;;;;;;;;;;;;;;;;
;;;1,00;0,00;15,00;65,00;Курага;30;;;;;;;;;;;;;;;;;;;;;;
;;сумма 1;18,00;12,00;36,00;332,00;;;;;;;;;;;;;;;;;;;;;;;;
;;;;;;;;;;;;;;;;;;;;;;;;;;;;;;
;;приём пищи 2;3,00;1,00;21,00;102,00;Картофель запеченный;120;;Рис пропаренный;100;;;;;;;;;;;;;;;;;;;
;;;29,00;11,00;0,00;220,00;Говядина гриль;100;;;;;;;;;;;;;;;;;;;;;;
;;;0,00;0,00;4,00;15,00;Салат (капуста брокколи, зелень, перец зеленый);;Не ограничено;;;;;;;;;;;;;;;;;;;;;
;;;1,00;10,00;3,00;106,00;Авокадо;;1/2 шт.;;;;;;;;;;;;;;;;;;;;;
;;сумма 2;33,00;22,00;28,00;443,00;;;;;;;;;;;;;;;;;;;;;;;;
;;;;;;;;;;;;;;;;;;;;;;;;;;;;;;
;;приём пищи 3;40,00;1,00;0,00;200,00;Индейка филе;150;;;;;;;;;;;;;;;;;;;;;;
;;;0,00;0,00;15,00;72,00;Груша;150;;;;;;;;;;;;;;;;;;;;;;
;;;2,00;1,00;23,00;110,00;Рис коричневый;100;;;;;;;;;;;;;;;;;;;;;;
;;;0,00;0,00;4,00;15,00;Салат (огурец, пекинская капуста, зелень, болгарский перец);;Не ограничено;;;;;;;;;;;;;;;;;;;;;
;;сумма 3;42,00;2,00;42,00;397,00;;;;;;;;;;;;;;;;;;;;;;;;
;;;;;;;;;;;;;;;;;;;;;;;;;;;;;;
;;;;;;;;;;;;;;;;;;;;;;;;;;;;;;
;;приём пищи 4;35,00;5,00;5,00;230,00;Куриное филе на гриле;200;;;;;;;;;;;;;;;;;;;;;;
;;;3,00;1,00;21,00;102,00;Картофель запеченный;120;;;;;;;;;;;;;;;;;;;;;;
;;;1,00;0,00;12,00;62,00;Яблоко;130;;;;;;;;;;;;;;;;;;;;;;
;;;0,00;0,00;4,00;15,00;Салат (капуста брокколи, зелень, перец зеленый);;Не ограничено;;;;;;;;;;;;;;;;;;;;;
;;сумма 4;39,00;6,00;42,00;409,00;;;;;;;;;;;;;;;;;;;;;;;;
;;;;;;;;;;;;;;;;;;;;;;;;;;;;;;
;;приём пищи 5;37,00;1,00;0,00;200,00;Индейка гриль филе;150;;;;;;;;;;;;;;;;;;;;;;
;;;1,00;0,00;8,00;40,00;Киви;80;;;;;;;;;;;;;;;;;;;;;;
;;;2,00;6,00;2,00;65,00;Миндаль;10;;;;;;;;;;;;;;;;;;;;;;
;;;2,00;0,00;3,00;20,00;Спаржа + зелень;150;;;;;;;;;;;;;;;;;;;;;;
;;сумма 5;42,00;7,00;13,00;325,00;;;;;;;;;;;;;;;;;;;;;;;;
;;;;;;;;;;;;;;;;;;;;;;;;;;;;;;
;;приём пищи 6;45,00;3,00;0,00;220,00;Тунец филе;200;;Минтай филе гриль;150;;;;;;;;;;;;;;;;;;;
;;;0,00;0,00;4,00;15,00;Салат без масла (огурец, пекинская капуста, зелень);;Не ограничено;Спаржа;100;;;;;;;;;;;;;;;;;;;
;;сумма 6;45,00;3,00;4,00;235,00;;;;;;;;;;;;;;;;;;;;;;;;
;день 27/30;;;;;;;;;;;;;;;;;;;;;;;;;;;;;
;;приём пищи 1;13,00;6,00;0,00;110,00;Омлет яйца оставить 1 желток;;3;;;;;;;;;;;;;;;;;;;;;
;;;1,00;0,00;17,00;100,00;Манго;150;;;;;;;;;;;;;;;;;;;;;;
;;;1,00;0,00;15,00;45,00;Курага;20;;;;;;;;;;;;;;;;;;;;;;
Со 2 ого приёма вес в готовом виде!!!;;;7,00;3,00;35,00;205,00;Овсяная крупа;60;;Гречневая крупа;50;;;;;;;;;;;;;;;;;;;
;;сумма 1;22,00;9,00;67,00;460,00;;;;;;;;;;;;;;;;;;;;;;;;
;;;;;;;;;;;;;;;;;;;;;;;;;;;;;;
;;приём пищи 2;;;;;;;;Ячневая крупа;50;;;;;;;;;;;;;;;;;;;
;;;37,00;1,00;0,00;200,00;Индейка гриль филе;150;;;;;;;;;;;;;;;;;;;;;;
;;;0,00;0,00;4,00;15,00;Салат (капуста брокколи, зелень, перец зеленый);;Не ограничено;;;;;;;;;;;;;;;;;;;;;
;;;1,00;0,00;15,00;70,00;Яблоко;150;;;;;;;;;;;;;;;;;;;;;;
;;;3,00;7,00;3,00;90,00;Кешью;15;;;;;;;;;;;;;;;;;;;;;;
;;сумма 2;41,00;8,00;22,00;375,00;;;;;;;;;;;;;;;;;;;;;;;;
;;;;;;;;;;;;;;;;;;;;;;;;;;;;;;
;;приём пищи 3;26,00;5,00;5,00;160,00;Филе куриное гриль;140;;;;;;;;;;;;;;;;;;;;;;
;;;2,00;1,00;23,00;110,00;Рис коричневый отварной;100;;;;;;;;;;;;;;;;;;;;;;
;;;1,00;0,00;8,00;40,00;Киви;80;;;;;;;;;;;;;;;;;;;;;;
;;;1,00;12,00;3,00;127,00;Авокадо;;1/2 шт.;;;;;;;;;;;;;;;;;;;;;
;;;0,00;0,00;4,00;15,00;Салат без масла (огурец, пекинская капуста, зелень);;Не ограничено;;;;;;;;;;;;;;;;;;;;;
;;сумма 3;30,00;18,00;43,00;452,00;;;;;;;;;;;;;;;;;;;;;;;;
;;;;;;;;;;;;;;;;;;;;;;;;;;;;;;
;;приём пищи 4;37,00;1,00;0,00;200,00;Индейка гриль филе;150;;;;;;;;;;;;;;;;;;;;;;
;;;0,00;0,00;11,00;42,00;Груша;100;;;;;;;;;;;;;;;;;;;;;;
;;;3,00;1,00;21,00;102,00;Картофель запеченный;120;;;;;;;;;;;;;;;;;;;;;;
;;;2,00;0,00;3,00;20,00;Спаржа + зелень;150;;;;;;;;;;;;;;;;;;;;;;
;;сумма 4;42,00;2,00;35,00;364,00;;;;;;;;;;;;;;;;;;;;;;;;
;;;;;;;;;;;;;;;;;;;;;;;;;;;;;;
;;;;;;;;;;;;;;;;;;;;;;;;;;;;;;
;;приём пищи 5;40,00;3,00;2,00;200,00;Творог зернистый 1%;250;;;;;;;;;;;;;;;;;;;;;;
;;;1,00;0,00;15,00;70,00;Яблоко;150;;;;;;;;;;;;;;;;;;;;;;
;;сумма 5;41,00;3,00;17,00;270,00;;;;;;;;;;;;;;;;;;;;;;;;
;;;;;;;;;;;;;;;;;;;;;;;;;;;;;;
;;;;;;;;;;;;;;;;;;;;;;;;;;;;;;
;;приём пищи 6;35,00;5,00;5,00;230,00;Куриное филе на гриле;200;;;;;;;;;;;;;;;;;;;;;;
;;;0,00;0,00;4,00;15,00;Салат без масла (огурец, пекинская капуста, зелень);;Не ограничено;Аспарагус спаржа;100;;;;;;;;;;;;;;;;;;;
;;сумма 6;35,00;5,00;9,00;245,00;;;;;;;;;;;;;;;;;;;;;;;;
;день 28/30;;;;;;;;;;;;;;;;;;;;;;;;;;;;;
;;приём пищи 1;3,00;1,00;33,00;146,00;Кукурузные хлопья без сахара;40;;;;;;;;;;;;;;;;;;;;;;
;;;14,00;12,00;1,00;180,00;Омлет яйца целые;;2;;;;;;;;;;;;;;;;;;;;;
Со 2 ого приёма вес в готовом виде!!!;;;0,00;0,00;16,00;63,00;Груша;150;;;;;;;;;;;;;;;;;;;;;;
;;сумма 1;17,00;13,00;50,00;389,00;;;;;;;;;;;;;;;;;;;;;;;;
;;;;;;;;;;;;;;;;;;;;;;;;;;;;;;
;;приём пищи 2;2,00;1,00;23,00;110,00;Рис коричневый;100;;;;;;;;;;;;;;;;;;;;;;
;;;33,00;10,00;0,00;230,00;Говядина гриль;130;;;;;;;;;;;;;;;;;;;;;;
;;;0,00;0,00;4,00;15,00;Салат (капуста брокколи, зелень, перец зеленый);;Не ограничено;;;;;;;;;;;;;;;;;;;;;
;;;3,00;9,00;2,00;97,00;Миндаль;15;;;;;;;;;;;;;;;;;;;;;;
;;сумма 2;38,00;20,00;29,00;452,00;;;;;;;;;;;;;;;;;;;;;;;;
;;;;;;;;;;;;;;;;;;;;;;;;;;;;;;
;;приём пищи 3;24,00;2,00;1,00;130,00;Форель речная запеченная;140;;Угорь морской запеченный;140;;;;;;;;;;;;;;;;;;;
;;;2,00;1,00;23,00;110,00;Рис коричневый;100;;;;;;;;;;;;;;;;;;;;;;
;;;1,00;0,00;15,00;70,00;Яблоко;150;;;;;;;;;;;;;;;;;;;;;;
;;;1,00;12,00;3,00;127,00;Авокадо;;1/2 шт.;;;;;;;;;;;;;;;;;;;;;
;;сумма 3;28,00;15,00;42,00;437,00;;;;;;;;;;;;;;;;;;;;;;;;
;;;;;;;;;;;;;;;;;;;;;;;;;;;;;;
;;приём пищи 4;37,00;1,00;0,00;200,00;Индейка гриль филе;150;;;;;;;;;;;;;;;;;;;;;;
;;;1,00;0,00;25,00;120,00;Рис жасмин;100;;;;;;;;;;;;;;;;;;;;;;
;;;2,00;0,00;3,00;20,00;Спаржа + зелень;150;;;;;;;;;;;;;;;;;;;;;;
;;сумма 4;40,00;1,00;3,00;340,00;;;;;;;;;;;;;;;;;;;;;;;;
;;;;;;;;;;;;;;;;;;;;;;;;;;;;;;
;;приём пищи 5;38,00;5,00;0,00;225,00;Окунь морской гриль;200;;Лосось гриль;110;;;;;;;;;;;;;;;;;;;
;;;2,00;0,00;16,00;80,00;Киви;150;;;;;;;;;;;;;;;;;;;;;;
;;;0,00;0,00;4,00;15,00;Салат без масла (огурец, пекинская капуста, зелень);;Не ограничено;;;;;;;;;;;;;;;;;;;;;
;;сумма 5;40,00;5,00;20,00;320,00;;;;;;;;;;;;;;;;;;;;;;;;
;;;;;;;;;;;;;;;;;;;;;;;;;;;;;;
;;приём пищи 6;41,00;5,00;0,00;220,00;Дорадо гриль;220;;Сибас гриль;220;;;;;;;;;;;;;;;;;;;
;;;0,00;0,00;4,00;15,00;Салат без масла (огурец, пекинская капуста, зелень);;Не ограничено;Зелень (укроп, шпинат, петрушка);;Не ограничено;;;;;;;;;;;;;;;;;;
;;сумма 6;41,00;5,00;4,00;235,00;;;;;;;;;;;;;;;;;;;;;;;;
;день 29/30;;;;;;;;;;;;;;;;;;;;;;;;;;;;;
;;приём пищи 1;5,00;2,00;24,00;140,00;Овсяная крупа;40;;;;;;;;;;;;;;;;;;;;;;
;;;4,00;11,00;3,00;130,00;Миндаль;20;;;;;;;;;;;;;;;;;;;;;;
;;;7,00;2,00;9,00;90,00;Йогурт 1% без добавок;150;;;;;;;;;;;;;;;;;;;;;;
Со 2 ого приёма вес в готовом виде!!!;;;1,00;0,00;15,00;70,00;Яблоко;150;;;;;;;;;;;;;;;;;;;;;;
;;сумма 1;17,00;15,00;51,00;430,00;;;;;;;;;;;;;;;;;;;;;;;;
;;;;;;;;;;;;;;;;;;;;;;;;;;;;;;
;;приём пищи 2;2,00;2,00;17,00;140,00;Картофель запеченный;110;;Батат запеченный;110;;;;;;;;;;;;;;;;;;;
;;;37,00;1,00;0,00;200,00;Индейка гриль филе;150;;;;;;;;;;;;;;;;;;;;;;
;;;1,00;0,00;15,00;75,00;Груша;150;;;;;;;;;;;;;;;;;;;;;;
;;;0,00;0,00;4,00;15,00;Салат (капуста брокколи, зелень, перец зеленый);;Не ограничено;;;;;;;;;;;;;;;;;;;;;
;;сумма 2;32,00;1,00;13,00;430,00;;;;;;;;;;;;;;;;;;;;;;;;
;;;;;;;;;;;;;;;;;;;;;;;;;;;;;;
;;приём пищи 3;32,00;6,00;6,00;210,00;Куриное филе на гриле;180;;Филе кролика гриль;130;;;;;;;;;;;;;;;;;;;
;;;3,00;9,00;1,00;100,00;Грецкий орех;15;;;;;;;;;;;;;;;;;;;;;;
;;;3,00;2,00;17,00;90,00;Гречневая крупа;100;;;;;;;;;;;;;;;;;;;;;;
;;;0,00;0,00;4,00;15,00;Салат (огурец, пекинская капуста, зелень, болгарский перец);;Не ограничено;;;;;;;;;;;;;;;;;;;;;
;;сумма 3;38,00;17,00;28,00;415,00;;;;;;;;;;;;;;;;;;;;;;;;
;;;;;;;;;;;;;;;;;;;;;;;;;;;;;;
;;;;;;;;;;;;;;;;;;;;;;;;;;;;;;
;;приём пищи 4;37,00;1,00;0,00;200,00;Индейка гриль филе;150;;;;;;;;;;;;;;;;;;;;;;
;;;2,00;1,00;23,00;110,00;Рис коричневый;100;;;;;;;;;;;;;;;;;;;;;;
;;;1,00;0,00;8,00;40,00;Киви;80;;;;;;;;;;;;;;;;;;;;;;
;;;2,00;0,00;3,00;20,00;Спаржа + зелень;150;;;;;;;;;;;;;;;;;;;;;;
;;сумма 4;42,00;2,00;34,00;370,00;;;;;;;;;;;;;;;;;;;;;;;;
;;;;;;;;;;;;;;;;;;;;;;;;;;;;;;
;;приём пищи 5;9,00;6,00;0,00;130,00;Омлет (без масла) 1 желток + 3 белка;120;3;;;;;;;;;;;;;;;;;;;;;
;;;2,00;10,00;2,00;100,00;Грецкий орех;15;;;;;;;;;;;;;;;;;;;;;;
;;;2,00;0,00;13,00;65,00;Грейпфрутовый фреш;200;;;;;;;;;;;;;;;;;;;;;;
;;сумма 5;13,00;16,00;15,00;295,00;;;;;;;;;;;;;;;;;;;;;;;;
;;;;;;;;;;;;;;;;;;;;;;;;;;;;;;
;;приём пищи 6;30,00;5,00;0,00;190,00;Окунь морской запеченный;170;;Дорадо гриль;170;;;;;;;;;;;;;;;;;;;
;;;2,00;0,00;3,00;20,00;Аспарагус спаржа;100;;Салат без масла (огурец, пекинская капуста, зелень);;Не ограничено;;;;;;;;;;;;;;;;;;
;;сумма 6;32,00;5,00;3,00;210,00;;;;;;;;;;;;;;;;;;;;;;;;
;день 30/30;;;;;;;;;;;;;;;;;;;;;;;;;;;;;
;;приём пищи 1;5,00;2,00;24,00;140,00;Овсяная крупа;40;;;;;;;;;;;;;;;;;;;;;;
;;;7,00;3,00;18,00;130,00;Йогурт 1% без добавок;200;;;;;;;;;;;;;;;;;;;;;;
;;;1,00;0,00;15,00;70,00;Яблоко;150;;;;;;;;;;;;;;;;;;;;;;
;;;1,00;0,00;13,00;50,00;Изюм;20;;;;;;;;;;;;;;;;;;;;;;
;;сумма 1;14,00;5,00;70,00;390,00;;;;;;;;;;;;;;;;;;;;;;;;
;;;;;;;;;;;;;;;;;;;;;;;;;;;;;;
;;приём пищи 2;2,00;1,00;16,00;80,00;Батат гриль;100;;Картофель гриль;100;;;;;;;;;;;;;;;;;;;
;;;0,00;0,00;11,00;40,00;Груша;100;;;;;;;;;;;;;;;;;;;;;;
;;;32,00;10,00;0,00;210,00;Говядина гриль;120;;;;;;;;;;;;;;;;;;;;;;
;;;3,00;9,00;2,00;100,00;Миндаль;15;;;;;;;;;;;;;;;;;;;;;;
;;;0,00;0,00;4,00;15,00;Салат (капуста брокколи, зелень, перец зеленый);;Не ограничено;;;;;;;;;;;;;;;;;;;;;
;;сумма 2;37,00;20,00;33,00;445,00;;;;;;;;;;;;;;;;;;;;;;;;
;;;;;;;;;;;;;;;;;;;;;;;;;;;;;;
;;приём пищи 3;37,00;1,00;0,00;200,00;Индейка гриль филе;150;;;;;;;;;;;;;;;;;;;;;;
;;;2,00;10,00;2,00;100,00;Грецкий орех;15;;;;;;;;;;;;;;;;;;;;;;
;;;3,00;2,00;23,00;110,00;Гречневая крупа;120;;;;;;;;;;;;;;;;;;;;;;
;;;0,00;0,00;4,00;15,00;Салат (огурец, пекинская капуста, зелень, болгарский перец);;Не ограничено;;;;;;;;;;;;;;;;;;;;;
;;сумма 3;42,00;13,00;29,00;425,00;;;;;;;;;;;;;;;;;;;;;;;;
;;;;;;;;;;;;;;;;;;;;;;;;;;;;;;
;;;;;;;;;;;;;;;;;;;;;;;;;;;;;;
;;приём пищи 4;38,00;5,00;0,00;225,00;Окунь морской гриль;200;;Лосось гриль;110;;;;;;;;;;;;;;;;;;;
;;;1,00;0,00;15,00;70,00;Яблоко;150;;;;;;;;;;;;;;;;;;;;;;
;;;2,00;1,00;23,00;110,00;Рис коричневый;100;;;;;;;;;;;;;;;;;;;;;;
;;;2,00;0,00;3,00;20,00;Спаржа + зелень;150;;;;;;;;;;;;;;;;;;;;;;
;;сумма 4;43,00;6,00;41,00;425,00;;;;;;;;;;;;;;;;;;;;;;;;
;;;;;;;;;;;;;;;;;;;;;;;;;;;;;;
;;приём пищи 5;9,00;6,00;0,00;130,00;Омлет (без масла) 1 желток + 3 белка;120;3;;;;;;;;;;;;;;;;;;;;;
;;;3,00;7,00;3,00;90,00;Кешью;15;;;;;;;;;;;;;;;;;;;;;;
;;;2,00;0,00;13,00;65,00;Грейпфрутовый фреш;200;;;;;;;;;;;;;;;;;;;;;;
;;сумма 5;14,00;13,00;16,00;285,00;;;;;;;;;;;;;;;;;;;;;;;;
;;;;;;;;;;;;;;;;;;;;;;;;;;;;;;
;;приём пищи 6;40,00;3,00;2,00;200,00;Творог зернистый 1%;250;;Йогурт без добавок 1%;250;;;;;;;;;;;;;;;;;;;
;;сумма 6;40,00;3,00;2,00;200,00;;;;;;;;;;;;;;;;;;;;;;;;
;;;;;;;;;;;;;;;;;;;;;;;;;;;;;;
;;;;;;;;;;;;;;;;;;;;;;;;;;;;;;
;;;;;;;;;;;;;;;;;;;;;;;;;;;;;;
;;;;;;;;;;;;;;;;;;;;;;;;;;;;;;
;;;;;;;;;;;;;;;;;;;;;;;;;;;;;;
;;;;;;;;;;;;;;;;;;;;;;;;;;;;;;
;;;;;;;;;;;;;;;;;;;;;;;;;;;;;;
;;;;;;;;;;;;;;;;;;;;;;;;;;;;;;
;;;;;;;;;;;;;;;;;;;;;;;;;;;;;;
;;;;;;;;;;;;;;;;;;;;;;;;;;;;;;
;;;;;;;;;;;;;;;;;;;;;;;;;;;;;;
;;;;;;;;;;;;;;;;;;;;;;;;;;;;;;
;;;;;;;;;;;;;;;;;;;;;;;;;;;;;;
;;;;;;;;;;;;;;;;;;;;;;;;;;;;;;
;;;;;;;;;;;;;;;;;;;;;;;;;;;;;;
;;;;;;;;;;;;;;;;;;;;;;;;;;;;;;
;;;;;;;;;;;;;;;;;;;;;;;;;;;;;;
;;;;;;;;;;;;;;;;;;;;;;;;;;;;;;
;;;;;;;;;;;;;;;;;;;;;;;;;;;;;;
;;;;;;;;;;;;;;;;;;;;;;;;;;;;;;
;;;;;;;;;;;;;;;;;;;;;;;;;;;;;;
;;;;;;;;;;;;;;;;;;;;;;;;;;;;;;
;;;;;;;;;;;;;;;;;;;;;;;;;;;;;;
;;;;;;;;;;;;;;;;;;;;;;;;;;;;;;
;;;;;;;;;;;;;;;;;;;;;;;;;;;;;;
;;;;;;;;;;;;;;;;;;;;;;;;;;;;;;
;;;;;;;;;;;;;;;;;;;;;;;;;;;;;;
;;;;;;;;;;;;;;;;;;;;;;;;;;;;;;
;;;;;;;;;;;;;;;;;;;;;;;;;;;;;;
;;;;;;;;;;;;;;;;;;;;;;;;;;;;;;
;;;;;;;;;;;;;;;;;;;;;;;;;;;;;;
;;;;;;;;;;;;;;;;;;;;;;;;;;;;;;
;;;;;;;;;;;;;;;;;;;;;;;;;;;;;;
;;;;;;;;;;;;;;;;;;;;;;;;;;;;;;
;;;;;;;;;;;;;;;;;;;;;;;;;;;;;;
;;;;;;;;;;;;;;;;;;;;;;;;;;;;;;
;;;;;;;;;;;;;;;;;;;;;;;;;;;;;;
;;;;;;;;;;;;;;;;;;;;;;;;;;;;;;
;;;;;;;;;;;;;;;;;;;;;;;;;;;;;;
;;;;;;;;;;;;;;;;;;;;;;;;;;;;;;
;;;;;;;;;;;;;;;;;;;;;;;;;;;;;;
;;;;;;;;;;;;;;;;;;;;;;;;;;;;;;
;;;;;;;;;;;;;;;;;;;;;;;;;;;;;;
;;;;;;;;;;;;;;;;;;;;;;;;;;;;;;
;;;;;;;;;;;;;;;;;;;;;;;;;;;;;;
;;;;;;;;;;;;;;;;;;;;;;;;;;;;;;
;;;;;;;;;;;;;;;;;;;;;;;;;;;;;;
;;;;;;;;;;;;;;;;;;;;;;;;;;;;;;
;;;;;;;;;;;;;;;;;;;;;;;;;;;;;;
;;;;;;;;;;;;;;;;;;;;;;;;;;;;;;
;;;;;;;;;;;;;;;;;;;;;;;;;;;;;;
;;;;;;;;;;;;;;;;;;;;;;;;;;;;;;
;;;;;;;;;;;;;;;;;;;;;;;;;;;;;;
;;;;;;;;;;;;;;;;;;;;;;;;;;;;;;
;;;;;;;;;;;;;;;;;;;;;;;;;;;;;;
;;;;;;;;;;;;;;;;;;;;;;;;;;;;;;
;;;;;;;;;;;;;;;;;;;;;;;;;;;;;;
;;;;;;;;;;;;;;;;;;;;;;;;;;;;;;
;;;;;;;;;;;;;;;;;;;;;;;;;;;;;;
;;;;;;;;;;;;;;;;;;;;;;;;;;;;;;
;;;;;;;;;;;;;;;;;;;;;;;;;;;;;;
;;;;;;;;;;;;;;;;;;;;;;;;;;;;;;
;;;;;;;;;;;;;;;;;;;;;;;;;;;;;;
;;;;;;;;;;;;;;;;;;;;;;;;;;;;;;
;;;;;;;;;;;;;;;;;;;;;;;;;;;;;;
;;;;;;;;;;;;;;;;;;;;;;;;;;;;;;
;;;;;;;;;;;;;;;;;;;;;;;;;;;;;;
;;;;;;;;;;;;;;;;;;;;;;;;;;;;;;
;;;;;;;;;;;;;;;;;;;;;;;;;;;;;;
;;;;;;;;;;;;;;;;;;;;;;;;;;;;;;
;;;;;;;;;;;;;;;;;;;;;;;;;;;;;;
;;;;;;;;;;;;;;;;;;;;;;;;;;;;;;
;;;;;;;;;;;;;;;;;;;;;;;;;;;;;;
;;;;;;;;;;;;;;;;;;;;;;;;;;;;;;
;;;;;;;;;;;;;;;;;;;;;;;;;;;;;;
;;;;;;;;;;;;;;;;;;;;;;;;;;;;;;
;;;;;;;;;;;;;;;;;;;;;;;;;;;;;;
;;;;;;;;;;;;;;;;;;;;;;;;;;;;;;
;;;;;;;;;;;;;;;;;;;;;;;;;;;;;;
;;;;;;;;;;;;;;;;;;;;;;;;;;;;;;
;;;;;;;;;;;;;;;;;;;;;;;;;;;;;;
;;;;;;;;;;;;;;;;;;;;;;;;;;;;;;
;;;;;;;;;;;;;;;;;;;;;;;;;;;;;;
;;;;;;;;;;;;;;;;;;;;;;;;;;;;;;
;;;;;;;;;;;;;;;;;;;;;;;;;;;;;;
;;;;;;;;;;;;;;;;;;;;;;;;;;;;;;
;;;;;;;;;;;;;;;;;;;;;;;;;;;;;;
;;;;;;;;;;;;;;;;;;;;;;;;;;;;;;
;;;;;;;;;;;;;;;;;;;;;;;;;;;;;;
;;;;;;;;;;;;;;;;;;;;;;;;;;;;;;
;;;;;;;;;;;;;;;;;;;;;;;;;;;;;;
;;;;;;;;;;;;;;;;;;;;;;;;;;;;;;
;;;;;;;;;;;;;;;;;;;;;;;;;;;;;;
;;;;;;;;;;;;;;;;;;;;;;;;;;;;;;
;;;;;;;;;;;;;;;;;;;;;;;;;;;;;;
;;;;;;;;;;;;;;;;;;;;;;;;;;;;;;
;;;;;;;;;;;;;;;;;;;;;;;;;;;;;;
;;;;;;;;;;;;;;;;;;;;;;;;;;;;;;
;;;;;;;;;;;;;;;;;;;;;;;;;;;;;;
;;;;;;;;;;;;;;;;;;;;;;;;;;;;;;
;;;;;;;;;;;;;;;;;;;;;;;;;;;;;;
;;;;;;;;;;;;;;;;;;;;;;;;;;;;;;
;;;;;;;;;;;;;;;;;;;;;;;;;;;;;;
;;;;;;;;;;;;;;;;;;;;;;;;;;;;;;
;;;;;;;;;;;;;;;;;;;;;;;;;;;;;;
;;;;;;;;;;;;;;;;;;;;;;;;;;;;;;
;;;;;;;;;;;;;;;;;;;;;;;;;;;;;;
;;;;;;;;;;;;;;;;;;;;;;;;;;;;;;
;;;;;;;;;;;;;;;;;;;;;;;;;;;;;;
;;;;;;;;;;;;;;;;;;;;;;;;;;;;;;
;;;;;;;;;;;;;;;;;;;;;;;;;;;;;;
;;;;;;;;;;;;;;;;;;;;;;;;;;;;;;
;;;;;;;;;;;;;;;;;;;;;;;;;;;;;;
;;;;;;;;;;;;;;;;;;;;;;;;;;;;;;
;;;;;;;;;;;;;;;;;;;;;;;;;;;;;;
;;;;;;;;;;;;;;;;;;;;;;;;;;;;;;
;;;;;;;;;;;;;;;;;;;;;;;;;;;;;;
;;;;;;;;;;;;;;;;;;;;;;;;;;;;;;
;;;;;;;;;;;;;;;;;;;;;;;;;;;;;;
;;;;;;;;;;;;;;;;;;;;;;;;;;;;;;
;;;;;;;;;;;;;;;;;;;;;;;;;;;;;;
;;;;;;;;;;;;;;;;;;;;;;;;;;;;;;
;;;;;;;;;;;;;;;;;;;;;;;;;;;;;;
;;;;;;;;;;;;;;;;;;;;;;;;;;;;;;
;;;;;;;;;;;;;;;;;;;;;;;;;;;;;;
;;;;;;;;;;;;;;;;;;;;;;;;;;;;;;
;;;;;;;;;;;;;;;;;;;;;;;;;;;;;;
;;;;;;;;;;;;;;;;;;;;;;;;;;;;;;
;;;;;;;;;;;;;;;;;;;;;;;;;;;;;;
;;;;;;;;;;;;;;;;;;;;;;;;;;;;;;
;;;;;;;;;;;;;;;;;;;;;;;;;;;;;;
;;;;;;;;;;;;;;;;;;;;;;;;;;;;;;
;;;;;;;;;;;;;;;;;;;;;;;;;;;;;;
;;;;;;;;;;;;;;;;;;;;;;;;;;;;;;
;;;;;;;;;;;;;;;;;;;;;;;;;;;;;;
;;;;;;;;;;;;;;;;;;;;;;;;;;;;;;
;;;;;;;;;;;;;;;;;;;;;;;;;;;;;;
;;;;;;;;;;;;;;;;;;;;;;;;;;;;;;
;;;;;;;;;;;;;;;;;;;;;;;;;;;;;;
;;;;;;;;;;;;;;;;;;;;;;;;;;;;;;
;;;;;;;;;;;;;;;;;;;;;;;;;;;;;;
;;;;;;;;;;;;;;;;;;;;;;;;;;;;;;
;;;;;;;;;;;;;;;;;;;;;;;;;;;;;;
;;;;;;;;;;;;;;;;;;;;;;;;;;;;;;
;;;;;;;;;;;;;;;;;;;;;;;;;;;;;;
;;;;;;;;;;;;;;;;;;;;;;;;;;;;;;
;;;;;;;;;;;;;;;;;;;;;;;;;;;;;;
;;;;;;;;;;;;;;;;;;;;;;;;;;;;;;
;;;;;;;;;;;;;;;;;;;;;;;;;;;;;;
;;;;;;;;;;;;;;;;;;;;;;;;;;;;;;
;;;;;;;;;;;;;;;;;;;;;;;;;;;;;;
;;;;;;;;;;;;;;;;;;;;;;;;;;;;;;
;;;;;;;;;;;;;;;;;;;;;;;;;;;;;;
;;;;;;;;;;;;;;;;;;;;;;;;;;;;;;
;;;;;;;;;;;;;;;;;;;;;;;;;;;;;;
;;;;;;;;;;;;;;;;;;;;;;;;;;;;;;
;;;;;;;;;;;;;;;;;;;;;;;;;;;;;;
;;;;;;;;;;;;;;;;;;;;;;;;;;;;;;
;;;;;;;;;;;;;;;;;;;;;;;;;;;;;;
;;;;;;;;;;;;;;;;;;;;;;;;;;;;;;
;;;;;;;;;;;;;;;;;;;;;;;;;;;;;;
;;;;;;;;;;;;;;;;;;;;;;;;;;;;;;
;;;;;;;;;;;;;;;;;;;;;;;;;;;;;;
;;;;;;;;;;;;;;;;;;;;;;;;;;;;;;
;;;;;;;;;;;;;;;;;;;;;;;;;;;;;;
;;;;;;;;;;;;;;;;;;;;;;;;;;;;;;
;;;;;;;;;;;;;;;;;;;;;;;;;;;;;;
;;;;;;;;;;;;;;;;;;;;;;;;;;;;;;
;;;;;;;;;;;;;;;;;;;;;;;;;;;;;;
;;;;;;;;;;;;;;;;;;;;;;;;;;;;;;
;;;;;;;;;;;;;;;;;;;;;;;;;;;;;;
;;;;;;;;;;;;;;;;;;;;;;;;;;;;;;
;;;;;;;;;;;;;;;;;;;;;;;;;;;;;;
;;;;;;;;;;;;;;;;;;;;;;;;;;;;;;
;;;;;;;;;;;;;;;;;;;;;;;;;;;;;;
;;;;;;;;;;;;;;;;;;;;;;;;;;;;;;
;;;;;;;;;;;;;;;;;;;;;;;;;;;;;;
;;;;;;;;;;;;;;;;;;;;;;;;;;;;;;
;;;;;;;;;;;;;;;;;;;;;;;;;;;;;;
;;;;;;;;;;;;;;;;;;;;;;;;;;;;;;
;;;;;;;;;;;;;;;;;;;;;;;;;;;;;;
;;;;;;;;;;;;;;;;;;;;;;;;;;;;;;
;;;;;;;;;;;;;;;;;;;;;;;;;;;;;;
;;;;;;;;;;;;;;;;;;;;;;;;;;;;;;
;;;;;;;;;;;;;;;;;;;;;;;;;;;;;;
;;;;;;;;;;;;;;;;;;;;;;;;;;;;;;
;;;;;;;;;;;;;;;;;;;;;;;;;;;;;;
;;;;;;;;;;;;;;;;;;;;;;;;;;;;;;
;;;;;;;;;;;;;;;;;;;;;;;;;;;;;;
;;;;;;;;;;;;;;;;;;;;;;;;;;;;;;
;;;;;;;;;;;;;;;;;;;;;;;;;;;;;;
;;;;;;;;;;;;;;;;;;;;;;;;;;;;;;
;;;;;;;;;;;;;;;;;;;;;;;;;;;;;;
;;;;;;;;;;;;;;;;;;;;;;;;;;;;;;
;;;;;;;;;;;;;;;;;;;;;;;;;;;;;;
;;;;;;;;;;;;;;;;;;;;;;;;;;;;;;
;;;;;;;;;;;;;;;;;;;;;;;;;;;;;;
;;;;;;;;;;;;;;;;;;;;;;;;;;;;;;
;;;;;;;;;;;;;;;;;;;;;;;;;;;;;;
;;;;;;;;;;;;;;;;;;;;;;;;;;;;;;